computing_cascade.vcd
$date
	Wed Mar 26 20:41:42 2025
$end
$version
	Icarus Verilog
$end
$timescale
	1s
$end
$scope module testbench $end
$var wire 1 ! o_vld $end
$var wire 32 " div_mag [31:0] $end
$var wire 32 # delta_ph [31:0] $end
$var reg 32 $ GLOBAL_COUNTER [31:0] $end
$var reg 1 % clk $end
$var reg 1 & i_vld $end
$var reg 1 ' rstn $end
$var reg 16 ( x1 [15:0] $end
$var reg 16 ) x2 [15:0] $end
$scope module test $end
$var wire 1 % clk $end
$var wire 1 & i_vld $end
$var wire 1 ! o_vld $end
$var wire 1 ' rstn $end
$var wire 1 * valid_fft $end
$var wire 16 + x1 [15:0] $end
$var wire 16 , x2 [15:0] $end
$var wire 16 - w_re [15:0] $end
$var wire 16 . w_im [15:0] $end
$var wire 1 / valid_phase $end
$var wire 1 0 valid_fft_round $end
$var wire 1 1 valid_fft_coral $end
$var wire 1 2 valid_div $end
$var wire 1 3 to_polar_vld $end
$var wire 32 4 round_re2 [31:0] $end
$var wire 32 5 round_re1 [31:0] $end
$var wire 32 6 round_im2 [31:0] $end
$var wire 32 7 round_im1 [31:0] $end
$var wire 76 8 re [75:0] $end
$var wire 32 9 o_phase2 [31:0] $end
$var wire 32 : o_phase1 [31:0] $end
$var wire 32 ; o_mag2 [31:0] $end
$var wire 32 < o_mag1 [31:0] $end
$var wire 76 = im [75:0] $end
$var wire 32 > div_mag [31:0] $end
$var wire 32 ? delta_ph [31:0] $end
$var wire 32 @ cordic_angle [31:0] $end
$var wire 6 A cnt [5:0] $end
$var wire 5 B address_angle [4:0] $end
$var reg 1 C valid_fft_prev $end
$scope module delta_PH_fifo $end
$var wire 1 % clk $end
$var wire 1 ! down_ready $end
$var wire 1 / down_valid $end
$var wire 1 D fifo_pop $end
$var wire 1 E fifo_push $end
$var wire 1 ' rstn $end
$var wire 32 F up_data [31:0] $end
$var wire 1 G up_ready $end
$var wire 1 3 up_valid $end
$var wire 1 H fifo_full $end
$var wire 1 I fifo_empty $end
$var wire 32 J down_data [31:0] $end
$scope module fifo $end
$var wire 1 % clk $end
$var wire 1 I empty $end
$var wire 1 K equal_ptrs $end
$var wire 1 H full $end
$var wire 1 D pop $end
$var wire 1 E push $end
$var wire 32 L read_data [31:0] $end
$var wire 1 ' rstn $end
$var wire 32 M write_data [31:0] $end
$var reg 1 N rd_ptr $end
$var reg 1 O rd_ptr_odd_circle $end
$var reg 1 P wr_ptr $end
$var reg 1 Q wr_ptr_odd_circle $end
$upscope $end
$upscope $end
$scope module div $end
$var wire 1 % clk $end
$var wire 32 R out [31:0] $end
$var wire 1 ' rstn $end
$var wire 64 S tmp [63:0] $end
$var wire 1 T ready $end
$var wire 1 2 o_vld $end
$var wire 1 3 i_vld $end
$var wire 1 U en $end
$var wire 64 V divr [63:0] $end
$var wire 32 W divisor [31:0] $end
$var wire 32 X dividend [31:0] $end
$var wire 64 Y divd [63:0] $end
$var reg 64 Z acc [63:0] $end
$var reg 5 [ cnt [4:0] $end
$var reg 64 \ divdp [63:0] $end
$var reg 64 ] divrp [63:0] $end
$var reg 2 ^ new_state [1:0] $end
$var reg 32 _ res [31:0] $end
$var reg 2 ` state [1:0] $end
$scope module dividend_zoom $end
$var wire 64 a out [63:0] $end
$var wire 40 b inr [39:0] $end
$var wire 32 c in [31:0] $end
$var reg 22 d ini [21:0] $end
$var reg 18 e outf [17:0] $end
$var reg 46 f outi [45:0] $end
$scope begin genblk4 $end
$upscope $end
$scope begin genblk6 $end
$upscope $end
$upscope $end
$scope module divisor_zoom $end
$var wire 64 g out [63:0] $end
$var wire 40 h inr [39:0] $end
$var wire 32 i in [31:0] $end
$var reg 22 j ini [21:0] $end
$var reg 18 k outf [17:0] $end
$var reg 46 l outi [45:0] $end
$scope begin genblk4 $end
$upscope $end
$scope begin genblk6 $end
$upscope $end
$upscope $end
$upscope $end
$scope module fft_core $end
$var wire 1 % clk $end
$var wire 1 ' rstn $end
$var wire 1 & valid_i $end
$var wire 32 m x [31:0] $end
$var wire 16 n w_re [15:0] $end
$var wire 16 o w_im [15:0] $end
$var wire 1 p reset_node $end
$var wire 76 q re [75:0] $end
$var wire 76 r im [75:0] $end
$var wire 1 s counter_enable $end
$var reg 6 t counter [5:0] $end
$var reg 1 1 valid_o $end
$scope begin IM[0] $end
$var wire 38 u psumm_i_im [37:0] $end
$var wire 1 v valid_psumm_i_im $end
$var wire 1 w valid_psumm_o_im $end
$var wire 38 x psumm_o_im [37:0] $end
$scope module im_node1 $end
$var wire 1 % clk $end
$var wire 1 y en $end
$var wire 1 & enable $end
$var wire 38 z psumm_i [37:0] $end
$var wire 1 ' rstn $end
$var wire 1 { valid_o_logic $end
$var wire 1 v valid_psumm_i $end
$var wire 1 & valid_x_i $end
$var wire 1 | valid_x_o $end
$var wire 16 } x_i [15:0] $end
$var wire 16 ~ x_o [15:0] $end
$var wire 32 !" weight_mult [31:0] $end
$var wire 16 "" weight_i [15:0] $end
$var wire 38 #" psumm_o_logic [37:0] $end
$var wire 38 $" psumm_o [37:0] $end
$var reg 38 %" psumm_reg [37:0] $end
$var reg 1 w valid_o $end
$upscope $end
$upscope $end
$scope begin IM[1] $end
$var wire 38 &" psumm_i_im [37:0] $end
$var wire 1 '" valid_psumm_i_im $end
$var wire 1 (" valid_psumm_o_im $end
$var wire 38 )" psumm_o_im [37:0] $end
$scope module im_node1 $end
$var wire 1 % clk $end
$var wire 1 *" en $end
$var wire 1 & enable $end
$var wire 38 +" psumm_i [37:0] $end
$var wire 1 ' rstn $end
$var wire 1 ," valid_o_logic $end
$var wire 1 '" valid_psumm_i $end
$var wire 1 & valid_x_i $end
$var wire 1 -" valid_x_o $end
$var wire 16 ." x_i [15:0] $end
$var wire 16 /" x_o [15:0] $end
$var wire 32 0" weight_mult [31:0] $end
$var wire 16 1" weight_i [15:0] $end
$var wire 38 2" psumm_o_logic [37:0] $end
$var wire 38 3" psumm_o [37:0] $end
$var reg 38 4" psumm_reg [37:0] $end
$var reg 1 (" valid_o $end
$upscope $end
$upscope $end
$scope begin RE[0] $end
$var wire 38 5" psumm_i_re [37:0] $end
$var wire 1 6" valid_psumm_i_re $end
$var wire 1 7" valid_psumm_o_re $end
$var wire 38 8" psumm_o_re [37:0] $end
$scope module re_node1 $end
$var wire 1 % clk $end
$var wire 1 9" en $end
$var wire 1 & enable $end
$var wire 38 :" psumm_i [37:0] $end
$var wire 1 ' rstn $end
$var wire 1 ;" valid_o_logic $end
$var wire 1 6" valid_psumm_i $end
$var wire 1 & valid_x_i $end
$var wire 1 <" valid_x_o $end
$var wire 16 =" x_i [15:0] $end
$var wire 16 >" x_o [15:0] $end
$var wire 32 ?" weight_mult [31:0] $end
$var wire 16 @" weight_i [15:0] $end
$var wire 38 A" psumm_o_logic [37:0] $end
$var wire 38 B" psumm_o [37:0] $end
$var reg 38 C" psumm_reg [37:0] $end
$var reg 1 7" valid_o $end
$upscope $end
$upscope $end
$scope begin RE[1] $end
$var wire 38 D" psumm_i_re [37:0] $end
$var wire 1 E" valid_psumm_i_re $end
$var wire 1 F" valid_psumm_o_re $end
$var wire 38 G" psumm_o_re [37:0] $end
$scope module re_node1 $end
$var wire 1 % clk $end
$var wire 1 H" en $end
$var wire 1 & enable $end
$var wire 38 I" psumm_i [37:0] $end
$var wire 1 ' rstn $end
$var wire 1 J" valid_o_logic $end
$var wire 1 E" valid_psumm_i $end
$var wire 1 & valid_x_i $end
$var wire 1 K" valid_x_o $end
$var wire 16 L" x_i [15:0] $end
$var wire 16 M" x_o [15:0] $end
$var wire 32 N" weight_mult [31:0] $end
$var wire 16 O" weight_i [15:0] $end
$var wire 38 P" psumm_o_logic [37:0] $end
$var wire 38 Q" psumm_o [37:0] $end
$var reg 38 R" psumm_reg [37:0] $end
$var reg 1 F" valid_o $end
$upscope $end
$upscope $end
$upscope $end
$scope module r_im1 $end
$var wire 1 % clk $end
$var wire 38 S" i_data [37:0] $end
$var wire 1 * i_vld $end
$var wire 1 ' rstn $end
$var wire 38 T" w_convergent [37:0] $end
$var reg 32 U" o_data [31:0] $end
$var reg 1 V" o_vld $end
$upscope $end
$scope module r_im2 $end
$var wire 1 % clk $end
$var wire 38 W" i_data [37:0] $end
$var wire 1 * i_vld $end
$var wire 1 ' rstn $end
$var wire 38 X" w_convergent [37:0] $end
$var reg 32 Y" o_data [31:0] $end
$var reg 1 Z" o_vld $end
$upscope $end
$scope module r_re1 $end
$var wire 1 % clk $end
$var wire 38 [" i_data [37:0] $end
$var wire 1 * i_vld $end
$var wire 1 ' rstn $end
$var wire 38 \" w_convergent [37:0] $end
$var reg 32 ]" o_data [31:0] $end
$var reg 1 0 o_vld $end
$upscope $end
$scope module r_re2 $end
$var wire 1 % clk $end
$var wire 38 ^" i_data [37:0] $end
$var wire 1 * i_vld $end
$var wire 1 ' rstn $end
$var wire 38 _" w_convergent [37:0] $end
$var reg 32 `" o_data [31:0] $end
$var reg 1 a" o_vld $end
$upscope $end
$scope module ram_angle $end
$var wire 1 % clk $end
$var wire 32 b" data_in [31:0] $end
$var wire 32 c" data_out [31:0] $end
$var wire 1 d" write_enable $end
$var wire 5 e" address [4:0] $end
$upscope $end
$scope module ram_im $end
$var wire 6 f" address [5:0] $end
$var wire 1 % clk $end
$var wire 16 g" data_in [15:0] $end
$var wire 16 h" data_out [15:0] $end
$var wire 1 i" write_enable $end
$upscope $end
$scope module ram_re $end
$var wire 6 j" address [5:0] $end
$var wire 1 % clk $end
$var wire 16 k" data_in [15:0] $end
$var wire 16 l" data_out [15:0] $end
$var wire 1 m" write_enable $end
$upscope $end
$scope module to_polar1 $end
$var wire 1 % clk $end
$var wire 32 n" cordic_angle [31:0] $end
$var wire 1 0 i_vld $end
$var wire 32 o" i_x [31:0] $end
$var wire 32 p" i_y [31:0] $end
$var wire 1 ' rstn $end
$var wire 32 q" ys_abs [31:0] $end
$var wire 1 r" sig $end
$var wire 1 s" ready $end
$var wire 1 3 o_vld $end
$var wire 32 t" o_phase [31:0] $end
$var wire 32 u" o_mag [31:0] $end
$var wire 1 v" en $end
$var reg 5 w" cnt [4:0] $end
$var reg 2 x" new_state [1:0] $end
$var reg 32 y" phs [31:0] $end
$var reg 2 z" state [1:0] $end
$var reg 32 {" xs [31:0] $end
$var reg 32 |" ys [31:0] $end
$upscope $end
$scope module to_polar2 $end
$var wire 1 % clk $end
$var wire 32 }" cordic_angle [31:0] $end
$var wire 1 0 i_vld $end
$var wire 32 ~" i_x [31:0] $end
$var wire 32 !# i_y [31:0] $end
$var wire 1 ' rstn $end
$var wire 32 "# ys_abs [31:0] $end
$var wire 1 ## sig $end
$var wire 1 $# ready $end
$var wire 1 %# o_vld $end
$var wire 32 &# o_phase [31:0] $end
$var wire 32 '# o_mag [31:0] $end
$var wire 1 (# en $end
$var reg 5 )# cnt [4:0] $end
$var reg 2 *# new_state [1:0] $end
$var reg 32 +# phs [31:0] $end
$var reg 2 ,# state [1:0] $end
$var reg 32 -# xs [31:0] $end
$var reg 32 .# ys [31:0] $end
$upscope $end
$upscope $end
$upscope $end
$enddefinitions $end
#0
$dumpvars
bx .#
bx -#
bx ,#
bx +#
bx *#
bx )#
x(#
bx '#
bx &#
x%#
x$#
x##
bx "#
bx !#
bx ~"
bx }"
bx |"
bx {"
bx z"
bx y"
bx x"
bx w"
xv"
bx u"
bx t"
xs"
xr"
bx q"
bx p"
bx o"
bx n"
zm"
bx l"
bz k"
bx j"
zi"
bx h"
bz g"
bx f"
bx e"
zd"
bx c"
bz b"
xa"
bx `"
bx _"
bx ^"
bx ]"
bx \"
bx ["
xZ"
bx Y"
bx X"
bx W"
xV"
bx U"
bx T"
bx S"
bx R"
bx Q"
bx P"
bx O"
bx N"
b0 M"
b0 L"
0K"
0J"
bx I"
0H"
bx G"
xF"
1E"
bx D"
bx C"
bx B"
bx A"
bx @"
bx ?"
b0 >"
b0 ="
0<"
0;"
bx :"
09"
bx 8"
x7"
16"
bx 5"
bx 4"
bx 3"
bx 2"
bx 1"
bx 0"
b0 /"
b0 ."
0-"
0,"
bx +"
0*"
bx )"
x("
1'"
bx &"
bx %"
bx $"
bx #"
bx ""
bx !"
b0 ~
b0 }
0|
0{
bx z
0y
bx x
xw
1v
bx u
bx t
xs
bx r
bx q
xp
bx o
bx n
b0 m
bx l
bx00000000 k
bx j
bx i
bx00000000 h
bx00000000 g
bx f
bx00000000 e
bx d
bx c
bx00000000 b
bx00000000 a
bx `
bx _
bx ^
bx ]
bx \
bx [
bx Z
bx00000000 Y
bx X
bx W
bx00000000 V
xU
xT
bx S
bx R
xQ
xP
xO
xN
bx M
bx L
xK
bx J
xI
xH
xG
bx F
xE
xD
xC
bx B
bx A
bx @
bx ?
bx >
bx =
bx <
bx ;
bx :
bx 9
bx 8
bx 7
bx 6
bx 5
bx 4
x3
x2
x1
x0
x/
bx .
bx -
b0 ,
b0 +
x*
b0 )
b0 (
0'
0&
0%
b0 $
bx #
bx "
x!
$end
#10
0/
1G
1I
0H
0D
0*
b0 2"
b0 &"
b0 +"
b0 #"
b0 u
b0 z
b0 P"
b0 D"
b0 I"
b0 A"
b0 5"
b0 :"
0E
1K
0!
b0 x"
b0 *#
b0 ^
07"
0F"
0w
0("
01
0s
0p
b0 0"
b0 !"
b0 .
b0 o
b0 ""
b0 1"
b0 h"
b0 N"
b0 ?"
b10000000000 -
b10000000000 n
b10000000000 @"
b10000000000 O"
b10000000000 l"
b0 A
b0 t
b0 f"
b0 j"
00
0V"
0a"
0Z"
03
1s"
b0 z"
0v"
b110101001000010100111001100 @
b110101001000010100111001100 c"
b110101001000010100111001100 n"
b110101001000010100111001100 }"
b0 B
b0 e"
b0 w"
0%#
1$#
b0 ,#
0(#
b0 )#
0Q
0P
0O
0N
1T
02
b0 `
0U
b0 [
0C
1%
#20
0%
#30
1%
#40
0%
#50
1'
1%
#60
0%
#70
1%
#80
0%
#90
1y
1*"
19"
1H"
b10 M"
b100000000000 P"
b100000000000 N"
b10 L"
b10 /"
b10 ."
b1 >"
b10000000000 A"
b10000000000 ?"
b1 ="
b1 ~
b1 }
1{
1,"
1;"
1J"
b10 )
b10 ,
b100000000000000001 m
b1 (
b1 +
1|
1-"
1<"
1K"
1&
1%
#100
0%
#110
b11111 X"
b11111 T"
b100000011111 _"
b10000011111 \"
b100000000000 D"
b100000000000 I"
b10000000000 5"
b10000000000 :"
b0 W"
b0 S"
b100000000000 ^"
b10000000000 ["
b100 M"
b100 L"
b100 /"
b100 ."
b10 >"
b10 ="
b10 ~
b10 }
1p
b100011100 2"
b100011100 0"
b10001110 #"
b10001110 !"
b1000111 .
b1000111 o
b1000111 ""
b1000111 1"
b1000111 h"
b1011111111000 P"
b111111111000 N"
b101111111100 A"
b11111111100 ?"
b1111111110 -
b1111111110 n
b1111111110 @"
b1111111110 O"
b1111111110 l"
b1 A
b1 t
b1 f"
b1 j"
1("
b0 )"
b0 3"
b0 4"
1w
b0 =
b0 r
b0 x
b0 $"
b0 %"
1F"
b100000000000 G"
b100000000000 Q"
b100000000000 R"
17"
b10000000000000000000000000000000000000010000000000 8
b10000000000000000000000000000000000000010000000000 q
b10000000000 8"
b10000000000 B"
b10000000000 C"
b100 )
b100 ,
b1000000000000000010 m
b10 (
b10 +
b1 $
1%
#120
0%
#130
b110 M"
b110 L"
b110 /"
b110 ."
b11 >"
b11 ="
b11 ~
b11 }
b110000011100 \"
b101111111100 ["
b101111111100 5"
b101111111100 :"
b1100000011000 _"
b1011111111000 ^"
b1011111111000 D"
b1011111111000 I"
b10101101 T"
b10001110 S"
b10001110 u
b10001110 z
b100111011 X"
b100011100 W"
b100011100 &"
b100011100 +"
b10 $
b110 )
b110 ,
b1100000000000000011 m
b11 (
b11 +
b101111111100 8"
b101111111100 B"
b101111111100 C"
b101111111100000000000000000000000000000101111111100 8
b101111111100000000000000000000000000000101111111100 q
b1011111111000 G"
b1011111111000 Q"
b1011111111000 R"
b10001110 x
b10001110 $"
b10001110 %"
b10001110000000000000000000000000000000010001110 =
b10001110000000000000000000000000000000010001110 r
b100011100 )"
b100011100 3"
b100011100 4"
b10001110110 2"
b1101011010 0"
b1000111011 #"
b110101101 !"
b10001111 .
b10001111 o
b10001111 ""
b10001111 1"
b10001111 h"
b10111110111100 P"
b1011111000100 N"
b1011111011110 A"
b101111100010 ?"
b1111110110 -
b1111110110 n
b1111110110 @"
b1111110110 O"
b1111110110 l"
b10 A
b10 t
b10 f"
b10 j"
1%
#140
0%
#150
b10010010110 X"
b10001110110 W"
b10001110110 &"
b10001110110 +"
b1001011010 T"
b1000111011 S"
b1000111011 u
b1000111011 z
b10111111011011 _"
b10111110111100 ^"
b10111110111100 D"
b10111110111100 I"
b1011111111110 \"
b1011111011110 ["
b1011111011110 5"
b1011111011110 :"
b1000 M"
b1000 L"
b1000 /"
b1000 ."
b100 >"
b100 ="
b100 ~
b100 }
b101100011110 2"
b11010101000 0"
b10110001111 #"
b1101010100 !"
b11010101 .
b11010101 o
b11010101 ""
b11010101 1"
b11010101 h"
b100111100001100 P"
b1111101010000 N"
b10011110000110 A"
b111110101000 ?"
b1111101010 -
b1111101010 n
b1111101010 @"
b1111101010 O"
b1111101010 l"
b11 A
b11 t
b11 f"
b11 j"
b10001110110 )"
b10001110110 3"
b10001110110 4"
b1000111011000000000000000000000000000001000111011 =
b1000111011000000000000000000000000000001000111011 r
b1000111011 x
b1000111011 $"
b1000111011 %"
b10111110111100 G"
b10111110111100 Q"
b10111110111100 R"
b1011111011110000000000000000000000000001011111011110 8
b1011111011110000000000000000000000000001011111011110 q
b1011111011110 8"
b1011111011110 B"
b1011111011110 C"
b1000 )
b1000 ,
b10000000000000000100 m
b100 (
b100 +
b11 $
1%
#160
0%
#170
b1010 M"
b1010 L"
b1010 /"
b1010 ."
b101 >"
b101 ="
b101 ~
b101 }
b10011110100101 \"
b10011110000110 ["
b10011110000110 5"
b10011110000110 :"
b100111100101011 _"
b100111100001100 ^"
b100111100001100 D"
b100111100001100 I"
b10110101110 T"
b10110001111 S"
b10110001111 u
b10110001111 z
b101100111101 X"
b101100011110 W"
b101100011110 &"
b101100011110 +"
b100 $
b1010 )
b1010 ,
b10100000000000000101 m
b101 (
b101 +
b10011110000110 8"
b10011110000110 B"
b10011110000110 C"
b10011110000110000000000000000000000000010011110000110 8
b10011110000110000000000000000000000000010011110000110 q
b100111100001100 G"
b100111100001100 Q"
b100111100001100 R"
b10110001111 x
b10110001111 $"
b10110001111 %"
b10110001111000000000000000000000000000010110001111 =
b10110001111000000000000000000000000000010110001111 r
b101100011110 )"
b101100011110 3"
b101100011110 4"
b1011000100010 2"
b101100000100 0"
b101100010001 #"
b10110000010 !"
b100011010 .
b100011010 o
b100011010 ""
b100011010 1"
b100011010 h"
b111010101111100 P"
b10011001110000 N"
b11101010111110 A"
b1001100111000 ?"
b1111011000 -
b1111011000 n
b1111011000 @"
b1111011000 O"
b1111011000 l"
b100 A
b100 t
b100 f"
b100 j"
1%
#180
0%
#190
b1011001000001 X"
b1011000100010 W"
b1011000100010 &"
b1011000100010 +"
b101100110000 T"
b101100010001 S"
b101100010001 u
b101100010001 z
b111010110011100 _"
b111010101111100 ^"
b111010101111100 D"
b111010101111100 I"
b11101011011101 \"
b11101010111110 ["
b11101010111110 5"
b11101010111110 :"
b1100 M"
b1100 L"
b1100 /"
b1100 ."
b110 >"
b110 ="
b110 ~
b110 }
b10011010001010 2"
b1000001101000 0"
b1001101000101 #"
b100000110100 !"
b101011110 .
b101011110 o
b101011110 ""
b101011110 1"
b101011110 h"
b1010001010010100 P"
b10110100011000 N"
b101000101001010 A"
b1011010001100 ?"
b1111000010 -
b1111000010 n
b1111000010 @"
b1111000010 O"
b1111000010 l"
b101 A
b101 t
b101 f"
b101 j"
b1011000100010 )"
b1011000100010 3"
b1011000100010 4"
b101100010001000000000000000000000000000101100010001 =
b101100010001000000000000000000000000000101100010001 r
b101100010001 x
b101100010001 $"
b101100010001 %"
b111010101111100 G"
b111010101111100 Q"
b111010101111100 R"
b11101010111110000000000000000000000000011101010111110 8
b11101010111110000000000000000000000000011101010111110 q
b11101010111110 8"
b11101010111110 B"
b11101010111110 C"
b1100 )
b1100 ,
b11000000000000000110 m
b110 (
b110 +
b101 $
1%
#200
0%
#210
b1110 M"
b1110 L"
b1110 /"
b1110 ."
b111 >"
b111 ="
b111 ~
b111 }
b101000101101010 \"
b101000101001010 ["
b101000101001010 5"
b101000101001010 :"
b1010001010110011 _"
b1010001010010100 ^"
b1010001010010100 D"
b1010001010010100 I"
b1001101100101 T"
b1001101000101 S"
b1001101000101 u
b1001101000101 z
b10011010101001 X"
b10011010001010 W"
b10011010001010 &"
b10011010001010 +"
b110 $
b1110 )
b1110 ,
b11100000000000000111 m
b111 (
b111 +
b101000101001010 8"
b101000101001010 B"
b101000101001010 C"
b101000101001010000000000000000000000000101000101001010 8
b101000101001010000000000000000000000000101000101001010 q
b1010001010010100 G"
b1010001010010100 Q"
b1010001010010100 R"
b1001101000101 x
b1001101000101 $"
b1001101000101 %"
b1001101000101000000000000000000000000001001101000101 =
b1001101000101000000000000000000000000001001101000101 r
b10011010001010 )"
b10011010001010 3"
b10011010001010 4"
b11110101001010 2"
b1011011000000 0"
b1111010100101 #"
b101101100000 !"
b110100000 .
b110100000 o
b110100000 ""
b110100000 1"
b110100000 h"
b1101010110110110 P"
b11001100100010 N"
b110101011011011 A"
b1100110010001 ?"
b1110100111 -
b1110100111 n
b1110100111 @"
b1110100111 O"
b1110100111 l"
b110 A
b110 t
b110 f"
b110 j"
1%
#220
0%
#230
b11110101101010 X"
b11110101001010 W"
b11110101001010 &"
b11110101001010 +"
b1111011000100 T"
b1111010100101 S"
b1111010100101 u
b1111010100101 z
b1101010111010101 _"
b1101010110110110 ^"
b1101010110110110 D"
b1101010110110110 I"
b110101011111011 \"
b110101011011011 ["
b110101011011011 5"
b110101011011011 :"
b10000 M"
b10000 L"
b10000 /"
b10000 ."
b1000 >"
b1000 ="
b1000 ~
b1000 }
b101101101011010 2"
b1111000010000 0"
b10110110101101 #"
b111100001000 !"
b111100001 .
b111100001 o
b111100001 ""
b111100001 1"
b111100001 h"
b10000111000110110 P"
b11100010000000 N"
b1000011100011011 A"
b1110001000000 ?"
b1110001000 -
b1110001000 n
b1110001000 @"
b1110001000 O"
b1110001000 l"
b111 A
b111 t
b111 f"
b111 j"
b11110101001010 )"
b11110101001010 3"
b11110101001010 4"
b1111010100101000000000000000000000000001111010100101 =
b1111010100101000000000000000000000000001111010100101 r
b1111010100101 x
b1111010100101 $"
b1111010100101 %"
b1101010110110110 G"
b1101010110110110 Q"
b1101010110110110 R"
b110101011011011000000000000000000000000110101011011011 8
b110101011011011000000000000000000000000110101011011011 q
b110101011011011 8"
b110101011011011 B"
b110101011011011 C"
b10000 )
b10000 ,
b100000000000000001000 m
b1000 (
b1000 +
b111 $
1%
#240
0%
#250
b10010 M"
b10010 L"
b10010 /"
b10010 ."
b1001 >"
b1001 ="
b1001 ~
b1001 }
b1000011100111010 \"
b1000011100011011 ["
b1000011100011011 5"
b1000011100011011 :"
b10000111001010101 _"
b10000111000110110 ^"
b10000111000110110 D"
b10000111000110110 I"
b10110111001100 T"
b10110110101101 S"
b10110110101101 u
b10110110101101 z
b101101101111010 X"
b101101101011010 W"
b101101101011010 &"
b101101101011010 +"
b1000 $
b10010 )
b10010 ,
b100100000000000001001 m
b1001 (
b1001 +
b1000011100011011 8"
b1000011100011011 B"
b1000011100011011 C"
b1000011100011011000000000000000000000001000011100011011 8
b1000011100011011000000000000000000000001000011100011011 q
b10000111000110110 G"
b10000111000110110 Q"
b10000111000110110 R"
b10110110101101 x
b10110110101101 $"
b10110110101101 %"
b10110110101101000000000000000000000000010110110101101 =
b10110110101101000000000000000000000000010110110101101 r
b101101101011010 )"
b101101101011010 3"
b101101101011010 4"
b1000000110001000 2"
b10011000101110 0"
b100000011000100 #"
b1001100010111 !"
b1000011111 .
b1000011111 o
b1000011111 ""
b1000011111 1"
b1000011111 h"
b10100101100111110 P"
b11110100001000 N"
b1010010110011111 A"
b1111010000100 ?"
b1101100100 -
b1101100100 n
b1101100100 @"
b1101100100 O"
b1101100100 l"
b1000 A
b1000 t
b1000 f"
b1000 j"
1%
#260
0%
#270
b1000000110100111 X"
b1000000110001000 W"
b1000000110001000 &"
b1000000110001000 +"
b100000011100100 T"
b100000011000100 S"
b100000011000100 u
b100000011000100 z
b10100101101011101 _"
b10100101100111110 ^"
b10100101100111110 D"
b10100101100111110 I"
b1010010110111110 \"
b1010010110011111 ["
b1010010110011111 5"
b1010010110011111 :"
b10100 M"
b10100 L"
b10100 /"
b10100 ."
b1010 >"
b1010 ="
b1010 ~
b1010 }
b1011000010010000 2"
b10111100001000 0"
b101100001001000 #"
b1011110000100 !"
b1001011010 .
b1001011010 o
b1001011010 ""
b1001011010 1"
b1001011010 h"
b11000101111101110 P"
b100000010110000 N"
b1100010111110111 A"
b10000001011000 ?"
b1100111100 -
b1100111100 n
b1100111100 @"
b1100111100 O"
b1100111100 l"
b1001 A
b1001 t
b1001 f"
b1001 j"
b1000000110001000 )"
b1000000110001000 3"
b1000000110001000 4"
b100000011000100000000000000000000000000100000011000100 =
b100000011000100000000000000000000000000100000011000100 r
b100000011000100 x
b100000011000100 $"
b100000011000100 %"
b10100101100111110 G"
b10100101100111110 Q"
b10100101100111110 R"
b1010010110011111000000000000000000000001010010110011111 8
b1010010110011111000000000000000000000001010010110011111 q
b1010010110011111 8"
b1010010110011111 B"
b1010010110011111 C"
b10100 )
b10100 ,
b101000000000000001010 m
b1010 (
b1010 +
b1001 $
1%
#280
0%
#290
b10110 M"
b10110 L"
b10110 /"
b10110 ."
b1011 >"
b1011 ="
b1011 ~
b1011 }
b1100011000010111 \"
b1100010111110111 ["
b1100010111110111 5"
b1100010111110111 :"
b11000110000001110 _"
b11000101111101110 ^"
b11000101111101110 D"
b11000101111101110 I"
b101100001101000 T"
b101100001001000 S"
b101100001001000 u
b101100001001000 z
b1011000010101111 X"
b1011000010010000 W"
b1011000010010000 &"
b1011000010010000 +"
b1010 $
b10110 )
b10110 ,
b101100000000000001011 m
b1011 (
b1011 +
b1100010111110111 8"
b1100010111110111 B"
b1100010111110111 C"
b1100010111110111000000000000000000000001100010111110111 8
b1100010111110111000000000000000000000001100010111110111 q
b11000101111101110 G"
b11000101111101110 Q"
b11000101111101110 R"
b101100001001000 x
b101100001001000 $"
b101100001001000 %"
b101100001001000000000000000000000000000101100001001000 =
b101100001001000000000000000000000000000101100001001000 r
b1011000010010000 )"
b1011000010010000 3"
b1011000010010000 4"
b1110100100011100 2"
b11100010001100 0"
b111010010001110 #"
b1110001000110 !"
b1010010010 .
b1010010010 o
b1010010010 ""
b1010010010 1"
b1010010010 h"
b11100111101001110 P"
b100001101100000 N"
b1110011110100111 A"
b10000110110000 ?"
b1100010000 -
b1100010000 n
b1100010000 @"
b1100010000 O"
b1100010000 l"
b1010 A
b1010 t
b1010 f"
b1010 j"
1%
#300
0%
#310
b1110100100111011 X"
b1110100100011100 W"
b1110100100011100 &"
b1110100100011100 +"
b111010010101101 T"
b111010010001110 S"
b111010010001110 u
b111010010001110 z
b11100111101101110 _"
b11100111101001110 ^"
b11100111101001110 D"
b11100111101001110 I"
b1110011111000110 \"
b1110011110100111 ["
b1110011110100111 5"
b1110011110100111 :"
b11000 M"
b11000 L"
b11000 /"
b11000 ."
b1100 >"
b1100 ="
b1100 ~
b1100 }
b10010101111000100 2"
b100001010101000 0"
b1001010111100010 #"
b10000101010100 !"
b1011000111 .
b1011000111 o
b1011000111 ""
b1011000111 1"
b1011000111 h"
b100001010001100110 P"
b100010100011000 N"
b10000101000110011 A"
b10001010001100 ?"
b1011100001 -
b1011100001 n
b1011100001 @"
b1011100001 O"
b1011100001 l"
b1011 A
b1011 t
b1011 f"
b1011 j"
b1110100100011100 )"
b1110100100011100 3"
b1110100100011100 4"
b111010010001110000000000000000000000000111010010001110 =
b111010010001110000000000000000000000000111010010001110 r
b111010010001110 x
b111010010001110 $"
b111010010001110 %"
b11100111101001110 G"
b11100111101001110 Q"
b11100111101001110 R"
b1110011110100111000000000000000000000001110011110100111 8
b1110011110100111000000000000000000000001110011110100111 q
b1110011110100111 8"
b1110011110100111 B"
b1110011110100111 C"
b11000 )
b11000 ,
b110000000000000001100 m
b1100 (
b1100 +
b1011 $
1%
#320
0%
