computing_cascade.vcd
$date
	Thu Mar 27 09:18:36 2025
$end
$version
	Icarus Verilog
$end
$timescale
	1s
$end
$scope module testbench $end
$var wire 1 ! o_vld $end
$var wire 32 " div_mag [31:0] $end
$var wire 32 # delta_ph [31:0] $end
$var reg 32 $ GLOBAL_COUNTER [31:0] $end
$var reg 1 % clk $end
$var reg 1 & i_vld $end
$var reg 1 ' rstn $end
$var reg 16 ( x1 [15:0] $end
$var reg 16 ) x2 [15:0] $end
$scope module test $end
$var wire 1 % clk $end
$var wire 1 & i_vld $end
$var wire 1 ! o_vld $end
$var wire 1 ' rstn $end
$var wire 1 * valid_fft $end
$var wire 16 + x1 [15:0] $end
$var wire 16 , x2 [15:0] $end
$var wire 16 - w_re [15:0] $end
$var wire 16 . w_im [15:0] $end
$var wire 1 / valid_phase $end
$var wire 1 0 valid_fft_round $end
$var wire 1 1 valid_fft_coral $end
$var wire 1 2 valid_div $end
$var wire 1 3 to_polar_vld $end
$var wire 32 4 round_re2 [31:0] $end
$var wire 32 5 round_re1 [31:0] $end
$var wire 32 6 round_im2 [31:0] $end
$var wire 32 7 round_im1 [31:0] $end
$var wire 76 8 re [75:0] $end
$var wire 32 9 o_phase2 [31:0] $end
$var wire 32 : o_phase1 [31:0] $end
$var wire 32 ; o_mag2 [31:0] $end
$var wire 32 < o_mag1 [31:0] $end
$var wire 76 = im [75:0] $end
$var wire 32 > div_mag [31:0] $end
$var wire 32 ? delta_ph [31:0] $end
$var wire 32 @ cordic_angle [31:0] $end
$var wire 6 A cnt [5:0] $end
$var wire 5 B address_angle [4:0] $end
$var reg 1 C valid_fft_prev $end
$scope module delta_PH_fifo $end
$var wire 1 % clk $end
$var wire 1 ! down_ready $end
$var wire 1 / down_valid $end
$var wire 1 D fifo_pop $end
$var wire 1 E fifo_push $end
$var wire 1 ' rstn $end
$var wire 32 F up_data [31:0] $end
$var wire 1 G up_ready $end
$var wire 1 3 up_valid $end
$var wire 1 H fifo_full $end
$var wire 1 I fifo_empty $end
$var wire 32 J down_data [31:0] $end
$scope module fifo $end
$var wire 1 % clk $end
$var wire 1 I empty $end
$var wire 1 K equal_ptrs $end
$var wire 1 H full $end
$var wire 1 D pop $end
$var wire 1 E push $end
$var wire 32 L read_data [31:0] $end
$var wire 1 ' rstn $end
$var wire 32 M write_data [31:0] $end
$var reg 1 N rd_ptr $end
$var reg 1 O rd_ptr_odd_circle $end
$var reg 1 P wr_ptr $end
$var reg 1 Q wr_ptr_odd_circle $end
$upscope $end
$upscope $end
$scope module div $end
$var wire 1 % clk $end
$var wire 32 R out [31:0] $end
$var wire 1 ' rstn $end
$var wire 64 S tmp [63:0] $end
$var wire 1 T ready $end
$var wire 1 2 o_vld $end
$var wire 1 3 i_vld $end
$var wire 1 U en $end
$var wire 64 V divr [63:0] $end
$var wire 32 W divisor [31:0] $end
$var wire 32 X dividend [31:0] $end
$var wire 64 Y divd [63:0] $end
$var reg 64 Z acc [63:0] $end
$var reg 5 [ cnt [4:0] $end
$var reg 64 \ divdp [63:0] $end
$var reg 64 ] divrp [63:0] $end
$var reg 2 ^ new_state [1:0] $end
$var reg 32 _ res [31:0] $end
$var reg 2 ` state [1:0] $end
$scope module dividend_zoom $end
$var wire 64 a out [63:0] $end
$var wire 40 b inr [39:0] $end
$var wire 32 c in [31:0] $end
$var reg 22 d ini [21:0] $end
$var reg 18 e outf [17:0] $end
$var reg 46 f outi [45:0] $end
$scope begin genblk4 $end
$upscope $end
$scope begin genblk6 $end
$upscope $end
$upscope $end
$scope module divisor_zoom $end
$var wire 64 g out [63:0] $end
$var wire 40 h inr [39:0] $end
$var wire 32 i in [31:0] $end
$var reg 22 j ini [21:0] $end
$var reg 18 k outf [17:0] $end
$var reg 46 l outi [45:0] $end
$scope begin genblk4 $end
$upscope $end
$scope begin genblk6 $end
$upscope $end
$upscope $end
$upscope $end
$scope module fft_core $end
$var wire 1 % clk $end
$var wire 1 ' rstn $end
$var wire 1 & valid_i $end
$var wire 32 m x [31:0] $end
$var wire 16 n w_re [15:0] $end
$var wire 16 o w_im [15:0] $end
$var wire 1 p reset_node $end
$var wire 76 q re [75:0] $end
$var wire 76 r im [75:0] $end
$var wire 1 s counter_enable $end
$var reg 6 t counter [5:0] $end
$var reg 1 1 valid_o $end
$scope begin IM[0] $end
$var wire 38 u psumm_i_im [37:0] $end
$var wire 1 v valid_psumm_i_im $end
$var wire 1 w valid_psumm_o_im $end
$var wire 38 x psumm_o_im [37:0] $end
$scope module im_node1 $end
$var wire 1 % clk $end
$var wire 1 y en $end
$var wire 1 & enable $end
$var wire 38 z psumm_i [37:0] $end
$var wire 1 ' rstn $end
$var wire 1 { valid_o_logic $end
$var wire 1 v valid_psumm_i $end
$var wire 1 & valid_x_i $end
$var wire 1 | valid_x_o $end
$var wire 16 } x_i [15:0] $end
$var wire 16 ~ x_o [15:0] $end
$var wire 32 !" weight_mult [31:0] $end
$var wire 16 "" weight_i [15:0] $end
$var wire 38 #" psumm_o_logic [37:0] $end
$var wire 38 $" psumm_o [37:0] $end
$var reg 38 %" psumm_reg [37:0] $end
$var reg 1 w valid_o $end
$upscope $end
$upscope $end
$scope begin IM[1] $end
$var wire 38 &" psumm_i_im [37:0] $end
$var wire 1 '" valid_psumm_i_im $end
$var wire 1 (" valid_psumm_o_im $end
$var wire 38 )" psumm_o_im [37:0] $end
$scope module im_node1 $end
$var wire 1 % clk $end
$var wire 1 *" en $end
$var wire 1 & enable $end
$var wire 38 +" psumm_i [37:0] $end
$var wire 1 ' rstn $end
$var wire 1 ," valid_o_logic $end
$var wire 1 '" valid_psumm_i $end
$var wire 1 & valid_x_i $end
$var wire 1 -" valid_x_o $end
$var wire 16 ." x_i [15:0] $end
$var wire 16 /" x_o [15:0] $end
$var wire 32 0" weight_mult [31:0] $end
$var wire 16 1" weight_i [15:0] $end
$var wire 38 2" psumm_o_logic [37:0] $end
$var wire 38 3" psumm_o [37:0] $end
$var reg 38 4" psumm_reg [37:0] $end
$var reg 1 (" valid_o $end
$upscope $end
$upscope $end
$scope begin RE[0] $end
$var wire 38 5" psumm_i_re [37:0] $end
$var wire 1 6" valid_psumm_i_re $end
$var wire 1 7" valid_psumm_o_re $end
$var wire 38 8" psumm_o_re [37:0] $end
$scope module re_node1 $end
$var wire 1 % clk $end
$var wire 1 9" en $end
$var wire 1 & enable $end
$var wire 38 :" psumm_i [37:0] $end
$var wire 1 ' rstn $end
$var wire 1 ;" valid_o_logic $end
$var wire 1 6" valid_psumm_i $end
$var wire 1 & valid_x_i $end
$var wire 1 <" valid_x_o $end
$var wire 16 =" x_i [15:0] $end
$var wire 16 >" x_o [15:0] $end
$var wire 32 ?" weight_mult [31:0] $end
$var wire 16 @" weight_i [15:0] $end
$var wire 38 A" psumm_o_logic [37:0] $end
$var wire 38 B" psumm_o [37:0] $end
$var reg 38 C" psumm_reg [37:0] $end
$var reg 1 7" valid_o $end
$upscope $end
$upscope $end
$scope begin RE[1] $end
$var wire 38 D" psumm_i_re [37:0] $end
$var wire 1 E" valid_psumm_i_re $end
$var wire 1 F" valid_psumm_o_re $end
$var wire 38 G" psumm_o_re [37:0] $end
$scope module re_node1 $end
$var wire 1 % clk $end
$var wire 1 H" en $end
$var wire 1 & enable $end
$var wire 38 I" psumm_i [37:0] $end
$var wire 1 ' rstn $end
$var wire 1 J" valid_o_logic $end
$var wire 1 E" valid_psumm_i $end
$var wire 1 & valid_x_i $end
$var wire 1 K" valid_x_o $end
$var wire 16 L" x_i [15:0] $end
$var wire 16 M" x_o [15:0] $end
$var wire 32 N" weight_mult [31:0] $end
$var wire 16 O" weight_i [15:0] $end
$var wire 38 P" psumm_o_logic [37:0] $end
$var wire 38 Q" psumm_o [37:0] $end
$var reg 38 R" psumm_reg [37:0] $end
$var reg 1 F" valid_o $end
$upscope $end
$upscope $end
$upscope $end
$scope module r_im1 $end
$var wire 1 % clk $end
$var wire 38 S" i_data [37:0] $end
$var wire 1 * i_vld $end
$var wire 1 ' rstn $end
$var wire 38 T" w_convergent [37:0] $end
$var reg 32 U" o_data [31:0] $end
$var reg 1 V" o_vld $end
$upscope $end
$scope module r_im2 $end
$var wire 1 % clk $end
$var wire 38 W" i_data [37:0] $end
$var wire 1 * i_vld $end
$var wire 1 ' rstn $end
$var wire 38 X" w_convergent [37:0] $end
$var reg 32 Y" o_data [31:0] $end
$var reg 1 Z" o_vld $end
$upscope $end
$scope module r_re1 $end
$var wire 1 % clk $end
$var wire 38 [" i_data [37:0] $end
$var wire 1 * i_vld $end
$var wire 1 ' rstn $end
$var wire 38 \" w_convergent [37:0] $end
$var reg 32 ]" o_data [31:0] $end
$var reg 1 0 o_vld $end
$upscope $end
$scope module r_re2 $end
$var wire 1 % clk $end
$var wire 38 ^" i_data [37:0] $end
$var wire 1 * i_vld $end
$var wire 1 ' rstn $end
$var wire 38 _" w_convergent [37:0] $end
$var reg 32 `" o_data [31:0] $end
$var reg 1 a" o_vld $end
$upscope $end
$scope module ram_angle $end
$var wire 1 % clk $end
$var wire 32 b" data_in [31:0] $end
$var wire 32 c" data_out [31:0] $end
$var wire 1 d" write_enable $end
$var wire 5 e" address [4:0] $end
$upscope $end
$scope module ram_im $end
$var wire 6 f" address [5:0] $end
$var wire 1 % clk $end
$var wire 16 g" data_in [15:0] $end
$var wire 16 h" data_out [15:0] $end
$var wire 1 i" write_enable $end
$upscope $end
$scope module ram_re $end
$var wire 6 j" address [5:0] $end
$var wire 1 % clk $end
$var wire 16 k" data_in [15:0] $end
$var wire 16 l" data_out [15:0] $end
$var wire 1 m" write_enable $end
$upscope $end
$scope module to_polar1 $end
$var wire 1 % clk $end
$var wire 32 n" cordic_angle [31:0] $end
$var wire 1 0 i_vld $end
$var wire 32 o" i_x [31:0] $end
$var wire 32 p" i_y [31:0] $end
$var wire 1 ' rstn $end
$var wire 32 q" ys_abs [31:0] $end
$var wire 1 r" sig $end
$var wire 1 s" ready $end
$var wire 1 3 o_vld $end
$var wire 32 t" o_phase [31:0] $end
$var wire 32 u" o_mag [31:0] $end
$var wire 1 v" en $end
$var reg 5 w" cnt [4:0] $end
$var reg 2 x" new_state [1:0] $end
$var reg 32 y" phs [31:0] $end
$var reg 2 z" state [1:0] $end
$var reg 32 {" xs [31:0] $end
$var reg 32 |" ys [31:0] $end
$upscope $end
$scope module to_polar2 $end
$var wire 1 % clk $end
$var wire 32 }" cordic_angle [31:0] $end
$var wire 1 0 i_vld $end
$var wire 32 ~" i_x [31:0] $end
$var wire 32 !# i_y [31:0] $end
$var wire 1 ' rstn $end
$var wire 32 "# ys_abs [31:0] $end
$var wire 1 ## sig $end
$var wire 1 $# ready $end
$var wire 1 %# o_vld $end
$var wire 32 &# o_phase [31:0] $end
$var wire 32 '# o_mag [31:0] $end
$var wire 1 (# en $end
$var reg 5 )# cnt [4:0] $end
$var reg 2 *# new_state [1:0] $end
$var reg 32 +# phs [31:0] $end
$var reg 2 ,# state [1:0] $end
$var reg 32 -# xs [31:0] $end
$var reg 32 .# ys [31:0] $end
$upscope $end
$upscope $end
$upscope $end
$enddefinitions $end
#0
$dumpvars
bx .#
bx -#
bx ,#
bx +#
bx *#
bx )#
x(#
bx '#
bx &#
x%#
x$#
x##
bx "#
bx !#
bx ~"
bx }"
bx |"
bx {"
bx z"
bx y"
bx x"
bx w"
xv"
bx u"
bx t"
xs"
xr"
bx q"
bx p"
bx o"
bx n"
zm"
bx l"
bz k"
bx j"
zi"
bx h"
bz g"
bx f"
bx e"
zd"
bx c"
bz b"
xa"
bx `"
bx _"
bx ^"
bx ]"
bx \"
bx ["
xZ"
bx Y"
bx X"
bx W"
xV"
bx U"
bx T"
bx S"
bx R"
bx Q"
bx P"
bx O"
bx N"
b0 M"
b0 L"
0K"
0J"
bx I"
0H"
bx G"
xF"
1E"
bx D"
bx C"
bx B"
bx A"
bx @"
bx ?"
b0 >"
b0 ="
0<"
0;"
bx :"
09"
bx 8"
x7"
16"
bx 5"
bx 4"
bx 3"
bx 2"
bx 1"
bx 0"
b0 /"
b0 ."
0-"
0,"
bx +"
0*"
bx )"
x("
1'"
bx &"
bx %"
bx $"
bx #"
bx ""
bx !"
b0 ~
b0 }
0|
0{
bx z
0y
bx x
xw
1v
bx u
bx t
xs
bx r
bx q
xp
bx o
bx n
b0 m
bx l
bx00000000 k
bx j
bx i
bx00000000 h
bx00000000 g
bx f
bx00000000 e
bx d
bx c
bx00000000 b
bx00000000 a
bx `
bx _
bx ^
bx ]
bx \
bx [
bx Z
bx00000000 Y
bx X
bx W
bx00000000 V
xU
xT
bx S
bx R
xQ
xP
xO
xN
bx M
bx L
xK
bx J
xI
xH
xG
bx F
xE
xD
xC
bx B
bx A
bx @
bx ?
bx >
bx =
bx <
bx ;
bx :
bx 9
bx 8
bx 7
bx 6
bx 5
bx 4
x3
x2
x1
x0
x/
bx .
bx -
b0 ,
b0 +
x*
b0 )
b0 (
0'
0&
0%
b0 $
bx #
bx "
x!
$end
#10
0/
1G
1I
0H
0D
0*
b0 2"
b0 &"
b0 +"
b0 #"
b0 u
b0 z
b0 P"
b0 D"
b0 I"
b0 A"
b0 5"
b0 :"
0E
1K
0!
b0 x"
b0 *#
b0 ^
07"
0F"
0w
0("
01
0s
0p
b0 0"
b0 !"
b0 .
b0 o
b0 ""
b0 1"
b0 h"
b0 N"
b0 ?"
b10000000000 -
b10000000000 n
b10000000000 @"
b10000000000 O"
b10000000000 l"
b0 A
b0 t
b0 f"
b0 j"
00
0V"
0a"
0Z"
03
1s"
b0 z"
0v"
b110101001000010100111001100 @
b110101001000010100111001100 c"
b110101001000010100111001100 n"
b110101001000010100111001100 }"
b0 B
b0 e"
b0 w"
0%#
1$#
b0 ,#
0(#
b0 )#
0Q
0P
0O
0N
1T
02
b0 `
0U
b0 [
0C
1%
#20
0%
#30
1%
#40
0%
#50
1'
1%
#60
0%
#70
1y
1*"
19"
1H"
b10 M"
b100000000000 P"
b100000000000 N"
b10 L"
b10 /"
b10 ."
b1 >"
b10000000000 A"
b10000000000 ?"
b1 ="
b1 ~
b1 }
1{
1,"
1;"
1J"
b10 )
b10 ,
b100000000000000001 m
b1 (
b1 +
1|
1-"
1<"
1K"
1&
1%
#80
0%
#90
b10000011111 \"
b100000011111 _"
b11111 T"
b11111 X"
0{
0y
0,"
0*"
0;"
09"
0J"
0H"
b10000000000 ["
b100000000000 ^"
b0 S"
b0 W"
b100000000000 D"
b100000000000 I"
b10000000000 5"
b10000000000 :"
0|
0-"
0<"
0K"
0&
b10000000000 8"
b10000000000 B"
b10000000000 C"
17"
b10000000000000000000000000000000000000010000000000 8
b10000000000000000000000000000000000000010000000000 q
b100000000000 G"
b100000000000 Q"
b100000000000 R"
1F"
b0 x
b0 $"
b0 %"
1w
b0 =
b0 r
b0 )"
b0 3"
b0 4"
1("
1p
b10001110 2"
b10001110 0"
b1000111 #"
b1000111 !"
b1000111 .
b1000111 o
b1000111 ""
b1000111 1"
b1000111 h"
b111111111100 P"
b11111111100 N"
b11111111110 A"
b1111111110 ?"
b1111111110 -
b1111111110 n
b1111111110 @"
b1111111110 O"
b1111111110 l"
b1 A
b1 t
b1 f"
b1 j"
b1 $
1%
#100
0%
#110
b10 $
1%
#120
0%
#130
b11 $
1%
#140
0%
#150
b100 $
1%
#160
0%
#170
b101 $
1%
#180
0%
#190
b110 $
1%
#200
0%
#210
b111 $
1%
#220
0%
#230
b1000 $
1%
#240
0%
#250
1y
1*"
19"
1H"
b100 M"
b1011111111000 P"
b111111111000 N"
b100 L"
b100 /"
b100011100 2"
b100011100 0"
b100 ."
b10 >"
b101111111100 A"
b11111111100 ?"
b10 ="
b10 ~
b10001110 #"
b10001110 !"
b10 }
1{
1,"
1;"
1J"
b100 )
b100 ,
b1000000000000000010 m
b10 (
b10 +
1|
1-"
1<"
1K"
1&
b1001 $
1%
#260
0%
#270
b100111011 X"
b100011100 W"
b100011100 &"
b100011100 +"
b10101101 T"
b10001110 S"
b10001110 u
b10001110 z
b1100000011000 _"
b1011111111000 ^"
b1011111111000 D"
b1011111111000 I"
b110000011100 \"
b101111111100 ["
b101111111100 5"
b101111111100 :"
0{
0y
0,"
0*"
0;"
09"
0J"
0H"
b1010 $
b1101011000 2"
b1000111100 0"
b110101100 #"
b100011110 !"
b10001111 .
b10001111 o
b10001111 ""
b10001111 1"
b10001111 h"
b10011111010000 P"
b111111011000 N"
b1001111101000 A"
b11111101100 ?"
b1111110110 -
b1111110110 n
b1111110110 @"
b1111110110 O"
b1111110110 l"
b10 A
b10 t
b10 f"
b10 j"
b100011100 )"
b100011100 3"
b100011100 4"
b10001110000000000000000000000000000000010001110 =
b10001110000000000000000000000000000000010001110 r
b10001110 x
b10001110 $"
b10001110 %"
b1011111111000 G"
b1011111111000 Q"
b1011111111000 R"
b101111111100000000000000000000000000000101111111100 8
b101111111100000000000000000000000000000101111111100 q
b101111111100 8"
b101111111100 B"
b101111111100 C"
0|
0-"
0<"
0K"
0&
1%
#280
0%
#290
b1011 $
1%
#300
0%
#310
b1100 $
1%
#320
0%
#330
b1101 $
1%
#340
0%
#350
b1110 $
1%
#360
0%
#370
b1111 $
1%
#380
0%
#390
b10000 $
1%
#400
0%
#410
b10001 $
1%
#420
0%
#430
1y
1*"
19"
1H"
b110 M"
b10111110111100 P"
b1011111000100 N"
b110 L"
b110 /"
b10001110110 2"
b1101011010 0"
b110 ."
b11 >"
b1011111011110 A"
b101111100010 ?"
b11 ="
b11 ~
b1000111011 #"
b110101101 !"
b11 }
1{
1,"
1;"
1J"
b10010 $
b110 )
b110 ,
b1100000000000000011 m
b11 (
b11 +
1|
1-"
1<"
1K"
1&
1%
#440
0%
#450
0{
0y
0,"
0*"
0;"
09"
0J"
0H"
b1011111111110 \"
b1011111011110 ["
b1011111011110 5"
b1011111011110 :"
b10111111011011 _"
b10111110111100 ^"
b10111110111100 D"
b10111110111100 I"
b1001011010 T"
b1000111011 S"
b1000111011 u
b1000111011 z
b10010010110 X"
b10001110110 W"
b10001110110 &"
b10001110110 +"
0|
0-"
0<"
0K"
0&
b1011111011110 8"
b1011111011110 B"
b1011111011110 C"
b1011111011110000000000000000000000000001011111011110 8
b1011111011110000000000000000000000000001011111011110 q
b10111110111100 G"
b10111110111100 Q"
b10111110111100 R"
b1000111011 x
b1000111011 $"
b1000111011 %"
b1000111011000000000000000000000000000001000111011 =
b1000111011000000000000000000000000000001000111011 r
b10001110110 )"
b10001110110 3"
b10001110110 4"
b100101110100 2"
b10011111110 0"
b10010111010 #"
b1001111111 !"
b11010101 .
b11010101 o
b11010101 ""
b11010101 1"
b11010101 h"
b100011100111000 P"
b1011101111100 N"
b10001110011100 A"
b101110111110 ?"
b1111101010 -
b1111101010 n
b1111101010 @"
b1111101010 O"
b1111101010 l"
b11 A
b11 t
b11 f"
b11 j"
b10011 $
1%
#460
0%
#470
b10100 $
1%
#480
0%
#490
b10101 $
1%
#500
0%
#510
b10110 $
1%
#520
0%
#530
b10111 $
1%
#540
0%
#550
b11000 $
1%
#560
0%
#570
b11001 $
1%
#580
0%
#590
b11010 $
1%
#600
0%
#610
1y
1*"
19"
1H"
b1000 M"
b100111100001100 P"
b1111101010000 N"
b1000 L"
b1000 /"
b101100011110 2"
b11010101000 0"
b1000 ."
b100 >"
b10011110000110 A"
b111110101000 ?"
b100 ="
b100 ~
b10110001111 #"
b1101010100 !"
b100 }
1{
1,"
1;"
1J"
b1000 )
b1000 ,
b10000000000000000100 m
b100 (
b100 +
1|
1-"
1<"
1K"
1&
b11011 $
1%
#620
0%
#630
b101100111101 X"
b101100011110 W"
b101100011110 &"
b101100011110 +"
b10110101110 T"
b10110001111 S"
b10110001111 u
b10110001111 z
b100111100101011 _"
b100111100001100 ^"
b100111100001100 D"
b100111100001100 I"
b10011110100101 \"
b10011110000110 ["
b10011110000110 5"
b10011110000110 :"
0{
0y
0,"
0*"
0;"
09"
0J"
0H"
b11100 $
b1001111101110 2"
b100011010000 0"
b100111110111 #"
b10001101000 !"
b100011010 .
b100011010 o
b100011010 ""
b100011010 1"
b100011010 h"
b110110111001100 P"
b1111011000000 N"
b11011011100110 A"
b111101100000 ?"
b1111011000 -
b1111011000 n
b1111011000 @"
b1111011000 O"
b1111011000 l"
b100 A
b100 t
b100 f"
b100 j"
b101100011110 )"
b101100011110 3"
b101100011110 4"
b10110001111000000000000000000000000000010110001111 =
b10110001111000000000000000000000000000010110001111 r
b10110001111 x
b10110001111 $"
b10110001111 %"
b100111100001100 G"
b100111100001100 Q"
b100111100001100 R"
b10011110000110000000000000000000000000010011110000110 8
b10011110000110000000000000000000000000010011110000110 q
b10011110000110 8"
b10011110000110 B"
b10011110000110 C"
0|
0-"
0<"
0K"
0&
1%
#640
0%
#650
b11101 $
1%
#660
0%
#670
b11110 $
1%
#680
0%
#690
b11111 $
1%
#700
0%
#710
b100000 $
1%
#720
0%
#730
b100001 $
1%
#740
0%
#750
b100010 $
1%
#760
0%
#770
b100011 $
1%
#780
0%
#790
1y
1*"
19"
1H"
b1010 M"
b111010101111100 P"
b10011001110000 N"
b1010 L"
b1010 /"
b1011000100010 2"
b101100000100 0"
b1010 ."
b101 >"
b11101010111110 A"
b1001100111000 ?"
b101 ="
b101 ~
b101100010001 #"
b10110000010 !"
b101 }
1{
1,"
1;"
1J"
b100100 $
b1010 )
b1010 ,
b10100000000000000101 m
b101 (
b101 +
1|
1-"
1<"
1K"
1&
1%
#800
0%
#810
0{
0y
0,"
0*"
0;"
09"
0J"
0H"
b11101011011101 \"
b11101010111110 ["
b11101010111110 5"
b11101010111110 :"
b111010110011100 _"
b111010101111100 ^"
b111010101111100 D"
b111010101111100 I"
b101100110000 T"
b101100010001 S"
b101100010001 u
b101100010001 z
b1011001000001 X"
b1011000100010 W"
b1011000100010 &"
b1011000100010 +"
0|
0-"
0<"
0K"
0&
b11101010111110 8"
b11101010111110 B"
b11101010111110 C"
b11101010111110000000000000000000000000011101010111110 8
b11101010111110000000000000000000000000011101010111110 q
b111010101111100 G"
b111010101111100 Q"
b111010101111100 R"
b101100010001 x
b101100010001 $"
b101100010001 %"
b101100010001000000000000000000000000000101100010001 =
b101100010001000000000000000000000000000101100010001 r
b1011000100010 )"
b1011000100010 3"
b1011000100010 4"
b10001111001110 2"
b110110101100 0"
b1000111100111 #"
b11011010110 !"
b101011110 .
b101011110 o
b101011110 ""
b101011110 1"
b101011110 h"
b1001101100010000 P"
b10010110010100 N"
b100110110001000 A"
b1001011001010 ?"
b1111000010 -
b1111000010 n
b1111000010 @"
b1111000010 O"
b1111000010 l"
b101 A
b101 t
b101 f"
b101 j"
b100101 $
1%
#820
0%
#830
b100110 $
1%
#840
0%
#850
b100111 $
1%
#860
0%
#870
b101000 $
1%
#880
0%
#890
b101001 $
1%
#900
0%
#910
b101010 $
1%
#920
0%
#930
b101011 $
1%
#940
0%
#950
b101100 $
1%
#960
0%
#970
1y
1*"
19"
1H"
b1100 M"
b1010001010010100 P"
b10110100011000 N"
b1100 L"
b1100 /"
b10011010001010 2"
b1000001101000 0"
b1100 ."
b110 >"
b101000101001010 A"
b1011010001100 ?"
b110 ="
b110 ~
b1001101000101 #"
b100000110100 !"
b110 }
1{
1,"
1;"
1J"
b1100 )
b1100 ,
b11000000000000000110 m
b110 (
b110 +
1|
1-"
1<"
1K"
1&
b101101 $
1%
#980
0%
#990
b10011010101001 X"
b10011010001010 W"
b10011010001010 &"
b10011010001010 +"
b1001101100101 T"
b1001101000101 S"
b1001101000101 u
b1001101000101 z
b1010001010110011 _"
b1010001010010100 ^"
b1010001010010100 D"
b1010001010010100 I"
b101000101101010 \"
b101000101001010 ["
b101000101001010 5"
b101000101001010 :"
0{
0y
0,"
0*"
0;"
09"
0J"
0H"
b101110 $
b11101000001010 2"
b1001110000000 0"
b1110100000101 #"
b100111000000 !"
b110100000 .
b110100000 o
b110100000 ""
b110100000 1"
b110100000 h"
b1100111001101000 P"
b10101111010100 N"
b110011100110100 A"
b1010111101010 ?"
b1110100111 -
b1110100111 n
b1110100111 @"
b1110100111 O"
b1110100111 l"
b110 A
b110 t
b110 f"
b110 j"
b10011010001010 )"
b10011010001010 3"
b10011010001010 4"
b1001101000101000000000000000000000000001001101000101 =
b1001101000101000000000000000000000000001001101000101 r
b1001101000101 x
b1001101000101 $"
b1001101000101 %"
b1010001010010100 G"
b1010001010010100 Q"
b1010001010010100 R"
b101000101001010000000000000000000000000101000101001010 8
b101000101001010000000000000000000000000101000101001010 q
b101000101001010 8"
b101000101001010 B"
b101000101001010 C"
0|
0-"
0<"
0K"
0&
1%
#1000
0%
#1010
b101111 $
1%
#1020
0%
#1030
b110000 $
1%
#1040
0%
#1050
b110001 $
1%
#1060
0%
#1070
b110010 $
1%
#1080
0%
#1090
b110011 $
1%
#1100
0%
#1110
b110100 $
1%
#1120
0%
#1130
b110101 $
1%
#1140
0%
#1150
1y
1*"
19"
1H"
b1110 M"
b1101010110110110 P"
b11001100100010 N"
b1110 L"
b1110 /"
b11110101001010 2"
b1011011000000 0"
b1110 ."
b111 >"
b110101011011011 A"
b1100110010001 ?"
b111 ="
b111 ~
b1111010100101 #"
b101101100000 !"
b111 }
1{
1,"
1;"
1J"
b110110 $
b1110 )
b1110 ,
b11100000000000000111 m
b111 (
b111 +
1|
1-"
1<"
1K"
1&
1%
#1160
0%
#1170
0{
0y
0,"
0*"
0;"
09"
0J"
0H"
b110101011111011 \"
b110101011011011 ["
b110101011011011 5"
b110101011011011 :"
b1101010111010101 _"
b1101010110110110 ^"
b1101010110110110 D"
b1101010110110110 I"
b1111011000100 T"
b1111010100101 S"
b1111010100101 u
b1111010100101 z
b11110101101010 X"
b11110101001010 W"
b11110101001010 &"
b11110101001010 +"
0|
0-"
0<"
0K"
0&
b110101011011011 8"
b110101011011011 B"
b110101011011011 C"
b110101011011011000000000000000000000000110101011011011 8
b110101011011011000000000000000000000000110101011011011 q
b1101010110110110 G"
b1101010110110110 Q"
b1101010110110110 R"
b1111010100101 x
b1111010100101 $"
b1111010100101 %"
b1111010100101000000000000000000000000001111010100101 =
b1111010100101000000000000000000000000001111010100101 r
b11110101001010 )"
b11110101001010 3"
b11110101001010 4"
b101011110011000 2"
b1101001001110 0"
b10101111001100 #"
b110100100111 !"
b111100001 .
b111100001 o
b111100001 ""
b111100001 1"
b111100001 h"
b10000011100100110 P"
b11000101110000 N"
b1000001110010011 A"
b1100010111000 ?"
b1110001000 -
b1110001000 n
b1110001000 @"
b1110001000 O"
b1110001000 l"
b111 A
b111 t
b111 f"
b111 j"
b110111 $
1%
#1180
0%
#1190
b111000 $
1%
#1200
0%
#1210
b111001 $
1%
#1220
0%
#1230
b111010 $
1%
#1240
0%
#1250
b111011 $
1%
#1260
0%
#1270
b111100 $
1%
#1280
0%
#1290
b111101 $
1%
#1300
0%
#1310
b111110 $
1%
#1320
0%
#1330
1y
1*"
19"
1H"
b10000 M"
b10000111000110110 P"
b11100010000000 N"
b10000 L"
b10000 /"
b101101101011010 2"
b1111000010000 0"
b10000 ."
b1000 >"
b1000011100011011 A"
b1110001000000 ?"
b1000 ="
b1000 ~
b10110110101101 #"
b111100001000 !"
b1000 }
1{
1,"
1;"
1J"
b10000 )
b10000 ,
b100000000000000001000 m
b1000 (
b1000 +
1|
1-"
1<"
1K"
1&
b111111 $
1%
#1340
0%
#1350
b101101101111010 X"
b101101101011010 W"
b101101101011010 &"
b101101101011010 +"
b10110111001100 T"
b10110110101101 S"
b10110110101101 u
b10110110101101 z
b10000111001010101 _"
b10000111000110110 ^"
b10000111000110110 D"
b10000111000110110 I"
b1000011100111010 \"
b1000011100011011 ["
b1000011100011011 5"
b1000011100011011 :"
0{
0y
0,"
0*"
0;"
09"
0J"
0H"
b1000000 $
b111110101001010 2"
b10000111110000 0"
b11111010100101 #"
b1000011111000 !"
b1000011111 .
b1000011111 o
b1000011111 ""
b1000011111 1"
b1000011111 h"
b10100010001110110 P"
b11011001000000 N"
b1010001000111011 A"
b1101100100000 ?"
b1101100100 -
b1101100100 n
b1101100100 @"
b1101100100 O"
b1101100100 l"
b1000 A
b1000 t
b1000 f"
b1000 j"
b101101101011010 )"
b101101101011010 3"
b101101101011010 4"
b10110110101101000000000000000000000000010110110101101 =
b10110110101101000000000000000000000000010110110101101 r
b10110110101101 x
b10110110101101 $"
b10110110101101 %"
b10000111000110110 G"
b10000111000110110 Q"
b10000111000110110 R"
b1000011100011011000000000000000000000001000011100011011 8
b1000011100011011000000000000000000000001000011100011011 q
b1000011100011011 8"
b1000011100011011 B"
b1000011100011011 C"
0|
0-"
0<"
0K"
0&
1%
#1360
0%
#1370
b1000001 $
1%
#1380
0%
#1390
b1000010 $
1%
#1400
0%
#1410
b1000011 $
1%
#1420
0%
#1430
b1000100 $
1%
#1440
0%
#1450
b1000101 $
1%
#1460
0%
#1470
b1000110 $
1%
#1480
0%
#1490
b1000111 $
1%
#1500
0%
#1510
1y
1*"
19"
1H"
b10010 M"
b10100101100111110 P"
b11110100001000 N"
b10010 L"
b10010 /"
b1000000110001000 2"
b10011000101110 0"
b10010 ."
b1001 >"
b1010010110011111 A"
b1111010000100 ?"
b1001 ="
b1001 ~
b100000011000100 #"
b1001100010111 !"
b1001 }
1{
1,"
1;"
1J"
b1001000 $
b10010 )
b10010 ,
b100100000000000001001 m
b1001 (
b1001 +
1|
1-"
1<"
1K"
1&
1%
#1520
0%
