computing_cascade.vcd
$date
	Thu Mar 27 21:36:00 2025
$end
$version
	Icarus Verilog
$end
$timescale
	1s
$end
$scope module ff_fifo_wrapped_in_valid_ready $end
$var wire 1 ! clk $end
$var wire 1 " down_ready $end
$var wire 1 # down_valid $end
$var wire 1 $ fifo_pop $end
$var wire 1 % fifo_push $end
$var wire 1 & rstn $end
$var wire 8 ' up_data [7:0] $end
$var wire 1 ( up_ready $end
$var wire 1 ) up_valid $end
$var wire 1 * fifo_full $end
$var wire 1 + fifo_empty $end
$var wire 8 , down_data [7:0] $end
$scope module fifo $end
$var wire 1 ! clk $end
$var wire 1 + empty $end
$var wire 1 * full $end
$var wire 1 $ pop $end
$var wire 1 % push $end
$var wire 8 - read_data [7:0] $end
$var wire 1 & rstn $end
$var wire 8 . write_data [7:0] $end
$var wire 1 / equal_ptrs $end
$var reg 4 0 rd_ptr [3:0] $end
$var reg 1 1 rd_ptr_odd_circle $end
$var reg 4 2 wr_ptr [3:0] $end
$var reg 1 3 wr_ptr_odd_circle $end
$upscope $end
$upscope $end
$scope module fxp_div_fsm $end
$var wire 1 4 clk $end
$var wire 16 5 dividend [15:0] $end
$var wire 16 6 divisor [15:0] $end
$var wire 1 7 i_vld $end
$var wire 16 8 out [15:0] $end
$var wire 1 9 rstn $end
$var wire 32 : tmp [31:0] $end
$var wire 1 ; ready $end
$var wire 1 < o_vld $end
$var wire 1 = en $end
$var wire 32 > divr [31:0] $end
$var wire 32 ? divd [31:0] $end
$var reg 32 @ acc [31:0] $end
$var reg 4 A cnt [3:0] $end
$var reg 32 B divdp [31:0] $end
$var reg 32 C divrp [31:0] $end
$var reg 2 D new_state [1:0] $end
$var reg 16 E res [15:0] $end
$var reg 2 F state [1:0] $end
$scope module dividend_zoom $end
$var wire 16 G in [15:0] $end
$var wire 32 H out [31:0] $end
$var wire 24 I inr [23:0] $end
$var reg 8 J ini [7:0] $end
$var reg 16 K outf [15:0] $end
$var reg 16 L outi [15:0] $end
$scope begin genblk4 $end
$upscope $end
$scope begin genblk6 $end
$upscope $end
$upscope $end
$scope module divisor_zoom $end
$var wire 16 M in [15:0] $end
$var wire 32 N out [31:0] $end
$var wire 24 O inr [23:0] $end
$var reg 8 P ini [7:0] $end
$var reg 16 Q outf [15:0] $end
$var reg 16 R outi [15:0] $end
$scope begin genblk4 $end
$upscope $end
$scope begin genblk6 $end
$upscope $end
$upscope $end
$upscope $end
$scope module testbench $end
$var wire 1 S o_vld $end
$var wire 32 T mag [31:0] $end
$var wire 32 U delta_ph [31:0] $end
$var reg 32 V GLOBAL_COUNTER [31:0] $end
$var reg 1 W clk $end
$var reg 1 X i_vld $end
$var reg 1 Y rstn $end
$var reg 16 Z x1 [15:0] $end
$var reg 16 [ x2 [15:0] $end
$scope module test $end
$var wire 1 W clk $end
$var wire 1 X i_vld $end
$var wire 32 \ mag [31:0] $end
$var wire 1 S o_vld $end
$var wire 1 Y rstn $end
$var wire 1 ] valid_fft $end
$var wire 16 ^ x1 [15:0] $end
$var wire 16 _ x2 [15:0] $end
$var wire 16 ` w_re [15:0] $end
$var wire 16 a w_im [15:0] $end
$var wire 1 b valid_fft_round $end
$var wire 1 c valid_fft_coral $end
$var wire 1 d to_polar_vld $end
$var wire 32 e round_re2 [31:0] $end
$var wire 32 f round_re1 [31:0] $end
$var wire 32 g round_im2 [31:0] $end
$var wire 32 h round_im1 [31:0] $end
$var wire 76 i re [75:0] $end
$var wire 32 j o_phase2 [31:0] $end
$var wire 32 k o_phase1 [31:0] $end
$var wire 32 l o_mag2 [31:0] $end
$var wire 32 m o_mag1 [31:0] $end
$var wire 76 n im [75:0] $end
$var wire 32 o delta_ph [31:0] $end
$var wire 32 p cordic_angle [31:0] $end
$var wire 6 q cnt [5:0] $end
$var wire 5 r address_angle [4:0] $end
$var reg 1 s valid_fft_prev $end
$scope module fft_core $end
$var wire 1 W clk $end
$var wire 1 Y rstn $end
$var wire 1 X valid_i $end
$var wire 32 t x [31:0] $end
$var wire 16 u w_re [15:0] $end
$var wire 16 v w_im [15:0] $end
$var wire 1 w reset_node $end
$var wire 76 x re [75:0] $end
$var wire 76 y im [75:0] $end
$var wire 1 z counter_enable $end
$var reg 6 { counter [5:0] $end
$var reg 1 c valid_o $end
$scope begin IM[0] $end
$var wire 38 | psumm_i_im [37:0] $end
$var wire 1 } valid_psumm_i_im $end
$var wire 1 ~ valid_psumm_o_im $end
$var wire 38 !" psumm_o_im [37:0] $end
$scope module im_node1 $end
$var wire 1 W clk $end
$var wire 1 "" en $end
$var wire 1 X enable $end
$var wire 38 #" psumm_i [37:0] $end
$var wire 1 Y rstn $end
$var wire 1 $" valid_o_logic $end
$var wire 1 } valid_psumm_i $end
$var wire 1 X valid_x_i $end
$var wire 1 %" valid_x_o $end
$var wire 16 &" x_i [15:0] $end
$var wire 16 '" x_o [15:0] $end
$var wire 32 (" weight_mult [31:0] $end
$var wire 16 )" weight_i [15:0] $end
$var wire 38 *" psumm_o_logic [37:0] $end
$var wire 38 +" psumm_o [37:0] $end
$var reg 38 ," psumm_reg [37:0] $end
$var reg 1 ~ valid_o $end
$upscope $end
$upscope $end
$scope begin IM[1] $end
$var wire 38 -" psumm_i_im [37:0] $end
$var wire 1 ." valid_psumm_i_im $end
$var wire 1 /" valid_psumm_o_im $end
$var wire 38 0" psumm_o_im [37:0] $end
$scope module im_node1 $end
$var wire 1 W clk $end
$var wire 1 1" en $end
$var wire 1 X enable $end
$var wire 38 2" psumm_i [37:0] $end
$var wire 1 Y rstn $end
$var wire 1 3" valid_o_logic $end
$var wire 1 ." valid_psumm_i $end
$var wire 1 X valid_x_i $end
$var wire 1 4" valid_x_o $end
$var wire 16 5" x_i [15:0] $end
$var wire 16 6" x_o [15:0] $end
$var wire 32 7" weight_mult [31:0] $end
$var wire 16 8" weight_i [15:0] $end
$var wire 38 9" psumm_o_logic [37:0] $end
$var wire 38 :" psumm_o [37:0] $end
$var reg 38 ;" psumm_reg [37:0] $end
$var reg 1 /" valid_o $end
$upscope $end
$upscope $end
$scope begin RE[0] $end
$var wire 38 <" psumm_i_re [37:0] $end
$var wire 1 =" valid_psumm_i_re $end
$var wire 1 >" valid_psumm_o_re $end
$var wire 38 ?" psumm_o_re [37:0] $end
$scope module re_node1 $end
$var wire 1 W clk $end
$var wire 1 @" en $end
$var wire 1 X enable $end
$var wire 38 A" psumm_i [37:0] $end
$var wire 1 Y rstn $end
$var wire 1 B" valid_o_logic $end
$var wire 1 =" valid_psumm_i $end
$var wire 1 X valid_x_i $end
$var wire 1 C" valid_x_o $end
$var wire 16 D" x_i [15:0] $end
$var wire 16 E" x_o [15:0] $end
$var wire 32 F" weight_mult [31:0] $end
$var wire 16 G" weight_i [15:0] $end
$var wire 38 H" psumm_o_logic [37:0] $end
$var wire 38 I" psumm_o [37:0] $end
$var reg 38 J" psumm_reg [37:0] $end
$var reg 1 >" valid_o $end
$upscope $end
$upscope $end
$scope begin RE[1] $end
$var wire 38 K" psumm_i_re [37:0] $end
$var wire 1 L" valid_psumm_i_re $end
$var wire 1 M" valid_psumm_o_re $end
$var wire 38 N" psumm_o_re [37:0] $end
$scope module re_node1 $end
$var wire 1 W clk $end
$var wire 1 O" en $end
$var wire 1 X enable $end
$var wire 38 P" psumm_i [37:0] $end
$var wire 1 Y rstn $end
$var wire 1 Q" valid_o_logic $end
$var wire 1 L" valid_psumm_i $end
$var wire 1 X valid_x_i $end
$var wire 1 R" valid_x_o $end
$var wire 16 S" x_i [15:0] $end
$var wire 16 T" x_o [15:0] $end
$var wire 32 U" weight_mult [31:0] $end
$var wire 16 V" weight_i [15:0] $end
$var wire 38 W" psumm_o_logic [37:0] $end
$var wire 38 X" psumm_o [37:0] $end
$var reg 38 Y" psumm_reg [37:0] $end
$var reg 1 M" valid_o $end
$upscope $end
$upscope $end
$upscope $end
$scope module r_im1 $end
$var wire 1 W clk $end
$var wire 38 Z" i_data [37:0] $end
$var wire 1 ] i_vld $end
$var wire 1 Y rstn $end
$var wire 38 [" w_convergent [37:0] $end
$var reg 32 \" o_data [31:0] $end
$var reg 1 ]" o_vld $end
$upscope $end
$scope module r_im2 $end
$var wire 1 W clk $end
$var wire 38 ^" i_data [37:0] $end
$var wire 1 ] i_vld $end
$var wire 1 Y rstn $end
$var wire 38 _" w_convergent [37:0] $end
$var reg 32 `" o_data [31:0] $end
$var reg 1 a" o_vld $end
$upscope $end
$scope module r_re1 $end
$var wire 1 W clk $end
$var wire 38 b" i_data [37:0] $end
$var wire 1 ] i_vld $end
$var wire 1 Y rstn $end
$var wire 38 c" w_convergent [37:0] $end
$var reg 32 d" o_data [31:0] $end
$var reg 1 b o_vld $end
$upscope $end
$scope module r_re2 $end
$var wire 1 W clk $end
$var wire 38 e" i_data [37:0] $end
$var wire 1 ] i_vld $end
$var wire 1 Y rstn $end
$var wire 38 f" w_convergent [37:0] $end
$var reg 32 g" o_data [31:0] $end
$var reg 1 h" o_vld $end
$upscope $end
$scope module ram_angle $end
$var wire 1 W clk $end
$var wire 32 i" data_in [31:0] $end
$var wire 32 j" data_out [31:0] $end
$var wire 1 k" write_enable $end
$var wire 5 l" address [4:0] $end
$upscope $end
$scope module ram_im $end
$var wire 6 m" address [5:0] $end
$var wire 1 W clk $end
$var wire 16 n" data_in [15:0] $end
$var wire 16 o" data_out [15:0] $end
$var wire 1 p" write_enable $end
$upscope $end
$scope module ram_re $end
$var wire 6 q" address [5:0] $end
$var wire 1 W clk $end
$var wire 16 r" data_in [15:0] $end
$var wire 16 s" data_out [15:0] $end
$var wire 1 t" write_enable $end
$upscope $end
$scope module to_polar1 $end
$var wire 1 W clk $end
$var wire 32 u" cordic_angle [31:0] $end
$var wire 1 b i_vld $end
$var wire 32 v" i_x [31:0] $end
$var wire 32 w" i_y [31:0] $end
$var wire 32 x" o_mag [31:0] $end
$var wire 1 Y rstn $end
$var wire 32 y" ys_abs [31:0] $end
$var wire 1 z" sig $end
$var wire 1 {" ready $end
$var wire 1 d o_vld $end
$var wire 32 |" o_phase [31:0] $end
$var wire 1 }" en $end
$var reg 5 ~" cnt [4:0] $end
$var reg 2 !# new_state [1:0] $end
$var reg 32 "# phs [31:0] $end
$var reg 2 ## state [1:0] $end
$var reg 32 $# xs [31:0] $end
$var reg 32 %# ys [31:0] $end
$upscope $end
$scope module to_polar2 $end
$var wire 1 W clk $end
$var wire 32 &# cordic_angle [31:0] $end
$var wire 1 b i_vld $end
$var wire 32 '# i_x [31:0] $end
$var wire 32 (# i_y [31:0] $end
$var wire 1 Y rstn $end
$var wire 32 )# ys_abs [31:0] $end
$var wire 1 *# sig $end
$var wire 1 +# ready $end
$var wire 1 ,# o_vld $end
$var wire 32 -# o_phase [31:0] $end
$var wire 32 .# o_mag [31:0] $end
$var wire 1 /# en $end
$var reg 5 0# cnt [4:0] $end
$var reg 2 1# new_state [1:0] $end
$var reg 32 2# phs [31:0] $end
$var reg 2 3# state [1:0] $end
$var reg 32 4# xs [31:0] $end
$var reg 32 5# ys [31:0] $end
$upscope $end
$upscope $end
$upscope $end
$enddefinitions $end
#0
$dumpvars
bx 5#
bx 4#
bx 3#
bx 2#
bx 1#
bx 0#
x/#
bx .#
bx -#
x,#
x+#
x*#
bx )#
bx (#
bx '#
bx &#
bx %#
bx $#
bx ##
bx "#
bx !#
bx ~"
x}"
bx |"
x{"
xz"
bx y"
bx x"
bx w"
bx v"
bx u"
zt"
bx s"
bz r"
bx q"
zp"
bx o"
bz n"
bx m"
bx l"
zk"
bx j"
bz i"
xh"
bx g"
bx f"
bx e"
bx d"
bx c"
bx b"
xa"
bx `"
bx _"
bx ^"
x]"
bx \"
bx ["
bx Z"
bx Y"
bx X"
bx W"
bx V"
bx U"
b0 T"
b0 S"
0R"
0Q"
bx P"
0O"
bx N"
xM"
1L"
bx K"
bx J"
bx I"
bx H"
bx G"
bx F"
b0 E"
b0 D"
0C"
0B"
bx A"
0@"
bx ?"
x>"
1="
bx <"
bx ;"
bx :"
bx 9"
bx 8"
bx 7"
b0 6"
b0 5"
04"
03"
bx 2"
01"
bx 0"
x/"
1."
bx -"
bx ,"
bx +"
bx *"
bx )"
bx ("
b0 '"
b0 &"
0%"
0$"
bx #"
0""
bx !"
x~
1}
bx |
bx {
xz
bx y
bx x
xw
bx v
bx u
b0 t
xs
bx r
bx q
bx p
bx o
bx n
bx m
bx l
bx k
bx j
bx i
bx h
bx g
bx f
bx e
xd
xc
xb
bx a
bx `
b0 _
b0 ^
x]
bx \
b0 [
b0 Z
0Y
0X
0W
b0 V
bx U
bx T
xS
bxzzzzzzzz R
bz00000000 Q
bz P
bz00000000 O
bxzzzzzzzzzzzzzzzz00000000 N
bz M
bxzzzzzzzz L
bz00000000 K
bz J
bz00000000 I
bxzzzzzzzzzzzzzzzz00000000 H
bz G
bx F
bx E
bx D
bx C
bx B
bx A
bx @
bxzzzzzzzzzzzzzzzz00000000 ?
bxzzzzzzzzzzzzzzzz00000000 >
x=
x<
x;
bx :
z9
bx 8
z7
bz 6
bz 5
z4
x3
bx 2
x1
bx 0
x/
bz .
bx -
bx ,
x+
x*
z)
x(
bz '
z&
x%
x$
x#
z"
z!
$end
#10
0]
b0 9"
b0 -"
b0 2"
b0 *"
b0 |
b0 #"
b0 W"
b0 K"
b0 P"
b0 H"
b0 <"
b0 A"
b0 !#
b0 1#
0>"
0M"
0~
0/"
0c
0z
0w
b0 7"
b0 ("
b0 a
b0 v
b0 )"
b0 8"
b0 o"
b0 U"
b0 F"
b10000000000 `
b10000000000 u
b10000000000 G"
b10000000000 V"
b10000000000 s"
b0 q
b0 {
b0 m"
b0 q"
0b
0]"
0h"
0a"
0S
0d
1{"
b0 ##
0}"
b110101001000010100111001100 p
b110101001000010100111001100 j"
b110101001000010100111001100 u"
b110101001000010100111001100 &#
b0 r
b0 l"
b0 ~"
0,#
1+#
b0 3#
0/#
b0 0#
0s
1W
#20
0W
#30
1W
#40
0W
#50
1Y
1W
#60
0W
#70
1""
11"
1@"
1O"
b10 T"
b100000000000 W"
b100000000000 U"
b10 S"
b10 6"
b10 5"
b1 E"
b10000000000 H"
b10000000000 F"
b1 D"
b1 '"
b1 &"
1$"
13"
1B"
1Q"
b10 [
b10 _
b100000000000000001 t
b1 Z
b1 ^
1%"
14"
1C"
1R"
1X
1W
#80
0W
#90
b10000011111 c"
b100000011111 f"
b11111 ["
b11111 _"
0$"
0""
03"
01"
0B"
0@"
0Q"
0O"
b10000000000 b"
b100000000000 e"
b0 Z"
b0 ^"
b100000000000 K"
b100000000000 P"
b10000000000 <"
b10000000000 A"
0%"
04"
0C"
0R"
0X
b10000000000 ?"
b10000000000 I"
b10000000000 J"
1>"
b10000000000000000000000000000000000000010000000000 i
b10000000000000000000000000000000000000010000000000 x
b100000000000 N"
b100000000000 X"
b100000000000 Y"
1M"
b0 !"
b0 +"
b0 ,"
1~
b0 n
b0 y
b0 0"
b0 :"
b0 ;"
1/"
1w
b10001110 9"
b10001110 7"
b1000111 *"
b1000111 ("
b1000111 a
b1000111 v
b1000111 )"
b1000111 8"
b1000111 o"
b111111111100 W"
b11111111100 U"
b11111111110 H"
b1111111110 F"
b1111111110 `
b1111111110 u
b1111111110 G"
b1111111110 V"
b1111111110 s"
b1 q
b1 {
b1 m"
b1 q"
b1 V
1W
#100
0W
#110
b10 V
1W
#120
0W
#130
b11 V
1W
#140
0W
#150
b100 V
1W
#160
0W
#170
b101 V
1W
#180
0W
#190
b110 V
1W
#200
0W
#210
b111 V
1W
#220
0W
#230
b1000 V
1W
#240
0W
#250
1""
11"
1@"
1O"
b100 T"
b1011111111000 W"
b111111111000 U"
b100 S"
b100 6"
b100011100 9"
b100011100 7"
b100 5"
b10 E"
b101111111100 H"
b11111111100 F"
b10 D"
b10 '"
b10001110 *"
b10001110 ("
b10 &"
1$"
13"
1B"
1Q"
b100 [
b100 _
b1000000000000000010 t
b10 Z
b10 ^
1%"
14"
1C"
1R"
1X
b1001 V
1W
#260
0W
#270
b100111011 _"
b100011100 ^"
b100011100 -"
b100011100 2"
b10101101 ["
b10001110 Z"
b10001110 |
b10001110 #"
b1100000011000 f"
b1011111111000 e"
b1011111111000 K"
b1011111111000 P"
b110000011100 c"
b101111111100 b"
b101111111100 <"
b101111111100 A"
0$"
0""
03"
01"
0B"
0@"
0Q"
0O"
b1010 V
b1101011000 9"
b1000111100 7"
b110101100 *"
b100011110 ("
b10001111 a
b10001111 v
b10001111 )"
b10001111 8"
b10001111 o"
b10011111010000 W"
b111111011000 U"
b1001111101000 H"
b11111101100 F"
b1111110110 `
b1111110110 u
b1111110110 G"
b1111110110 V"
b1111110110 s"
b10 q
b10 {
b10 m"
b10 q"
b100011100 0"
b100011100 :"
b100011100 ;"
b10001110000000000000000000000000000000010001110 n
b10001110000000000000000000000000000000010001110 y
b10001110 !"
b10001110 +"
b10001110 ,"
b1011111111000 N"
b1011111111000 X"
b1011111111000 Y"
b101111111100000000000000000000000000000101111111100 i
b101111111100000000000000000000000000000101111111100 x
b101111111100 ?"
b101111111100 I"
b101111111100 J"
0%"
04"
0C"
0R"
0X
1W
#280
0W
#290
b1011 V
1W
#300
0W
#310
b1100 V
1W
#320
0W
#330
b1101 V
1W
#340
0W
#350
b1110 V
1W
#360
0W
#370
b1111 V
1W
#380
0W
#390
b10000 V
1W
#400
0W
#410
b10001 V
1W
#420
0W
#430
1""
11"
1@"
1O"
b110 T"
b10111110111100 W"
b1011111000100 U"
b110 S"
b110 6"
b10001110110 9"
b1101011010 7"
b110 5"
b11 E"
b1011111011110 H"
b101111100010 F"
b11 D"
b11 '"
b1000111011 *"
b110101101 ("
b11 &"
1$"
13"
1B"
1Q"
b10010 V
b110 [
b110 _
b1100000000000000011 t
b11 Z
b11 ^
1%"
14"
1C"
1R"
1X
1W
#440
0W
#450
0$"
0""
03"
01"
0B"
0@"
0Q"
0O"
b1011111111110 c"
b1011111011110 b"
b1011111011110 <"
b1011111011110 A"
b10111111011011 f"
b10111110111100 e"
b10111110111100 K"
b10111110111100 P"
b1001011010 ["
b1000111011 Z"
b1000111011 |
b1000111011 #"
b10010010110 _"
b10001110110 ^"
b10001110110 -"
b10001110110 2"
0%"
04"
0C"
0R"
0X
b1011111011110 ?"
b1011111011110 I"
b1011111011110 J"
b1011111011110000000000000000000000000001011111011110 i
b1011111011110000000000000000000000000001011111011110 x
b10111110111100 N"
b10111110111100 X"
b10111110111100 Y"
b1000111011 !"
b1000111011 +"
b1000111011 ,"
b1000111011000000000000000000000000000001000111011 n
b1000111011000000000000000000000000000001000111011 y
b10001110110 0"
b10001110110 :"
b10001110110 ;"
b100101110100 9"
b10011111110 7"
b10010111010 *"
b1001111111 ("
b11010101 a
b11010101 v
b11010101 )"
b11010101 8"
b11010101 o"
b100011100111000 W"
b1011101111100 U"
b10001110011100 H"
b101110111110 F"
b1111101010 `
b1111101010 u
b1111101010 G"
b1111101010 V"
b1111101010 s"
b11 q
b11 {
b11 m"
b11 q"
b10011 V
1W
#460
0W
#470
b10100 V
1W
#480
0W
#490
b10101 V
1W
#500
0W
#510
b10110 V
1W
#520
0W
#530
b10111 V
1W
#540
0W
#550
b11000 V
1W
#560
0W
#570
b11001 V
1W
#580
0W
#590
b11010 V
1W
#600
0W
#610
1""
11"
1@"
1O"
b1000 T"
b100111100001100 W"
b1111101010000 U"
b1000 S"
b1000 6"
b101100011110 9"
b11010101000 7"
b1000 5"
b100 E"
b10011110000110 H"
b111110101000 F"
b100 D"
b100 '"
b10110001111 *"
b1101010100 ("
b100 &"
1$"
13"
1B"
1Q"
b1000 [
b1000 _
b10000000000000000100 t
b100 Z
b100 ^
1%"
14"
1C"
1R"
1X
b11011 V
1W
#620
0W
#630
b101100111101 _"
b101100011110 ^"
b101100011110 -"
b101100011110 2"
b10110101110 ["
b10110001111 Z"
b10110001111 |
b10110001111 #"
b100111100101011 f"
b100111100001100 e"
b100111100001100 K"
b100111100001100 P"
b10011110100101 c"
b10011110000110 b"
b10011110000110 <"
b10011110000110 A"
0$"
0""
03"
01"
0B"
0@"
0Q"
0O"
b11100 V
b1001111101110 9"
b100011010000 7"
b100111110111 *"
b10001101000 ("
b100011010 a
b100011010 v
b100011010 )"
b100011010 8"
b100011010 o"
b110110111001100 W"
b1111011000000 U"
b11011011100110 H"
b111101100000 F"
b1111011000 `
b1111011000 u
b1111011000 G"
b1111011000 V"
b1111011000 s"
b100 q
b100 {
b100 m"
b100 q"
b101100011110 0"
b101100011110 :"
b101100011110 ;"
b10110001111000000000000000000000000000010110001111 n
b10110001111000000000000000000000000000010110001111 y
b10110001111 !"
b10110001111 +"
b10110001111 ,"
b100111100001100 N"
b100111100001100 X"
b100111100001100 Y"
b10011110000110000000000000000000000000010011110000110 i
b10011110000110000000000000000000000000010011110000110 x
b10011110000110 ?"
b10011110000110 I"
b10011110000110 J"
0%"
04"
0C"
0R"
0X
1W
#640
0W
#650
b11101 V
1W
#660
0W
#670
b11110 V
1W
#680
0W
#690
b11111 V
1W
#700
0W
#710
b100000 V
1W
#720
0W
#730
b100001 V
1W
#740
0W
#750
b100010 V
1W
#760
0W
#770
b100011 V
1W
#780
0W
#790
1""
11"
1@"
1O"
b1010 T"
b111010101111100 W"
b10011001110000 U"
b1010 S"
b1010 6"
b1011000100010 9"
b101100000100 7"
b1010 5"
b101 E"
b11101010111110 H"
b1001100111000 F"
b101 D"
b101 '"
b101100010001 *"
b10110000010 ("
b101 &"
1$"
13"
1B"
1Q"
b100100 V
b1010 [
b1010 _
b10100000000000000101 t
b101 Z
b101 ^
1%"
14"
1C"
1R"
1X
1W
#800
0W
#810
0$"
0""
03"
01"
0B"
0@"
0Q"
0O"
b11101011011101 c"
b11101010111110 b"
b11101010111110 <"
b11101010111110 A"
b111010110011100 f"
b111010101111100 e"
b111010101111100 K"
b111010101111100 P"
b101100110000 ["
b101100010001 Z"
b101100010001 |
b101100010001 #"
b1011001000001 _"
b1011000100010 ^"
b1011000100010 -"
b1011000100010 2"
0%"
04"
0C"
0R"
0X
b11101010111110 ?"
b11101010111110 I"
b11101010111110 J"
b11101010111110000000000000000000000000011101010111110 i
b11101010111110000000000000000000000000011101010111110 x
b111010101111100 N"
b111010101111100 X"
b111010101111100 Y"
b101100010001 !"
b101100010001 +"
b101100010001 ,"
b101100010001000000000000000000000000000101100010001 n
b101100010001000000000000000000000000000101100010001 y
b1011000100010 0"
b1011000100010 :"
b1011000100010 ;"
b10001111001110 9"
b110110101100 7"
b1000111100111 *"
b11011010110 ("
b101011110 a
b101011110 v
b101011110 )"
b101011110 8"
b101011110 o"
b1001101100010000 W"
b10010110010100 U"
b100110110001000 H"
b1001011001010 F"
b1111000010 `
b1111000010 u
b1111000010 G"
b1111000010 V"
b1111000010 s"
b101 q
b101 {
b101 m"
b101 q"
b100101 V
1W
#820
0W
#830
b100110 V
1W
#840
0W
#850
b100111 V
1W
#860
0W
#870
b101000 V
1W
#880
0W
#890
b101001 V
1W
#900
0W
#910
b101010 V
1W
#920
0W
#930
b101011 V
1W
#940
0W
#950
b101100 V
1W
#960
0W
#970
1""
11"
1@"
1O"
b1100 T"
b1010001010010100 W"
b10110100011000 U"
b1100 S"
b1100 6"
b10011010001010 9"
b1000001101000 7"
b1100 5"
b110 E"
b101000101001010 H"
b1011010001100 F"
b110 D"
b110 '"
b1001101000101 *"
b100000110100 ("
b110 &"
1$"
13"
1B"
1Q"
b1100 [
b1100 _
b11000000000000000110 t
b110 Z
b110 ^
1%"
14"
1C"
1R"
1X
b101101 V
1W
#980
0W
#990
b10011010101001 _"
b10011010001010 ^"
b10011010001010 -"
b10011010001010 2"
b1001101100101 ["
b1001101000101 Z"
b1001101000101 |
b1001101000101 #"
b1010001010110011 f"
b1010001010010100 e"
b1010001010010100 K"
b1010001010010100 P"
b101000101101010 c"
b101000101001010 b"
b101000101001010 <"
b101000101001010 A"
0$"
0""
03"
01"
0B"
0@"
0Q"
0O"
b101110 V
b11101000001010 9"
b1001110000000 7"
b1110100000101 *"
b100111000000 ("
b110100000 a
b110100000 v
b110100000 )"
b110100000 8"
b110100000 o"
b1100111001101000 W"
b10101111010100 U"
b110011100110100 H"
b1010111101010 F"
b1110100111 `
b1110100111 u
b1110100111 G"
b1110100111 V"
b1110100111 s"
b110 q
b110 {
b110 m"
b110 q"
b10011010001010 0"
b10011010001010 :"
b10011010001010 ;"
b1001101000101000000000000000000000000001001101000101 n
b1001101000101000000000000000000000000001001101000101 y
b1001101000101 !"
b1001101000101 +"
b1001101000101 ,"
b1010001010010100 N"
b1010001010010100 X"
b1010001010010100 Y"
b101000101001010000000000000000000000000101000101001010 i
b101000101001010000000000000000000000000101000101001010 x
b101000101001010 ?"
b101000101001010 I"
b101000101001010 J"
0%"
04"
0C"
0R"
0X
1W
#1000
0W
#1010
b101111 V
1W
#1020
0W
#1030
b110000 V
1W
#1040
0W
#1050
b110001 V
1W
#1060
0W
#1070
b110010 V
1W
#1080
0W
#1090
b110011 V
1W
#1100
0W
#1110
b110100 V
1W
#1120
0W
#1130
b110101 V
1W
#1140
0W
#1150
1""
11"
1@"
1O"
b1110 T"
b1101010110110110 W"
b11001100100010 U"
b1110 S"
b1110 6"
b11110101001010 9"
b1011011000000 7"
b1110 5"
b111 E"
b110101011011011 H"
b1100110010001 F"
b111 D"
b111 '"
b1111010100101 *"
b101101100000 ("
b111 &"
1$"
13"
1B"
1Q"
b110110 V
b1110 [
b1110 _
b11100000000000000111 t
b111 Z
b111 ^
1%"
14"
1C"
1R"
1X
1W
#1160
0W
#1170
0$"
0""
03"
01"
0B"
0@"
0Q"
0O"
b110101011111011 c"
b110101011011011 b"
b110101011011011 <"
b110101011011011 A"
b1101010111010101 f"
b1101010110110110 e"
b1101010110110110 K"
b1101010110110110 P"
b1111011000100 ["
b1111010100101 Z"
b1111010100101 |
b1111010100101 #"
b11110101101010 _"
b11110101001010 ^"
b11110101001010 -"
b11110101001010 2"
0%"
04"
0C"
0R"
0X
b110101011011011 ?"
b110101011011011 I"
b110101011011011 J"
b110101011011011000000000000000000000000110101011011011 i
b110101011011011000000000000000000000000110101011011011 x
b1101010110110110 N"
b1101010110110110 X"
b1101010110110110 Y"
b1111010100101 !"
b1111010100101 +"
b1111010100101 ,"
b1111010100101000000000000000000000000001111010100101 n
b1111010100101000000000000000000000000001111010100101 y
b11110101001010 0"
b11110101001010 :"
b11110101001010 ;"
b101011110011000 9"
b1101001001110 7"
b10101111001100 *"
b110100100111 ("
b111100001 a
b111100001 v
b111100001 )"
b111100001 8"
b111100001 o"
b10000011100100110 W"
b11000101110000 U"
b1000001110010011 H"
b1100010111000 F"
b1110001000 `
b1110001000 u
b1110001000 G"
b1110001000 V"
b1110001000 s"
b111 q
b111 {
b111 m"
b111 q"
b110111 V
1W
#1180
0W
#1190
b111000 V
1W
#1200
0W
#1210
b111001 V
1W
#1220
0W
#1230
b111010 V
1W
#1240
0W
#1250
b111011 V
1W
#1260
0W
#1270
b111100 V
1W
#1280
0W
#1290
b111101 V
1W
#1300
0W
#1310
b111110 V
1W
#1320
0W
#1330
1""
11"
1@"
1O"
b10000 T"
b10000111000110110 W"
b11100010000000 U"
b10000 S"
b10000 6"
b101101101011010 9"
b1111000010000 7"
b10000 5"
b1000 E"
b1000011100011011 H"
b1110001000000 F"
b1000 D"
b1000 '"
b10110110101101 *"
b111100001000 ("
b1000 &"
1$"
13"
1B"
1Q"
b10000 [
b10000 _
b100000000000000001000 t
b1000 Z
b1000 ^
1%"
14"
1C"
1R"
1X
b111111 V
1W
#1340
0W
#1350
b101101101111010 _"
b101101101011010 ^"
b101101101011010 -"
b101101101011010 2"
b10110111001100 ["
b10110110101101 Z"
b10110110101101 |
b10110110101101 #"
b10000111001010101 f"
b10000111000110110 e"
b10000111000110110 K"
b10000111000110110 P"
b1000011100111010 c"
b1000011100011011 b"
b1000011100011011 <"
b1000011100011011 A"
0$"
0""
03"
01"
0B"
0@"
0Q"
0O"
b1000000 V
b111110101001010 9"
b10000111110000 7"
b11111010100101 *"
b1000011111000 ("
b1000011111 a
b1000011111 v
b1000011111 )"
b1000011111 8"
b1000011111 o"
b10100010001110110 W"
b11011001000000 U"
b1010001000111011 H"
b1101100100000 F"
b1101100100 `
b1101100100 u
b1101100100 G"
b1101100100 V"
b1101100100 s"
b1000 q
b1000 {
b1000 m"
b1000 q"
b101101101011010 0"
b101101101011010 :"
b101101101011010 ;"
b10110110101101000000000000000000000000010110110101101 n
b10110110101101000000000000000000000000010110110101101 y
b10110110101101 !"
b10110110101101 +"
b10110110101101 ,"
b10000111000110110 N"
b10000111000110110 X"
b10000111000110110 Y"
b1000011100011011000000000000000000000001000011100011011 i
b1000011100011011000000000000000000000001000011100011011 x
b1000011100011011 ?"
b1000011100011011 I"
b1000011100011011 J"
0%"
04"
0C"
0R"
0X
1W
#1360
0W
#1370
b1000001 V
1W
#1380
0W
#1390
b1000010 V
1W
#1400
0W
#1410
b1000011 V
1W
#1420
0W
#1430
b1000100 V
1W
#1440
0W
#1450
b1000101 V
1W
#1460
0W
#1470
b1000110 V
1W
#1480
0W
#1490
b1000111 V
1W
#1500
0W
#1510
1""
11"
1@"
1O"
b10010 T"
b10100101100111110 W"
b11110100001000 U"
b10010 S"
b10010 6"
b1000000110001000 9"
b10011000101110 7"
b10010 5"
b1001 E"
b1010010110011111 H"
b1111010000100 F"
b1001 D"
b1001 '"
b100000011000100 *"
b1001100010111 ("
b1001 &"
1$"
13"
1B"
1Q"
b1001000 V
b10010 [
b10010 _
b100100000000000001001 t
b1001 Z
b1001 ^
1%"
14"
1C"
1R"
1X
1W
#1520
0W
