computing_cascade.vcd
$date
	Fri Mar 28 20:56:30 2025
$end
$version
	Icarus Verilog
$end
$timescale
	1s
$end
$scope module ff_fifo_wrapped_in_valid_ready $end
$var wire 1 ! clk $end
$var wire 1 " down_ready $end
$var wire 1 # down_valid $end
$var wire 1 $ fifo_pop $end
$var wire 1 % fifo_push $end
$var wire 1 & rstn $end
$var wire 8 ' up_data [7:0] $end
$var wire 1 ( up_ready $end
$var wire 1 ) up_valid $end
$var wire 1 * fifo_full $end
$var wire 1 + fifo_empty $end
$var wire 8 , down_data [7:0] $end
$scope module fifo $end
$var wire 1 ! clk $end
$var wire 1 + empty $end
$var wire 1 * full $end
$var wire 1 $ pop $end
$var wire 1 % push $end
$var wire 8 - read_data [7:0] $end
$var wire 1 & rstn $end
$var wire 8 . write_data [7:0] $end
$var wire 1 / equal_ptrs $end
$var reg 4 0 rd_ptr [3:0] $end
$var reg 1 1 rd_ptr_odd_circle $end
$var reg 4 2 wr_ptr [3:0] $end
$var reg 1 3 wr_ptr_odd_circle $end
$upscope $end
$upscope $end
$scope module fxp_div_fsm $end
$var wire 1 4 clk $end
$var wire 16 5 dividend [15:0] $end
$var wire 16 6 divisor [15:0] $end
$var wire 1 7 i_vld $end
$var wire 16 8 out [15:0] $end
$var wire 1 9 rstn $end
$var wire 32 : tmp [31:0] $end
$var wire 1 ; ready $end
$var wire 1 < o_vld $end
$var wire 1 = en $end
$var wire 32 > divr [31:0] $end
$var wire 32 ? divd [31:0] $end
$var reg 32 @ acc [31:0] $end
$var reg 4 A cnt [3:0] $end
$var reg 32 B divdp [31:0] $end
$var reg 32 C divrp [31:0] $end
$var reg 2 D new_state [1:0] $end
$var reg 16 E res [15:0] $end
$var reg 2 F state [1:0] $end
$scope module dividend_zoom $end
$var wire 16 G in [15:0] $end
$var wire 32 H out [31:0] $end
$var wire 24 I inr [23:0] $end
$var reg 8 J ini [7:0] $end
$var reg 16 K outf [15:0] $end
$var reg 16 L outi [15:0] $end
$scope begin genblk4 $end
$upscope $end
$scope begin genblk6 $end
$upscope $end
$upscope $end
$scope module divisor_zoom $end
$var wire 16 M in [15:0] $end
$var wire 32 N out [31:0] $end
$var wire 24 O inr [23:0] $end
$var reg 8 P ini [7:0] $end
$var reg 16 Q outf [15:0] $end
$var reg 16 R outi [15:0] $end
$scope begin genblk4 $end
$upscope $end
$scope begin genblk6 $end
$upscope $end
$upscope $end
$upscope $end
$scope module testbench $end
$var wire 1 S o_vld $end
$var wire 32 T mag [31:0] $end
$var wire 32 U delta_ph [31:0] $end
$var reg 32 V GLOBAL_COUNTER [31:0] $end
$var reg 1 W clk $end
$var reg 1 X i_vld $end
$var reg 1 Y rstn $end
$var reg 16 Z x1 [15:0] $end
$var reg 16 [ x2 [15:0] $end
$scope module test $end
$var wire 1 W clk $end
$var wire 1 X i_vld $end
$var wire 32 \ mag [31:0] $end
$var wire 1 S o_vld $end
$var wire 1 Y rstn $end
$var wire 16 ] x1 [15:0] $end
$var wire 16 ^ x2 [15:0] $end
$var wire 16 _ w_re [15:0] $end
$var wire 16 ` w_im [15:0] $end
$var wire 1 a valid_fft_round $end
$var wire 1 b valid_fft $end
$var wire 1 c to_polar_vld $end
$var wire 32 d round_re2 [31:0] $end
$var wire 32 e round_re1 [31:0] $end
$var wire 32 f round_im2 [31:0] $end
$var wire 32 g round_im1 [31:0] $end
$var wire 76 h re [75:0] $end
$var wire 32 i o_phase2 [31:0] $end
$var wire 32 j o_phase1 [31:0] $end
$var wire 32 k o_mag2 [31:0] $end
$var wire 32 l o_mag1 [31:0] $end
$var wire 76 m im [75:0] $end
$var wire 32 n delta_ph [31:0] $end
$var wire 32 o cordic_angle [31:0] $end
$var wire 5 p cnt [4:0] $end
$var wire 5 q address_angle [4:0] $end
$scope module fft_core $end
$var wire 1 W clk $end
$var wire 1 r finish $end
$var wire 1 Y rstn $end
$var wire 1 X valid_i $end
$var wire 32 s x [31:0] $end
$var wire 16 t w_re [15:0] $end
$var wire 16 u w_im [15:0] $end
$var wire 1 v reset_node $end
$var wire 76 w re [75:0] $end
$var wire 76 x im [75:0] $end
$var wire 1 y counter_enable $end
$var reg 5 z counter [4:0] $end
$var reg 1 b valid_o $end
$scope begin IM[0] $end
$var wire 38 { psumm_i_im [37:0] $end
$var wire 1 | valid_psumm_i_im $end
$var wire 1 } valid_psumm_o_im $end
$var wire 38 ~ psumm_o_im [37:0] $end
$scope module im_node1 $end
$var wire 1 W clk $end
$var wire 1 !" en $end
$var wire 1 X enable $end
$var wire 38 "" psumm_i [37:0] $end
$var wire 1 Y rstn $end
$var wire 1 #" valid_o_logic $end
$var wire 1 | valid_psumm_i $end
$var wire 1 X valid_x_i $end
$var wire 1 $" valid_x_o $end
$var wire 16 %" x_i [15:0] $end
$var wire 16 &" x_o [15:0] $end
$var wire 32 '" weight_mult [31:0] $end
$var wire 16 (" weight_i [15:0] $end
$var wire 38 )" psumm_o_logic [37:0] $end
$var wire 38 *" psumm_o [37:0] $end
$var reg 38 +" psumm_reg [37:0] $end
$var reg 1 } valid_o $end
$upscope $end
$upscope $end
$scope begin IM[1] $end
$var wire 38 ," psumm_i_im [37:0] $end
$var wire 1 -" valid_psumm_i_im $end
$var wire 1 ." valid_psumm_o_im $end
$var wire 38 /" psumm_o_im [37:0] $end
$scope module im_node1 $end
$var wire 1 W clk $end
$var wire 1 0" en $end
$var wire 1 X enable $end
$var wire 38 1" psumm_i [37:0] $end
$var wire 1 Y rstn $end
$var wire 1 2" valid_o_logic $end
$var wire 1 -" valid_psumm_i $end
$var wire 1 X valid_x_i $end
$var wire 1 3" valid_x_o $end
$var wire 16 4" x_i [15:0] $end
$var wire 16 5" x_o [15:0] $end
$var wire 32 6" weight_mult [31:0] $end
$var wire 16 7" weight_i [15:0] $end
$var wire 38 8" psumm_o_logic [37:0] $end
$var wire 38 9" psumm_o [37:0] $end
$var reg 38 :" psumm_reg [37:0] $end
$var reg 1 ." valid_o $end
$upscope $end
$upscope $end
$scope begin RE[0] $end
$var wire 38 ;" psumm_i_re [37:0] $end
$var wire 1 <" valid_psumm_i_re $end
$var wire 1 =" valid_psumm_o_re $end
$var wire 38 >" psumm_o_re [37:0] $end
$scope module re_node1 $end
$var wire 1 W clk $end
$var wire 1 ?" en $end
$var wire 1 X enable $end
$var wire 38 @" psumm_i [37:0] $end
$var wire 1 Y rstn $end
$var wire 1 A" valid_o_logic $end
$var wire 1 <" valid_psumm_i $end
$var wire 1 X valid_x_i $end
$var wire 1 B" valid_x_o $end
$var wire 16 C" x_i [15:0] $end
$var wire 16 D" x_o [15:0] $end
$var wire 32 E" weight_mult [31:0] $end
$var wire 16 F" weight_i [15:0] $end
$var wire 38 G" psumm_o_logic [37:0] $end
$var wire 38 H" psumm_o [37:0] $end
$var reg 38 I" psumm_reg [37:0] $end
$var reg 1 =" valid_o $end
$upscope $end
$upscope $end
$scope begin RE[1] $end
$var wire 38 J" psumm_i_re [37:0] $end
$var wire 1 K" valid_psumm_i_re $end
$var wire 1 L" valid_psumm_o_re $end
$var wire 38 M" psumm_o_re [37:0] $end
$scope module re_node1 $end
$var wire 1 W clk $end
$var wire 1 N" en $end
$var wire 1 X enable $end
$var wire 38 O" psumm_i [37:0] $end
$var wire 1 Y rstn $end
$var wire 1 P" valid_o_logic $end
$var wire 1 K" valid_psumm_i $end
$var wire 1 X valid_x_i $end
$var wire 1 Q" valid_x_o $end
$var wire 16 R" x_i [15:0] $end
$var wire 16 S" x_o [15:0] $end
$var wire 32 T" weight_mult [31:0] $end
$var wire 16 U" weight_i [15:0] $end
$var wire 38 V" psumm_o_logic [37:0] $end
$var wire 38 W" psumm_o [37:0] $end
$var reg 38 X" psumm_reg [37:0] $end
$var reg 1 L" valid_o $end
$upscope $end
$upscope $end
$upscope $end
$scope module r_im1 $end
$var wire 1 W clk $end
$var wire 38 Y" i_data [37:0] $end
$var wire 1 b i_vld $end
$var wire 1 Y rstn $end
$var wire 38 Z" w_convergent [37:0] $end
$var reg 32 [" o_data [31:0] $end
$var reg 1 \" o_vld $end
$upscope $end
$scope module r_im2 $end
$var wire 1 W clk $end
$var wire 38 ]" i_data [37:0] $end
$var wire 1 b i_vld $end
$var wire 1 Y rstn $end
$var wire 38 ^" w_convergent [37:0] $end
$var reg 32 _" o_data [31:0] $end
$var reg 1 `" o_vld $end
$upscope $end
$scope module r_re1 $end
$var wire 1 W clk $end
$var wire 38 a" i_data [37:0] $end
$var wire 1 b i_vld $end
$var wire 1 Y rstn $end
$var wire 38 b" w_convergent [37:0] $end
$var reg 32 c" o_data [31:0] $end
$var reg 1 a o_vld $end
$upscope $end
$scope module r_re2 $end
$var wire 1 W clk $end
$var wire 38 d" i_data [37:0] $end
$var wire 1 b i_vld $end
$var wire 1 Y rstn $end
$var wire 38 e" w_convergent [37:0] $end
$var reg 32 f" o_data [31:0] $end
$var reg 1 g" o_vld $end
$upscope $end
$scope module ram_angle $end
$var wire 1 W clk $end
$var wire 32 h" data_in [31:0] $end
$var wire 32 i" data_out [31:0] $end
$var wire 1 j" write_enable $end
$var wire 5 k" address [4:0] $end
$upscope $end
$scope module ram_im $end
$var wire 5 l" address [4:0] $end
$var wire 1 W clk $end
$var wire 16 m" data_in [15:0] $end
$var wire 16 n" data_out [15:0] $end
$var wire 1 o" write_enable $end
$upscope $end
$scope module ram_re $end
$var wire 5 p" address [4:0] $end
$var wire 1 W clk $end
$var wire 16 q" data_in [15:0] $end
$var wire 16 r" data_out [15:0] $end
$var wire 1 s" write_enable $end
$upscope $end
$scope module to_polar1 $end
$var wire 1 W clk $end
$var wire 32 t" cordic_angle [31:0] $end
$var wire 1 a i_vld $end
$var wire 32 u" i_x [31:0] $end
$var wire 32 v" i_y [31:0] $end
$var wire 32 w" o_mag [31:0] $end
$var wire 1 Y rstn $end
$var wire 32 x" ys_abs [31:0] $end
$var wire 1 y" sig $end
$var wire 1 z" ready $end
$var wire 1 c o_vld $end
$var wire 32 {" o_phase [31:0] $end
$var wire 1 |" en $end
$var reg 5 }" cnt [4:0] $end
$var reg 2 ~" new_state [1:0] $end
$var reg 32 !# phs [31:0] $end
$var reg 2 "# state [1:0] $end
$var reg 32 ## xs [31:0] $end
$var reg 32 $# ys [31:0] $end
$upscope $end
$scope module to_polar2 $end
$var wire 1 W clk $end
$var wire 32 %# cordic_angle [31:0] $end
$var wire 1 a i_vld $end
$var wire 32 &# i_x [31:0] $end
$var wire 32 '# i_y [31:0] $end
$var wire 1 Y rstn $end
$var wire 32 (# ys_abs [31:0] $end
$var wire 1 )# sig $end
$var wire 1 *# ready $end
$var wire 1 +# o_vld $end
$var wire 32 ,# o_phase [31:0] $end
$var wire 32 -# o_mag [31:0] $end
$var wire 1 .# en $end
$var reg 5 /# cnt [4:0] $end
$var reg 2 0# new_state [1:0] $end
$var reg 32 1# phs [31:0] $end
$var reg 2 2# state [1:0] $end
$var reg 32 3# xs [31:0] $end
$var reg 32 4# ys [31:0] $end
$upscope $end
$upscope $end
$upscope $end
$enddefinitions $end
#0
$dumpvars
bx 4#
bx 3#
bx 2#
bx 1#
bx 0#
bx /#
x.#
bx -#
bx ,#
x+#
x*#
x)#
bx (#
bx '#
bx &#
bx %#
bx $#
bx ##
bx "#
bx !#
bx ~"
bx }"
x|"
bx {"
xz"
xy"
bx x"
bx w"
bx v"
bx u"
bx t"
zs"
bx r"
bz q"
bx p"
zo"
bx n"
bz m"
bx l"
bx k"
zj"
bx i"
bz h"
xg"
bx f"
bx e"
bx d"
bx c"
bx b"
bx a"
x`"
bx _"
bx ^"
bx ]"
x\"
bx ["
bx Z"
bx Y"
bx X"
bx W"
bx V"
bx U"
bx T"
b0 S"
b0 R"
0Q"
0P"
bx O"
0N"
bx M"
xL"
1K"
bx J"
bx I"
bx H"
bx G"
bx F"
bx E"
b0 D"
b0 C"
0B"
0A"
bx @"
0?"
bx >"
x="
1<"
bx ;"
bx :"
bx 9"
bx 8"
bx 7"
bx 6"
b0 5"
b0 4"
03"
02"
bx 1"
00"
bx /"
x."
1-"
bx ,"
bx +"
bx *"
bx )"
bx ("
bx '"
b0 &"
b0 %"
0$"
0#"
bx ""
0!"
bx ~
x}
1|
bx {
bx z
xy
bx x
bx w
xv
bx u
bx t
b0 s
0r
bx q
bx p
bx o
bx n
bx m
bx l
bx k
bx j
bx i
bx h
bx g
bx f
bx e
bx d
xc
xb
xa
bx `
bx _
b0 ^
b0 ]
bx \
b0 [
b0 Z
0Y
0X
0W
b0 V
bx U
bx T
xS
bxzzzzzzzz R
bz00000000 Q
bz P
bz00000000 O
bxzzzzzzzzzzzzzzzz00000000 N
bz M
bxzzzzzzzz L
bz00000000 K
bz J
bz00000000 I
bxzzzzzzzzzzzzzzzz00000000 H
bz G
bx F
bx E
bx D
bx C
bx B
bx A
bx @
bxzzzzzzzzzzzzzzzz00000000 ?
bxzzzzzzzzzzzzzzzz00000000 >
x=
x<
x;
bx :
z9
bx 8
z7
bz 6
bz 5
z4
x3
bx 2
x1
bx 0
x/
bz .
bx -
bx ,
x+
x*
z)
x(
bz '
z&
x%
x$
x#
z"
z!
$end
#10
b0 8"
b0 ,"
b0 1"
b0 )"
b0 {
b0 ""
b0 V"
b0 J"
b0 O"
b0 G"
b0 ;"
b0 @"
b0 ~"
b0 0#
0="
0L"
0}
0."
0b
0y
0v
b0 6"
b0 '"
b0 `
b0 u
b0 ("
b0 7"
b0 n"
b0 T"
b0 E"
b10000000000 _
b10000000000 t
b10000000000 F"
b10000000000 U"
b10000000000 r"
b0 p
b0 z
b0 l"
b0 p"
0a
0\"
0g"
0`"
0S
0c
1z"
b0 "#
0|"
b110101001000010100111001100 o
b110101001000010100111001100 i"
b110101001000010100111001100 t"
b110101001000010100111001100 %#
b0 q
b0 k"
b0 }"
0+#
1*#
b0 2#
0.#
b0 /#
1W
#20
0W
#30
1W
#40
0W
#50
1Y
1W
#60
0W
#70
1!"
10"
1?"
1N"
b10 S"
b100000000000 V"
b100000000000 T"
b10 R"
b10 5"
b10 4"
b1 D"
b10000000000 G"
b10000000000 E"
b1 C"
b1 &"
b1 %"
1#"
12"
1A"
1P"
b10 [
b10 ^
b100000000000000001 s
b1 Z
b1 ]
1$"
13"
1B"
1Q"
1X
1W
#80
0W
#90
b10000011111 b"
b100000011111 e"
b11111 Z"
b11111 ^"
0#"
0!"
02"
00"
0A"
0?"
0P"
0N"
b10000000000 a"
b100000000000 d"
b0 Y"
b0 ]"
b100000000000 J"
b100000000000 O"
b10000000000 ;"
b10000000000 @"
0$"
03"
0B"
0Q"
0X
b10000000000 >"
b10000000000 H"
b10000000000 I"
1="
b10000000000000000000000000000000000000010000000000 h
b10000000000000000000000000000000000000010000000000 w
b100000000000 M"
b100000000000 W"
b100000000000 X"
1L"
b0 ~
b0 *"
b0 +"
1}
b0 m
b0 x
b0 /"
b0 9"
b0 :"
1."
1v
b10001110 8"
b10001110 6"
b1000111 )"
b1000111 '"
b1000111 `
b1000111 u
b1000111 ("
b1000111 7"
b1000111 n"
b111111111100 V"
b11111111100 T"
b11111111110 G"
b1111111110 E"
b1111111110 _
b1111111110 t
b1111111110 F"
b1111111110 U"
b1111111110 r"
b1 p
b1 z
b1 l"
b1 p"
b1 V
1W
#100
0W
#110
b10 V
1W
#120
0W
#130
b11 V
1W
#140
0W
#150
b100 V
1W
#160
0W
#170
b101 V
1W
#180
0W
#190
b110 V
1W
#200
0W
#210
b111 V
1W
#220
0W
#230
b1000 V
1W
#240
0W
#250
1!"
10"
1?"
1N"
b100 S"
b1011111111000 V"
b111111111000 T"
b100 R"
b100 5"
b100011100 8"
b100011100 6"
b100 4"
b10 D"
b101111111100 G"
b11111111100 E"
b10 C"
b10 &"
b10001110 )"
b10001110 '"
b10 %"
1#"
12"
1A"
1P"
b100 [
b100 ^
b1000000000000000010 s
b10 Z
b10 ]
1$"
13"
1B"
1Q"
1X
b1001 V
1W
#260
0W
#270
b100111011 ^"
b100011100 ]"
b100011100 ,"
b100011100 1"
b10101101 Z"
b10001110 Y"
b10001110 {
b10001110 ""
b1100000011000 e"
b1011111111000 d"
b1011111111000 J"
b1011111111000 O"
b110000011100 b"
b101111111100 a"
b101111111100 ;"
b101111111100 @"
0#"
0!"
02"
00"
0A"
0?"
0P"
0N"
b1010 V
b1101011000 8"
b1000111100 6"
b110101100 )"
b100011110 '"
b10001111 `
b10001111 u
b10001111 ("
b10001111 7"
b10001111 n"
b10011111010000 V"
b111111011000 T"
b1001111101000 G"
b11111101100 E"
b1111110110 _
b1111110110 t
b1111110110 F"
b1111110110 U"
b1111110110 r"
b10 p
b10 z
b10 l"
b10 p"
b100011100 /"
b100011100 9"
b100011100 :"
b10001110000000000000000000000000000000010001110 m
b10001110000000000000000000000000000000010001110 x
b10001110 ~
b10001110 *"
b10001110 +"
b1011111111000 M"
b1011111111000 W"
b1011111111000 X"
b101111111100000000000000000000000000000101111111100 h
b101111111100000000000000000000000000000101111111100 w
b101111111100 >"
b101111111100 H"
b101111111100 I"
0$"
03"
0B"
0Q"
0X
1W
#280
0W
#290
b1011 V
1W
#300
0W
#310
b1100 V
1W
#320
0W
#330
b1101 V
1W
#340
0W
#350
b1110 V
1W
#360
0W
#370
b1111 V
1W
#380
0W
#390
b10000 V
1W
#400
0W
#410
b10001 V
1W
#420
0W
#430
1!"
10"
1?"
1N"
b110 S"
b10111110111100 V"
b1011111000100 T"
b110 R"
b110 5"
b10001110110 8"
b1101011010 6"
b110 4"
b11 D"
b1011111011110 G"
b101111100010 E"
b11 C"
b11 &"
b1000111011 )"
b110101101 '"
b11 %"
1#"
12"
1A"
1P"
b10010 V
b110 [
b110 ^
b1100000000000000011 s
b11 Z
b11 ]
1$"
13"
1B"
1Q"
1X
1W
#440
0W
#450
0#"
0!"
02"
00"
0A"
0?"
0P"
0N"
b1011111111110 b"
b1011111011110 a"
b1011111011110 ;"
b1011111011110 @"
b10111111011011 e"
b10111110111100 d"
b10111110111100 J"
b10111110111100 O"
b1001011010 Z"
b1000111011 Y"
b1000111011 {
b1000111011 ""
b10010010110 ^"
b10001110110 ]"
b10001110110 ,"
b10001110110 1"
0$"
03"
0B"
0Q"
0X
b1011111011110 >"
b1011111011110 H"
b1011111011110 I"
b1011111011110000000000000000000000000001011111011110 h
b1011111011110000000000000000000000000001011111011110 w
b10111110111100 M"
b10111110111100 W"
b10111110111100 X"
b1000111011 ~
b1000111011 *"
b1000111011 +"
b1000111011000000000000000000000000000001000111011 m
b1000111011000000000000000000000000000001000111011 x
b10001110110 /"
b10001110110 9"
b10001110110 :"
b100101110100 8"
b10011111110 6"
b10010111010 )"
b1001111111 '"
b11010101 `
b11010101 u
b11010101 ("
b11010101 7"
b11010101 n"
b100011100111000 V"
b1011101111100 T"
b10001110011100 G"
b101110111110 E"
b1111101010 _
b1111101010 t
b1111101010 F"
b1111101010 U"
b1111101010 r"
b11 p
b11 z
b11 l"
b11 p"
b10011 V
1W
#460
0W
#470
b10100 V
1W
#480
0W
#490
b10101 V
1W
#500
0W
#510
b10110 V
1W
#520
0W
#530
b10111 V
1W
#540
0W
#550
b11000 V
1W
#560
0W
#570
b11001 V
1W
#580
0W
#590
b11010 V
1W
#600
0W
#610
1!"
10"
1?"
1N"
b1000 S"
b100111100001100 V"
b1111101010000 T"
b1000 R"
b1000 5"
b101100011110 8"
b11010101000 6"
b1000 4"
b100 D"
b10011110000110 G"
b111110101000 E"
b100 C"
b100 &"
b10110001111 )"
b1101010100 '"
b100 %"
1#"
12"
1A"
1P"
b1000 [
b1000 ^
b10000000000000000100 s
b100 Z
b100 ]
1$"
13"
1B"
1Q"
1X
b11011 V
1W
#620
0W
#630
b101100111101 ^"
b101100011110 ]"
b101100011110 ,"
b101100011110 1"
b10110101110 Z"
b10110001111 Y"
b10110001111 {
b10110001111 ""
b100111100101011 e"
b100111100001100 d"
b100111100001100 J"
b100111100001100 O"
b10011110100101 b"
b10011110000110 a"
b10011110000110 ;"
b10011110000110 @"
0#"
0!"
02"
00"
0A"
0?"
0P"
0N"
b11100 V
b1001111101110 8"
b100011010000 6"
b100111110111 )"
b10001101000 '"
b100011010 `
b100011010 u
b100011010 ("
b100011010 7"
b100011010 n"
b110110111001100 V"
b1111011000000 T"
b11011011100110 G"
b111101100000 E"
b1111011000 _
b1111011000 t
b1111011000 F"
b1111011000 U"
b1111011000 r"
b100 p
b100 z
b100 l"
b100 p"
b101100011110 /"
b101100011110 9"
b101100011110 :"
b10110001111000000000000000000000000000010110001111 m
b10110001111000000000000000000000000000010110001111 x
b10110001111 ~
b10110001111 *"
b10110001111 +"
b100111100001100 M"
b100111100001100 W"
b100111100001100 X"
b10011110000110000000000000000000000000010011110000110 h
b10011110000110000000000000000000000000010011110000110 w
b10011110000110 >"
b10011110000110 H"
b10011110000110 I"
0$"
03"
0B"
0Q"
0X
1W
#640
0W
#650
b11101 V
1W
#660
0W
#670
b11110 V
1W
#680
0W
#690
b11111 V
1W
#700
0W
#710
b100000 V
1W
#720
0W
#730
b100001 V
1W
#740
0W
#750
b100010 V
1W
#760
0W
#770
b100011 V
1W
#780
0W
#790
1!"
10"
1?"
1N"
b1010 S"
b111010101111100 V"
b10011001110000 T"
b1010 R"
b1010 5"
b1011000100010 8"
b101100000100 6"
b1010 4"
b101 D"
b11101010111110 G"
b1001100111000 E"
b101 C"
b101 &"
b101100010001 )"
b10110000010 '"
b101 %"
1#"
12"
1A"
1P"
b100100 V
b1010 [
b1010 ^
b10100000000000000101 s
b101 Z
b101 ]
1$"
13"
1B"
1Q"
1X
1W
#800
0W
#810
0#"
0!"
02"
00"
0A"
0?"
0P"
0N"
b11101011011101 b"
b11101010111110 a"
b11101010111110 ;"
b11101010111110 @"
b111010110011100 e"
b111010101111100 d"
b111010101111100 J"
b111010101111100 O"
b101100110000 Z"
b101100010001 Y"
b101100010001 {
b101100010001 ""
b1011001000001 ^"
b1011000100010 ]"
b1011000100010 ,"
b1011000100010 1"
0$"
03"
0B"
0Q"
0X
b11101010111110 >"
b11101010111110 H"
b11101010111110 I"
b11101010111110000000000000000000000000011101010111110 h
b11101010111110000000000000000000000000011101010111110 w
b111010101111100 M"
b111010101111100 W"
b111010101111100 X"
b101100010001 ~
b101100010001 *"
b101100010001 +"
b101100010001000000000000000000000000000101100010001 m
b101100010001000000000000000000000000000101100010001 x
b1011000100010 /"
b1011000100010 9"
b1011000100010 :"
b10001111001110 8"
b110110101100 6"
b1000111100111 )"
b11011010110 '"
b101011110 `
b101011110 u
b101011110 ("
b101011110 7"
b101011110 n"
b1001101100010000 V"
b10010110010100 T"
b100110110001000 G"
b1001011001010 E"
b1111000010 _
b1111000010 t
b1111000010 F"
b1111000010 U"
b1111000010 r"
b101 p
b101 z
b101 l"
b101 p"
b100101 V
1W
#820
0W
#830
b100110 V
1W
#840
0W
#850
b100111 V
1W
#860
0W
#870
b101000 V
1W
#880
0W
#890
b101001 V
1W
#900
0W
#910
b101010 V
1W
#920
0W
#930
b101011 V
1W
#940
0W
#950
b101100 V
1W
#960
0W
#970
1!"
10"
1?"
1N"
b1100 S"
b1010001010010100 V"
b10110100011000 T"
b1100 R"
b1100 5"
b10011010001010 8"
b1000001101000 6"
b1100 4"
b110 D"
b101000101001010 G"
b1011010001100 E"
b110 C"
b110 &"
b1001101000101 )"
b100000110100 '"
b110 %"
1#"
12"
1A"
1P"
b1100 [
b1100 ^
b11000000000000000110 s
b110 Z
b110 ]
1$"
13"
1B"
1Q"
1X
b101101 V
1W
#980
0W
#990
b10011010101001 ^"
b10011010001010 ]"
b10011010001010 ,"
b10011010001010 1"
b1001101100101 Z"
b1001101000101 Y"
b1001101000101 {
b1001101000101 ""
b1010001010110011 e"
b1010001010010100 d"
b1010001010010100 J"
b1010001010010100 O"
b101000101101010 b"
b101000101001010 a"
b101000101001010 ;"
b101000101001010 @"
0#"
0!"
02"
00"
0A"
0?"
0P"
0N"
b101110 V
b11101000001010 8"
b1001110000000 6"
b1110100000101 )"
b100111000000 '"
b110100000 `
b110100000 u
b110100000 ("
b110100000 7"
b110100000 n"
b1100111001101000 V"
b10101111010100 T"
b110011100110100 G"
b1010111101010 E"
b1110100111 _
b1110100111 t
b1110100111 F"
b1110100111 U"
b1110100111 r"
b110 p
b110 z
b110 l"
b110 p"
b10011010001010 /"
b10011010001010 9"
b10011010001010 :"
b1001101000101000000000000000000000000001001101000101 m
b1001101000101000000000000000000000000001001101000101 x
b1001101000101 ~
b1001101000101 *"
b1001101000101 +"
b1010001010010100 M"
b1010001010010100 W"
b1010001010010100 X"
b101000101001010000000000000000000000000101000101001010 h
b101000101001010000000000000000000000000101000101001010 w
b101000101001010 >"
b101000101001010 H"
b101000101001010 I"
0$"
03"
0B"
0Q"
0X
1W
#1000
0W
#1010
b101111 V
1W
#1020
0W
#1030
b110000 V
1W
#1040
0W
#1050
b110001 V
1W
#1060
0W
#1070
b110010 V
1W
#1080
0W
#1090
b110011 V
1W
#1100
0W
#1110
b110100 V
1W
#1120
0W
#1130
b110101 V
1W
#1140
0W
#1150
1!"
10"
1?"
1N"
b1110 S"
b1101010110110110 V"
b11001100100010 T"
b1110 R"
b1110 5"
b11110101001010 8"
b1011011000000 6"
b1110 4"
b111 D"
b110101011011011 G"
b1100110010001 E"
b111 C"
b111 &"
b1111010100101 )"
b101101100000 '"
b111 %"
1#"
12"
1A"
1P"
b110110 V
b1110 [
b1110 ^
b11100000000000000111 s
b111 Z
b111 ]
1$"
13"
1B"
1Q"
1X
1W
#1160
0W
#1170
0#"
0!"
02"
00"
0A"
0?"
0P"
0N"
b110101011111011 b"
b110101011011011 a"
b110101011011011 ;"
b110101011011011 @"
b1101010111010101 e"
b1101010110110110 d"
b1101010110110110 J"
b1101010110110110 O"
b1111011000100 Z"
b1111010100101 Y"
b1111010100101 {
b1111010100101 ""
b11110101101010 ^"
b11110101001010 ]"
b11110101001010 ,"
b11110101001010 1"
0$"
03"
0B"
0Q"
0X
b110101011011011 >"
b110101011011011 H"
b110101011011011 I"
b110101011011011000000000000000000000000110101011011011 h
b110101011011011000000000000000000000000110101011011011 w
b1101010110110110 M"
b1101010110110110 W"
b1101010110110110 X"
b1111010100101 ~
b1111010100101 *"
b1111010100101 +"
b1111010100101000000000000000000000000001111010100101 m
b1111010100101000000000000000000000000001111010100101 x
b11110101001010 /"
b11110101001010 9"
b11110101001010 :"
b101011110011000 8"
b1101001001110 6"
b10101111001100 )"
b110100100111 '"
b111100001 `
b111100001 u
b111100001 ("
b111100001 7"
b111100001 n"
b10000011100100110 V"
b11000101110000 T"
b1000001110010011 G"
b1100010111000 E"
b1110001000 _
b1110001000 t
b1110001000 F"
b1110001000 U"
b1110001000 r"
b111 p
b111 z
b111 l"
b111 p"
b110111 V
1W
#1180
0W
#1190
b111000 V
1W
#1200
0W
#1210
b111001 V
1W
#1220
0W
#1230
b111010 V
1W
#1240
0W
#1250
b111011 V
1W
#1260
0W
#1270
b111100 V
1W
#1280
0W
#1290
b111101 V
1W
#1300
0W
#1310
b111110 V
1W
#1320
0W
#1330
1!"
10"
1?"
1N"
b10000 S"
b10000111000110110 V"
b11100010000000 T"
b10000 R"
b10000 5"
b101101101011010 8"
b1111000010000 6"
b10000 4"
b1000 D"
b1000011100011011 G"
b1110001000000 E"
b1000 C"
b1000 &"
b10110110101101 )"
b111100001000 '"
b1000 %"
1#"
12"
1A"
1P"
b10000 [
b10000 ^
b100000000000000001000 s
b1000 Z
b1000 ]
1$"
13"
1B"
1Q"
1X
b111111 V
1W
#1340
0W
#1350
b101101101111010 ^"
b101101101011010 ]"
b101101101011010 ,"
b101101101011010 1"
b10110111001100 Z"
b10110110101101 Y"
b10110110101101 {
b10110110101101 ""
b10000111001010101 e"
b10000111000110110 d"
b10000111000110110 J"
b10000111000110110 O"
b1000011100111010 b"
b1000011100011011 a"
b1000011100011011 ;"
b1000011100011011 @"
0#"
0!"
02"
00"
0A"
0?"
0P"
0N"
b1000000 V
b111110101001010 8"
b10000111110000 6"
b11111010100101 )"
b1000011111000 '"
b1000011111 `
b1000011111 u
b1000011111 ("
b1000011111 7"
b1000011111 n"
b10100010001110110 V"
b11011001000000 T"
b1010001000111011 G"
b1101100100000 E"
b1101100100 _
b1101100100 t
b1101100100 F"
b1101100100 U"
b1101100100 r"
b1000 p
b1000 z
b1000 l"
b1000 p"
b101101101011010 /"
b101101101011010 9"
b101101101011010 :"
b10110110101101000000000000000000000000010110110101101 m
b10110110101101000000000000000000000000010110110101101 x
b10110110101101 ~
b10110110101101 *"
b10110110101101 +"
b10000111000110110 M"
b10000111000110110 W"
b10000111000110110 X"
b1000011100011011000000000000000000000001000011100011011 h
b1000011100011011000000000000000000000001000011100011011 w
b1000011100011011 >"
b1000011100011011 H"
b1000011100011011 I"
0$"
03"
0B"
0Q"
0X
1W
#1360
0W
#1370
b1000001 V
1W
#1380
0W
#1390
b1000010 V
1W
#1400
0W
#1410
b1000011 V
1W
#1420
0W
#1430
b1000100 V
1W
#1440
0W
#1450
b1000101 V
1W
#1460
0W
#1470
b1000110 V
1W
#1480
0W
#1490
b1000111 V
1W
#1500
0W
#1510
1!"
10"
1?"
1N"
b10010 S"
b10100101100111110 V"
b11110100001000 T"
b10010 R"
b10010 5"
b1000000110001000 8"
b10011000101110 6"
b10010 4"
b1001 D"
b1010010110011111 G"
b1111010000100 E"
b1001 C"
b1001 &"
b100000011000100 )"
b1001100010111 '"
b1001 %"
1#"
12"
1A"
1P"
b1001000 V
b10010 [
b10010 ^
b100100000000000001001 s
b1001 Z
b1001 ]
1$"
13"
1B"
1Q"
1X
1W
#1520
0W
