computing_cascade/AC_PH.vcd
$date
	Sat Mar 29 12:20:43 2025
$end
$version
	Icarus Verilog
$end
$timescale
	1s
$end
$scope module testbench $end
$var wire 1 ! o_vld $end
$var wire 32 " mag [31:0] $end
$var wire 1 # finish $end
$var wire 32 $ delta_ph [31:0] $end
$var reg 32 % GLOBAL_COUNTER [31:0] $end
$var reg 1 & clk $end
$var reg 1 ' i_vld $end
$var reg 1 ( rstn $end
$var reg 16 ) x1 [15:0] $end
$var reg 16 * x2 [15:0] $end
$scope module test $end
$var wire 32 + ac [31:0] $end
$var wire 1 & clk $end
$var wire 1 ' i_vld $end
$var wire 1 ! o_vld $end
$var wire 1 ( rstn $end
$var wire 16 , x1 [15:0] $end
$var wire 16 - x2 [15:0] $end
$var wire 16 . w_re [15:0] $end
$var wire 16 / w_im [15:0] $end
$var wire 1 0 valid_fft_round $end
$var wire 1 1 valid_fft $end
$var wire 1 2 to_polar_vld $end
$var wire 32 3 round_re2 [31:0] $end
$var wire 32 4 round_re1 [31:0] $end
$var wire 32 5 round_im2 [31:0] $end
$var wire 32 6 round_im1 [31:0] $end
$var wire 76 7 re [75:0] $end
$var wire 32 8 ph [31:0] $end
$var wire 32 9 o_phase2 [31:0] $end
$var wire 32 : o_phase1 [31:0] $end
$var wire 32 ; o_mag2 [31:0] $end
$var wire 32 < o_mag1 [31:0] $end
$var wire 76 = im [75:0] $end
$var wire 1 # finish $end
$var wire 32 > cordic_angle [31:0] $end
$var wire 5 ? cnt [4:0] $end
$var wire 5 @ address_angle [4:0] $end
$scope module fft_core $end
$var wire 1 & clk $end
$var wire 1 # finish $end
$var wire 1 ( rstn $end
$var wire 1 ' valid_i $end
$var wire 32 A x [31:0] $end
$var wire 16 B w_re [15:0] $end
$var wire 16 C w_im [15:0] $end
$var wire 1 D reset_node $end
$var wire 76 E re [75:0] $end
$var wire 76 F im [75:0] $end
$var wire 1 G counter_enable $end
$var reg 5 H counter [4:0] $end
$var reg 1 1 valid_o $end
$scope begin IM[0] $end
$var wire 38 I psumm_i_im [37:0] $end
$var wire 1 J valid_psumm_i_im $end
$var wire 1 K valid_psumm_o_im $end
$var wire 38 L psumm_o_im [37:0] $end
$scope module im_node1 $end
$var wire 1 & clk $end
$var wire 1 M en $end
$var wire 1 ' enable $end
$var wire 38 N psumm_i [37:0] $end
$var wire 1 ( rstn $end
$var wire 1 O valid_o_logic $end
$var wire 1 J valid_psumm_i $end
$var wire 1 ' valid_x_i $end
$var wire 1 P valid_x_o $end
$var wire 16 Q x_i [15:0] $end
$var wire 16 R x_o [15:0] $end
$var wire 32 S weight_mult [31:0] $end
$var wire 16 T weight_i [15:0] $end
$var wire 38 U psumm_o_logic [37:0] $end
$var wire 38 V psumm_o [37:0] $end
$var reg 38 W psumm_reg [37:0] $end
$var reg 1 K valid_o $end
$upscope $end
$upscope $end
$scope begin IM[1] $end
$var wire 38 X psumm_i_im [37:0] $end
$var wire 1 Y valid_psumm_i_im $end
$var wire 1 Z valid_psumm_o_im $end
$var wire 38 [ psumm_o_im [37:0] $end
$scope module im_node1 $end
$var wire 1 & clk $end
$var wire 1 \ en $end
$var wire 1 ' enable $end
$var wire 38 ] psumm_i [37:0] $end
$var wire 1 ( rstn $end
$var wire 1 ^ valid_o_logic $end
$var wire 1 Y valid_psumm_i $end
$var wire 1 ' valid_x_i $end
$var wire 1 _ valid_x_o $end
$var wire 16 ` x_i [15:0] $end
$var wire 16 a x_o [15:0] $end
$var wire 32 b weight_mult [31:0] $end
$var wire 16 c weight_i [15:0] $end
$var wire 38 d psumm_o_logic [37:0] $end
$var wire 38 e psumm_o [37:0] $end
$var reg 38 f psumm_reg [37:0] $end
$var reg 1 Z valid_o $end
$upscope $end
$upscope $end
$scope begin RE[0] $end
$var wire 38 g psumm_i_re [37:0] $end
$var wire 1 h valid_psumm_i_re $end
$var wire 1 i valid_psumm_o_re $end
$var wire 38 j psumm_o_re [37:0] $end
$scope module re_node1 $end
$var wire 1 & clk $end
$var wire 1 k en $end
$var wire 1 ' enable $end
$var wire 38 l psumm_i [37:0] $end
$var wire 1 ( rstn $end
$var wire 1 m valid_o_logic $end
$var wire 1 h valid_psumm_i $end
$var wire 1 ' valid_x_i $end
$var wire 1 n valid_x_o $end
$var wire 16 o x_i [15:0] $end
$var wire 16 p x_o [15:0] $end
$var wire 32 q weight_mult [31:0] $end
$var wire 16 r weight_i [15:0] $end
$var wire 38 s psumm_o_logic [37:0] $end
$var wire 38 t psumm_o [37:0] $end
$var reg 38 u psumm_reg [37:0] $end
$var reg 1 i valid_o $end
$upscope $end
$upscope $end
$scope begin RE[1] $end
$var wire 38 v psumm_i_re [37:0] $end
$var wire 1 w valid_psumm_i_re $end
$var wire 1 x valid_psumm_o_re $end
$var wire 38 y psumm_o_re [37:0] $end
$scope module re_node1 $end
$var wire 1 & clk $end
$var wire 1 z en $end
$var wire 1 ' enable $end
$var wire 38 { psumm_i [37:0] $end
$var wire 1 ( rstn $end
$var wire 1 | valid_o_logic $end
$var wire 1 w valid_psumm_i $end
$var wire 1 ' valid_x_i $end
$var wire 1 } valid_x_o $end
$var wire 16 ~ x_i [15:0] $end
$var wire 16 !" x_o [15:0] $end
$var wire 32 "" weight_mult [31:0] $end
$var wire 16 #" weight_i [15:0] $end
$var wire 38 $" psumm_o_logic [37:0] $end
$var wire 38 %" psumm_o [37:0] $end
$var reg 38 &" psumm_reg [37:0] $end
$var reg 1 x valid_o $end
$upscope $end
$upscope $end
$upscope $end
$scope module r_im1 $end
$var wire 1 & clk $end
$var wire 38 '" i_data [37:0] $end
$var wire 1 1 i_vld $end
$var wire 1 ( rstn $end
$var wire 38 (" w_convergent [37:0] $end
$var reg 32 )" o_data [31:0] $end
$var reg 1 *" o_vld $end
$upscope $end
$scope module r_im2 $end
$var wire 1 & clk $end
$var wire 38 +" i_data [37:0] $end
$var wire 1 1 i_vld $end
$var wire 1 ( rstn $end
$var wire 38 ," w_convergent [37:0] $end
$var reg 32 -" o_data [31:0] $end
$var reg 1 ." o_vld $end
$upscope $end
$scope module r_re1 $end
$var wire 1 & clk $end
$var wire 38 /" i_data [37:0] $end
$var wire 1 1 i_vld $end
$var wire 1 ( rstn $end
$var wire 38 0" w_convergent [37:0] $end
$var reg 32 1" o_data [31:0] $end
$var reg 1 0 o_vld $end
$upscope $end
$scope module r_re2 $end
$var wire 1 & clk $end
$var wire 38 2" i_data [37:0] $end
$var wire 1 1 i_vld $end
$var wire 1 ( rstn $end
$var wire 38 3" w_convergent [37:0] $end
$var reg 32 4" o_data [31:0] $end
$var reg 1 5" o_vld $end
$upscope $end
$scope module ram_angle $end
$var wire 1 & clk $end
$var wire 32 6" data_in [31:0] $end
$var wire 32 7" data_out [31:0] $end
$var wire 1 8" write_enable $end
$var wire 5 9" address [4:0] $end
$upscope $end
$scope module ram_im $end
$var wire 5 :" address [4:0] $end
$var wire 1 & clk $end
$var wire 16 ;" data_in [15:0] $end
$var wire 16 <" data_out [15:0] $end
$var wire 1 =" write_enable $end
$upscope $end
$scope module ram_re $end
$var wire 5 >" address [4:0] $end
$var wire 1 & clk $end
$var wire 16 ?" data_in [15:0] $end
$var wire 16 @" data_out [15:0] $end
$var wire 1 A" write_enable $end
$upscope $end
$scope module to_polar1 $end
$var wire 1 & clk $end
$var wire 32 B" cordic_angle [31:0] $end
$var wire 1 0 i_vld $end
$var wire 32 C" i_x [31:0] $end
$var wire 32 D" i_y [31:0] $end
$var wire 32 E" o_mag [31:0] $end
$var wire 1 ( rstn $end
$var wire 32 F" ys_abs [31:0] $end
$var wire 1 G" sig $end
$var wire 1 H" ready $end
$var wire 1 2 o_vld $end
$var wire 32 I" o_phase [31:0] $end
$var wire 1 J" en $end
$var reg 5 K" cnt [4:0] $end
$var reg 2 L" new_state [1:0] $end
$var reg 32 M" phs [31:0] $end
$var reg 2 N" state [1:0] $end
$var reg 32 O" xs [31:0] $end
$var reg 32 P" ys [31:0] $end
$upscope $end
$scope module to_polar2 $end
$var wire 1 & clk $end
$var wire 32 Q" cordic_angle [31:0] $end
$var wire 1 0 i_vld $end
$var wire 32 R" i_x [31:0] $end
$var wire 32 S" i_y [31:0] $end
$var wire 1 ( rstn $end
$var wire 32 T" ys_abs [31:0] $end
$var wire 1 U" sig $end
$var wire 1 V" ready $end
$var wire 1 W" o_vld $end
$var wire 32 X" o_phase [31:0] $end
$var wire 32 Y" o_mag [31:0] $end
$var wire 1 Z" en $end
$var reg 5 [" cnt [4:0] $end
$var reg 2 \" new_state [1:0] $end
$var reg 32 ]" phs [31:0] $end
$var reg 2 ^" state [1:0] $end
$var reg 32 _" xs [31:0] $end
$var reg 32 `" ys [31:0] $end
$upscope $end
$upscope $end
$upscope $end
$enddefinitions $end
#0
$dumpvars
bx `"
bx _"
bx ^"
bx ]"
bx \"
bx ["
xZ"
bx Y"
bx X"
xW"
xV"
xU"
bx T"
bx S"
bx R"
bx Q"
bx P"
bx O"
bx N"
bx M"
bx L"
bx K"
xJ"
bx I"
xH"
xG"
bx F"
bx E"
bx D"
bx C"
bx B"
zA"
bx @"
bz ?"
bx >"
z="
bx <"
bz ;"
bx :"
bx 9"
z8"
bx 7"
bz 6"
x5"
bx 4"
bx 3"
bx 2"
bx 1"
bx 0"
bx /"
x."
bx -"
bx ,"
bx +"
x*"
bx )"
bx ("
bx '"
bx &"
bx %"
bx $"
bx #"
bx ""
b0 !"
b0 ~
0}
0|
bx {
0z
bx y
xx
1w
bx v
bx u
bx t
bx s
bx r
bx q
b0 p
b0 o
0n
0m
bx l
0k
bx j
xi
1h
bx g
bx f
bx e
bx d
bx c
bx b
b0 a
b0 `
0_
0^
bx ]
0\
bx [
xZ
1Y
bx X
bx W
bx V
bx U
bx T
bx S
b0 R
b0 Q
0P
0O
bx N
0M
bx L
xK
1J
bx I
bx H
xG
bx F
bx E
xD
bx C
bx B
b0 A
bx @
bx ?
bx >
bx =
bx <
bx ;
bx :
bx 9
bx 8
bx 7
bx 6
bx 5
bx 4
bx 3
x2
x1
x0
bx /
bx .
b0 -
b0 ,
bx +
b0 *
b0 )
0(
0'
0&
b0 %
bx $
0#
bx "
x!
$end
#10
b0 d
b0 X
b0 ]
b0 U
b0 I
b0 N
b0 $"
b0 v
b0 {
b0 s
b0 g
b0 l
b0 L"
b0 \"
0i
0x
0K
0Z
01
0G
0D
b0 b
b0 S
b0 /
b0 C
b0 T
b0 c
b0 <"
b0 ""
b0 q
b10000000000 .
b10000000000 B
b10000000000 r
b10000000000 #"
b10000000000 @"
b0 ?
b0 H
b0 :"
b0 >"
00
0*"
05"
0."
0!
02
1H"
b0 N"
0J"
b110101001000010100111001100 >
b110101001000010100111001100 7"
b110101001000010100111001100 B"
b110101001000010100111001100 Q"
b0 @
b0 9"
b0 K"
0W"
1V"
b0 ^"
0Z"
b0 ["
1&
#20
0&
#30
1&
#40
0&
#50
1(
1&
#60
0&
#70
1M
1\
1k
1z
b10 !"
b100000000000 $"
b100000000000 ""
b10 ~
b10 a
b10 `
b1 p
b10000000000 s
b10000000000 q
b1 o
b1 R
b1 Q
1O
1^
1m
1|
b10 *
b10 -
b100000000000000001 A
b1 )
b1 ,
1P
1_
1n
1}
1'
1&
#80
0&
#90
b10000011111 0"
b100000011111 3"
b11111 ("
b11111 ,"
0O
0M
0^
0\
0m
0k
0|
0z
b10000000000 /"
b100000000000 2"
b0 '"
b0 +"
b100000000000 v
b100000000000 {
b10000000000 g
b10000000000 l
0P
0_
0n
0}
0'
b10000000000 j
b10000000000 t
b10000000000 u
1i
b10000000000000000000000000000000000000010000000000 7
b10000000000000000000000000000000000000010000000000 E
b100000000000 y
b100000000000 %"
b100000000000 &"
1x
b0 L
b0 V
b0 W
1K
b0 =
b0 F
b0 [
b0 e
b0 f
1Z
1D
b10001110 d
b10001110 b
b1000111 U
b1000111 S
b1000111 /
b1000111 C
b1000111 T
b1000111 c
b1000111 <"
b111111111100 $"
b11111111100 ""
b11111111110 s
b1111111110 q
b1111111110 .
b1111111110 B
b1111111110 r
b1111111110 #"
b1111111110 @"
b1 ?
b1 H
b1 :"
b1 >"
b1 %
1&
#100
0&
#110
b10 %
1&
#120
0&
#130
b11 %
1&
#140
0&
#150
b100 %
1&
#160
0&
#170
b101 %
1&
#180
0&
#190
b110 %
1&
#200
0&
#210
b111 %
1&
#220
0&
#230
b1000 %
1&
#240
0&
#250
1M
1\
1k
1z
b100 !"
b1011111111000 $"
b111111111000 ""
b100 ~
b100 a
b100011100 d
b100011100 b
b100 `
b10 p
b101111111100 s
b11111111100 q
b10 o
b10 R
b10001110 U
b10001110 S
b10 Q
1O
1^
1m
1|
b100 *
b100 -
b1000000000000000010 A
b10 )
b10 ,
1P
1_
1n
1}
1'
b1001 %
1&
#260
0&
#270
b100111011 ,"
b100011100 +"
b100011100 X
b100011100 ]
b10101101 ("
b10001110 '"
b10001110 I
b10001110 N
b1100000011000 3"
b1011111111000 2"
b1011111111000 v
b1011111111000 {
b110000011100 0"
b101111111100 /"
b101111111100 g
b101111111100 l
0O
0M
0^
0\
0m
0k
0|
0z
b1010 %
b1101011000 d
b1000111100 b
b110101100 U
b100011110 S
b10001111 /
b10001111 C
b10001111 T
b10001111 c
b10001111 <"
b10011111010000 $"
b111111011000 ""
b1001111101000 s
b11111101100 q
b1111110110 .
b1111110110 B
b1111110110 r
b1111110110 #"
b1111110110 @"
b10 ?
b10 H
b10 :"
b10 >"
b100011100 [
b100011100 e
b100011100 f
b10001110000000000000000000000000000000010001110 =
b10001110000000000000000000000000000000010001110 F
b10001110 L
b10001110 V
b10001110 W
b1011111111000 y
b1011111111000 %"
b1011111111000 &"
b101111111100000000000000000000000000000101111111100 7
b101111111100000000000000000000000000000101111111100 E
b101111111100 j
b101111111100 t
b101111111100 u
0P
0_
0n
0}
0'
1&
#280
0&
#290
b1011 %
1&
#300
0&
#310
b1100 %
1&
#320
0&
#330
b1101 %
1&
#340
0&
#350
b1110 %
1&
#360
0&
#370
b1111 %
1&
#380
0&
#390
b10000 %
1&
#400
0&
#410
b10001 %
1&
#420
0&
#430
1M
1\
1k
1z
b110 !"
b10111110111100 $"
b1011111000100 ""
b110 ~
b110 a
b10001110110 d
b1101011010 b
b110 `
b11 p
b1011111011110 s
b101111100010 q
b11 o
b11 R
b1000111011 U
b110101101 S
b11 Q
1O
1^
1m
1|
b10010 %
b110 *
b110 -
b1100000000000000011 A
b11 )
b11 ,
1P
1_
1n
1}
1'
1&
#440
0&
#450
0O
0M
0^
0\
0m
0k
0|
0z
b1011111111110 0"
b1011111011110 /"
b1011111011110 g
b1011111011110 l
b10111111011011 3"
b10111110111100 2"
b10111110111100 v
b10111110111100 {
b1001011010 ("
b1000111011 '"
b1000111011 I
b1000111011 N
b10010010110 ,"
b10001110110 +"
b10001110110 X
b10001110110 ]
0P
0_
0n
0}
0'
b1011111011110 j
b1011111011110 t
b1011111011110 u
b1011111011110000000000000000000000000001011111011110 7
b1011111011110000000000000000000000000001011111011110 E
b10111110111100 y
b10111110111100 %"
b10111110111100 &"
b1000111011 L
b1000111011 V
b1000111011 W
b1000111011000000000000000000000000000001000111011 =
b1000111011000000000000000000000000000001000111011 F
b10001110110 [
b10001110110 e
b10001110110 f
b100101110100 d
b10011111110 b
b10010111010 U
b1001111111 S
b11010101 /
b11010101 C
b11010101 T
b11010101 c
b11010101 <"
b100011100111000 $"
b1011101111100 ""
b10001110011100 s
b101110111110 q
b1111101010 .
b1111101010 B
b1111101010 r
b1111101010 #"
b1111101010 @"
b11 ?
b11 H
b11 :"
b11 >"
b10011 %
1&
#460
0&
#470
b10100 %
1&
#480
0&
#490
b10101 %
1&
#500
0&
#510
b10110 %
1&
#520
0&
#530
b10111 %
1&
#540
0&
#550
b11000 %
1&
#560
0&
#570
b11001 %
1&
#580
0&
#590
b11010 %
1&
#600
0&
#610
1M
1\
1k
1z
b1000 !"
b100111100001100 $"
b1111101010000 ""
b1000 ~
b1000 a
b101100011110 d
b11010101000 b
b1000 `
b100 p
b10011110000110 s
b111110101000 q
b100 o
b100 R
b10110001111 U
b1101010100 S
b100 Q
1O
1^
1m
1|
b1000 *
b1000 -
b10000000000000000100 A
b100 )
b100 ,
1P
1_
1n
1}
1'
b11011 %
1&
#620
0&
#630
b101100111101 ,"
b101100011110 +"
b101100011110 X
b101100011110 ]
b10110101110 ("
b10110001111 '"
b10110001111 I
b10110001111 N
b100111100101011 3"
b100111100001100 2"
b100111100001100 v
b100111100001100 {
b10011110100101 0"
b10011110000110 /"
b10011110000110 g
b10011110000110 l
0O
0M
0^
0\
0m
0k
0|
0z
b11100 %
b1001111101110 d
b100011010000 b
b100111110111 U
b10001101000 S
b100011010 /
b100011010 C
b100011010 T
b100011010 c
b100011010 <"
b110110111001100 $"
b1111011000000 ""
b11011011100110 s
b111101100000 q
b1111011000 .
b1111011000 B
b1111011000 r
b1111011000 #"
b1111011000 @"
b100 ?
b100 H
b100 :"
b100 >"
b101100011110 [
b101100011110 e
b101100011110 f
b10110001111000000000000000000000000000010110001111 =
b10110001111000000000000000000000000000010110001111 F
b10110001111 L
b10110001111 V
b10110001111 W
b100111100001100 y
b100111100001100 %"
b100111100001100 &"
b10011110000110000000000000000000000000010011110000110 7
b10011110000110000000000000000000000000010011110000110 E
b10011110000110 j
b10011110000110 t
b10011110000110 u
0P
0_
0n
0}
0'
1&
#640
0&
#650
b11101 %
1&
#660
0&
#670
b11110 %
1&
#680
0&
#690
b11111 %
1&
#700
0&
#710
b100000 %
1&
#720
0&
#730
b100001 %
1&
#740
0&
#750
b100010 %
1&
#760
0&
#770
b100011 %
1&
#780
0&
#790
1M
1\
1k
1z
b1010 !"
b111010101111100 $"
b10011001110000 ""
b1010 ~
b1010 a
b1011000100010 d
b101100000100 b
b1010 `
b101 p
b11101010111110 s
b1001100111000 q
b101 o
b101 R
b101100010001 U
b10110000010 S
b101 Q
1O
1^
1m
1|
b100100 %
b1010 *
b1010 -
b10100000000000000101 A
b101 )
b101 ,
1P
1_
1n
1}
1'
1&
#800
0&
#810
0O
0M
0^
0\
0m
0k
0|
0z
b11101011011101 0"
b11101010111110 /"
b11101010111110 g
b11101010111110 l
b111010110011100 3"
b111010101111100 2"
b111010101111100 v
b111010101111100 {
b101100110000 ("
b101100010001 '"
b101100010001 I
b101100010001 N
b1011001000001 ,"
b1011000100010 +"
b1011000100010 X
b1011000100010 ]
0P
0_
0n
0}
0'
b11101010111110 j
b11101010111110 t
b11101010111110 u
b11101010111110000000000000000000000000011101010111110 7
b11101010111110000000000000000000000000011101010111110 E
b111010101111100 y
b111010101111100 %"
b111010101111100 &"
b101100010001 L
b101100010001 V
b101100010001 W
b101100010001000000000000000000000000000101100010001 =
b101100010001000000000000000000000000000101100010001 F
b1011000100010 [
b1011000100010 e
b1011000100010 f
b10001111001110 d
b110110101100 b
b1000111100111 U
b11011010110 S
b101011110 /
b101011110 C
b101011110 T
b101011110 c
b101011110 <"
b1001101100010000 $"
b10010110010100 ""
b100110110001000 s
b1001011001010 q
b1111000010 .
b1111000010 B
b1111000010 r
b1111000010 #"
b1111000010 @"
b101 ?
b101 H
b101 :"
b101 >"
b100101 %
1&
#820
0&
#830
b100110 %
1&
#840
0&
#850
b100111 %
1&
#860
0&
#870
b101000 %
1&
#880
0&
#890
b101001 %
1&
#900
0&
#910
b101010 %
1&
#920
0&
#930
b101011 %
1&
#940
0&
#950
b101100 %
1&
#960
0&
#970
1M
1\
1k
1z
b1100 !"
b1010001010010100 $"
b10110100011000 ""
b1100 ~
b1100 a
b10011010001010 d
b1000001101000 b
b1100 `
b110 p
b101000101001010 s
b1011010001100 q
b110 o
b110 R
b1001101000101 U
b100000110100 S
b110 Q
1O
1^
1m
1|
b1100 *
b1100 -
b11000000000000000110 A
b110 )
b110 ,
1P
1_
1n
1}
1'
b101101 %
1&
#980
0&
#990
b10011010101001 ,"
b10011010001010 +"
b10011010001010 X
b10011010001010 ]
b1001101100101 ("
b1001101000101 '"
b1001101000101 I
b1001101000101 N
b1010001010110011 3"
b1010001010010100 2"
b1010001010010100 v
b1010001010010100 {
b101000101101010 0"
b101000101001010 /"
b101000101001010 g
b101000101001010 l
0O
0M
0^
0\
0m
0k
0|
0z
b101110 %
b11101000001010 d
b1001110000000 b
b1110100000101 U
b100111000000 S
b110100000 /
b110100000 C
b110100000 T
b110100000 c
b110100000 <"
b1100111001101000 $"
b10101111010100 ""
b110011100110100 s
b1010111101010 q
b1110100111 .
b1110100111 B
b1110100111 r
b1110100111 #"
b1110100111 @"
b110 ?
b110 H
b110 :"
b110 >"
b10011010001010 [
b10011010001010 e
b10011010001010 f
b1001101000101000000000000000000000000001001101000101 =
b1001101000101000000000000000000000000001001101000101 F
b1001101000101 L
b1001101000101 V
b1001101000101 W
b1010001010010100 y
b1010001010010100 %"
b1010001010010100 &"
b101000101001010000000000000000000000000101000101001010 7
b101000101001010000000000000000000000000101000101001010 E
b101000101001010 j
b101000101001010 t
b101000101001010 u
0P
0_
0n
0}
0'
1&
#1000
0&
#1010
b101111 %
1&
#1020
0&
#1030
b110000 %
1&
#1040
0&
#1050
b110001 %
1&
#1060
0&
#1070
b110010 %
1&
#1080
0&
#1090
b110011 %
1&
#1100
0&
#1110
b110100 %
1&
#1120
0&
#1130
b110101 %
1&
#1140
0&
#1150
1M
1\
1k
1z
b1110 !"
b1101010110110110 $"
b11001100100010 ""
b1110 ~
b1110 a
b11110101001010 d
b1011011000000 b
b1110 `
b111 p
b110101011011011 s
b1100110010001 q
b111 o
b111 R
b1111010100101 U
b101101100000 S
b111 Q
1O
1^
1m
1|
b110110 %
b1110 *
b1110 -
b11100000000000000111 A
b111 )
b111 ,
1P
1_
1n
1}
1'
1&
#1160
0&
#1170
0O
0M
0^
0\
0m
0k
0|
0z
b110101011111011 0"
b110101011011011 /"
b110101011011011 g
b110101011011011 l
b1101010111010101 3"
b1101010110110110 2"
b1101010110110110 v
b1101010110110110 {
b1111011000100 ("
b1111010100101 '"
b1111010100101 I
b1111010100101 N
b11110101101010 ,"
b11110101001010 +"
b11110101001010 X
b11110101001010 ]
0P
0_
0n
0}
0'
b110101011011011 j
b110101011011011 t
b110101011011011 u
b110101011011011000000000000000000000000110101011011011 7
b110101011011011000000000000000000000000110101011011011 E
b1101010110110110 y
b1101010110110110 %"
b1101010110110110 &"
b1111010100101 L
b1111010100101 V
b1111010100101 W
b1111010100101000000000000000000000000001111010100101 =
b1111010100101000000000000000000000000001111010100101 F
b11110101001010 [
b11110101001010 e
b11110101001010 f
b101011110011000 d
b1101001001110 b
b10101111001100 U
b110100100111 S
b111100001 /
b111100001 C
b111100001 T
b111100001 c
b111100001 <"
b10000011100100110 $"
b11000101110000 ""
b1000001110010011 s
b1100010111000 q
b1110001000 .
b1110001000 B
b1110001000 r
b1110001000 #"
b1110001000 @"
b111 ?
b111 H
b111 :"
b111 >"
b110111 %
1&
#1180
0&
#1190
b111000 %
1&
#1200
0&
#1210
b111001 %
1&
#1220
0&
#1230
b111010 %
1&
#1240
0&
#1250
b111011 %
1&
#1260
0&
#1270
b111100 %
1&
#1280
0&
#1290
b111101 %
1&
#1300
0&
#1310
b111110 %
1&
#1320
0&
#1330
1M
1\
1k
1z
b10000 !"
b10000111000110110 $"
b11100010000000 ""
b10000 ~
b10000 a
b101101101011010 d
b1111000010000 b
b10000 `
b1000 p
b1000011100011011 s
b1110001000000 q
b1000 o
b1000 R
b10110110101101 U
b111100001000 S
b1000 Q
1O
1^
1m
1|
b10000 *
b10000 -
b100000000000000001000 A
b1000 )
b1000 ,
1P
1_
1n
1}
1'
b111111 %
1&
#1340
0&
#1350
b101101101111010 ,"
b101101101011010 +"
b101101101011010 X
b101101101011010 ]
b10110111001100 ("
b10110110101101 '"
b10110110101101 I
b10110110101101 N
b10000111001010101 3"
b10000111000110110 2"
b10000111000110110 v
b10000111000110110 {
b1000011100111010 0"
b1000011100011011 /"
b1000011100011011 g
b1000011100011011 l
0O
0M
0^
0\
0m
0k
0|
0z
b1000000 %
b111110101001010 d
b10000111110000 b
b11111010100101 U
b1000011111000 S
b1000011111 /
b1000011111 C
b1000011111 T
b1000011111 c
b1000011111 <"
b10100010001110110 $"
b11011001000000 ""
b1010001000111011 s
b1101100100000 q
b1101100100 .
b1101100100 B
b1101100100 r
b1101100100 #"
b1101100100 @"
b1000 ?
b1000 H
b1000 :"
b1000 >"
b101101101011010 [
b101101101011010 e
b101101101011010 f
b10110110101101000000000000000000000000010110110101101 =
b10110110101101000000000000000000000000010110110101101 F
b10110110101101 L
b10110110101101 V
b10110110101101 W
b10000111000110110 y
b10000111000110110 %"
b10000111000110110 &"
b1000011100011011000000000000000000000001000011100011011 7
b1000011100011011000000000000000000000001000011100011011 E
b1000011100011011 j
b1000011100011011 t
b1000011100011011 u
0P
0_
0n
0}
0'
1&
#1360
0&
#1370
b1000001 %
1&
#1380
0&
#1390
b1000010 %
1&
#1400
0&
#1410
b1000011 %
1&
#1420
0&
#1430
b1000100 %
1&
#1440
0&
#1450
b1000101 %
1&
#1460
0&
#1470
b1000110 %
1&
#1480
0&
#1490
b1000111 %
1&
#1500
0&
#1510
1M
1\
1k
1z
b10010 !"
b10100101100111110 $"
b11110100001000 ""
b10010 ~
b10010 a
b1000000110001000 d
b10011000101110 b
b10010 `
b1001 p
b1010010110011111 s
b1111010000100 q
b1001 o
b1001 R
b100000011000100 U
b1001100010111 S
b1001 Q
1O
1^
1m
1|
b1001000 %
b10010 *
b10010 -
b100100000000000001001 A
b1001 )
b1001 ,
1P
1_
1n
1}
1'
1&
#1520
0&
#1530
0O
0M
0^
0\
0m
0k
0|
0z
b1010010110111110 0"
b1010010110011111 /"
b1010010110011111 g
b1010010110011111 l
b10100101101011101 3"
b10100101100111110 2"
b10100101100111110 v
b10100101100111110 {
b100000011100100 ("
b100000011000100 '"
b100000011000100 I
b100000011000100 N
b1000000110100111 ,"
b1000000110001000 +"
b1000000110001000 X
b1000000110001000 ]
0P
0_
0n
0}
0'
b1010010110011111 j
b1010010110011111 t
b1010010110011111 u
b1010010110011111000000000000000000000001010010110011111 7
b1010010110011111000000000000000000000001010010110011111 E
b10100101100111110 y
b10100101100111110 %"
b10100101100111110 &"
b100000011000100 L
b100000011000100 V
b100000011000100 W
b100000011000100000000000000000000000000100000011000100 =
b100000011000100000000000000000000000000100000011000100 F
b1000000110001000 [
b1000000110001000 e
b1000000110001000 f
b1010101111011100 d
b10101001010100 b
b101010111101110 U
b1010100101010 S
b1001011010 /
b1001011010 C
b1001011010 T
b1001011010 c
b1001011010 <"
b11000010101110110 $"
b11101000111000 ""
b1100001010111011 s
b1110100011100 q
b1100111100 .
b1100111100 B
b1100111100 r
b1100111100 #"
b1100111100 @"
b1001 ?
b1001 H
b1001 :"
b1001 >"
b1001001 %
1&
#1540
0&
#1550
b1001010 %
1&
#1560
0&
#1570
b1001011 %
1&
#1580
0&
#1590
b1001100 %
1&
#1600
0&
#1610
b1001101 %
1&
#1620
0&
#1630
b1001110 %
1&
#1640
0&
#1650
b1001111 %
1&
#1660
0&
#1670
b1010000 %
1&
#1680
0&
#1690
1M
1\
1k
1z
b10100 !"
b11000101111101110 $"
b100000010110000 ""
b10100 ~
b10100 a
b1011000010010000 d
b10111100001000 b
b10100 `
b1010 p
b1100010111110111 s
b10000001011000 q
b1010 o
b1010 R
b101100001001000 U
b1011110000100 S
b1010 Q
1O
1^
1m
1|
b10100 *
b10100 -
b101000000000000001010 A
b1010 )
b1010 ,
1P
1_
1n
1}
1'
b1010001 %
1&
#1700
0&
#1710
b1011000010101111 ,"
b1011000010010000 +"
b1011000010010000 X
b1011000010010000 ]
b101100001101000 ("
b101100001001000 '"
b101100001001000 I
b101100001001000 N
b11000110000001110 3"
b11000101111101110 2"
b11000101111101110 v
b11000101111101110 {
b1100011000010111 0"
b1100010111110111 /"
b1100010111110111 g
b1100010111110111 l
0O
0M
0^
0\
0m
0k
0|
0z
b1010010 %
b1110001111111000 d
b11001101101000 b
b111000111111100 U
b1100110110100 S
b1010010010 /
b1010010010 C
b1010010010 T
b1010010010 c
b1010010010 <"
b11100100100101110 $"
b11110101000000 ""
b1110010010010111 s
b1111010100000 q
b1100010000 .
b1100010000 B
b1100010000 r
b1100010000 #"
b1100010000 @"
b1010 ?
b1010 H
b1010 :"
b1010 >"
b1011000010010000 [
b1011000010010000 e
b1011000010010000 f
b101100001001000000000000000000000000000101100001001000 =
b101100001001000000000000000000000000000101100001001000 F
b101100001001000 L
b101100001001000 V
b101100001001000 W
b11000101111101110 y
b11000101111101110 %"
b11000101111101110 &"
b1100010111110111000000000000000000000001100010111110111 7
b1100010111110111000000000000000000000001100010111110111 E
b1100010111110111 j
b1100010111110111 t
b1100010111110111 u
0P
0_
0n
0}
0'
1&
#1720
0&
#1730
b1010011 %
1&
#1740
0&
#1750
b1010100 %
1&
#1760
0&
#1770
b1010101 %
1&
#1780
0&
#1790
b1010110 %
1&
#1800
0&
#1810
b1010111 %
1&
#1820
0&
#1830
b1011000 %
1&
#1840
0&
#1850
b1011001 %
1&
#1860
0&
#1870
1M
1\
1k
1z
b10110 !"
b11100111101001110 $"
b100001101100000 ""
b10110 ~
b10110 a
b1110100100011100 d
b11100010001100 b
b10110 `
b1011 p
b1110011110100111 s
b10000110110000 q
b1011 o
b1011 R
b111010010001110 U
b1110001000110 S
b1011 Q
1O
1^
1m
1|
b1011010 %
b10110 *
b10110 -
b101100000000000001011 A
b1011 )
b1011 ,
1P
1_
1n
1}
1'
1&
#1880
0&
