computing_cascade/chanels_distributor.vcd
$date
	Sat Mar 29 14:39:50 2025
$end
$version
	Icarus Verilog
$end
$timescale
	1ps
$end
$scope module testbench $end
$var wire 1 ! o_vld $end
$var wire 32 " o_ph [31:0] $end
$var wire 2 # o_addres [1:0] $end
$var wire 32 $ o_ac [31:0] $end
$var reg 1 % arstn $end
$var reg 1 & clk $end
$var reg 32 ' i_ac [31:0] $end
$var reg 2 ( i_addres [1:0] $end
$var reg 32 ) i_ph [31:0] $end
$var reg 1 * i_vld $end
$scope module test $end
$var wire 1 & clk $end
$var wire 32 + i_ac [31:0] $end
$var wire 2 , i_addres [1:0] $end
$var wire 32 - i_ph [31:0] $end
$var wire 1 * i_vld $end
$var wire 1 % rstn $end
$var wire 4 . res_vld [3:0] $end
$var wire 128 / res_ph [127:0] $end
$var wire 128 0 res_ac [127:0] $end
$var wire 1 ! o_vld $end
$var reg 4 1 inds [3:0] $end
$var reg 32 2 o_ac [31:0] $end
$var reg 2 3 o_addres [1:0] $end
$var reg 32 4 o_ph [31:0] $end
$scope begin CHANEL[0] $end
$scope module m_ac $end
$var wire 1 & clk $end
$var wire 32 5 i_data [31:0] $end
$var wire 1 6 i_vld $end
$var wire 1 % rstn $end
$var wire 1 7 rstn_sum $end
$var wire 32 8 o_data [31:0] $end
$var wire 1 9 enable $end
$var reg 2 : cnt [1:0] $end
$var reg 1 ; o_vld $end
$var reg 33 < sum [32:0] $end
$scope begin genblk1 $end
$upscope $end
$upscope $end
$scope module m_ph $end
$var wire 1 & clk $end
$var wire 32 = i_data [31:0] $end
$var wire 1 > i_vld $end
$var wire 1 % rstn $end
$var wire 1 ? rstn_sum $end
$var wire 32 @ o_data [31:0] $end
$var wire 1 A enable $end
$var reg 2 B cnt [1:0] $end
$var reg 1 C o_vld $end
$var reg 33 D sum [32:0] $end
$scope begin genblk2 $end
$upscope $end
$upscope $end
$upscope $end
$scope begin CHANEL[1] $end
$scope module m_ac $end
$var wire 1 & clk $end
$var wire 32 E i_data [31:0] $end
$var wire 1 F i_vld $end
$var wire 1 % rstn $end
$var wire 1 G rstn_sum $end
$var wire 32 H o_data [31:0] $end
$var wire 1 I enable $end
$var reg 2 J cnt [1:0] $end
$var reg 1 K o_vld $end
$var reg 33 L sum [32:0] $end
$scope begin genblk1 $end
$upscope $end
$upscope $end
$scope module m_ph $end
$var wire 1 & clk $end
$var wire 32 M i_data [31:0] $end
$var wire 1 N i_vld $end
$var wire 1 % rstn $end
$var wire 1 O rstn_sum $end
$var wire 32 P o_data [31:0] $end
$var wire 1 Q enable $end
$var reg 2 R cnt [1:0] $end
$var reg 1 S o_vld $end
$var reg 33 T sum [32:0] $end
$scope begin genblk2 $end
$upscope $end
$upscope $end
$upscope $end
$scope begin CHANEL[2] $end
$scope module m_ac $end
$var wire 1 & clk $end
$var wire 32 U i_data [31:0] $end
$var wire 1 V i_vld $end
$var wire 1 % rstn $end
$var wire 1 W rstn_sum $end
$var wire 32 X o_data [31:0] $end
$var wire 1 Y enable $end
$var reg 2 Z cnt [1:0] $end
$var reg 1 [ o_vld $end
$var reg 33 \ sum [32:0] $end
$scope begin genblk1 $end
$upscope $end
$upscope $end
$scope module m_ph $end
$var wire 1 & clk $end
$var wire 32 ] i_data [31:0] $end
$var wire 1 ^ i_vld $end
$var wire 1 % rstn $end
$var wire 1 _ rstn_sum $end
$var wire 32 ` o_data [31:0] $end
$var wire 1 a enable $end
$var reg 2 b cnt [1:0] $end
$var reg 1 c o_vld $end
$var reg 33 d sum [32:0] $end
$scope begin genblk2 $end
$upscope $end
$upscope $end
$upscope $end
$scope begin CHANEL[3] $end
$scope module m_ac $end
$var wire 1 & clk $end
$var wire 32 e i_data [31:0] $end
$var wire 1 f i_vld $end
$var wire 1 % rstn $end
$var wire 1 g rstn_sum $end
$var wire 32 h o_data [31:0] $end
$var wire 1 i enable $end
$var reg 2 j cnt [1:0] $end
$var reg 1 k o_vld $end
$var reg 33 l sum [32:0] $end
$scope begin genblk1 $end
$upscope $end
$upscope $end
$scope module m_ph $end
$var wire 1 & clk $end
$var wire 32 m i_data [31:0] $end
$var wire 1 n i_vld $end
$var wire 1 % rstn $end
$var wire 1 o rstn_sum $end
$var wire 32 p o_data [31:0] $end
$var wire 1 q enable $end
$var reg 2 r cnt [1:0] $end
$var reg 1 s o_vld $end
$var reg 33 t sum [32:0] $end
$scope begin genblk2 $end
$upscope $end
$upscope $end
$upscope $end
$scope begin $ivl_for_loop0 $end
$var integer 32 u i [31:0] $end
$upscope $end
$scope begin $ivl_for_loop1 $end
$var integer 32 v j [31:0] $end
$upscope $end
$upscope $end
$scope begin $ivl_for_loop2 $end
$var integer 32 w i [31:0] $end
$upscope $end
$upscope $end
$enddefinitions $end
#0
$dumpvars
b0 w
b100 v
b100 u
bx t
xs
bx r
xq
bx p
xo
0n
bx m
bx l
xk
bx j
xi
b0xxxxxxxxxxxxxxxxxxxxxxxxxxxxxxx h
xg
0f
bx e
bx d
xc
bx b
xa
bx `
x_
0^
bx ]
bx \
x[
bx Z
xY
b0xxxxxxxxxxxxxxxxxxxxxxxxxxxxxxx X
xW
0V
bx U
bx T
xS
bx R
xQ
bx P
xO
0N
bx M
bx L
xK
bx J
xI
b0xxxxxxxxxxxxxxxxxxxxxxxxxxxxxxx H
xG
0F
bx E
bx D
xC
bx B
xA
bx @
x?
0>
bx =
bx <
x;
bx :
x9
b0xxxxxxxxxxxxxxxxxxxxxxxxxxxxxxx 8
x7
06
bx 5
bx 4
bx 3
bx 2
b1 1
b0xxxxxxxxxxxxxxxxxxxxxxxxxxxxxxx0xxxxxxxxxxxxxxxxxxxxxxxxxxxxxxx0xxxxxxxxxxxxxxxxxxxxxxxxxxxxxxx0xxxxxxxxxxxxxxxxxxxxxxxxxxxxxxx 0
bx /
bx .
bx -
b0 ,
bx +
0*
bx )
b0 (
bx '
0&
0%
bx $
bx #
bx "
x!
$end
#10000
b100 v
09
07
b0 :
0!
0;
0A
0?
b0 B
0C
0I
0G
b0 J
0K
0Q
0O
b0 R
0S
0Y
0W
b0 Z
0[
0a
0_
b0 b
0c
0i
0g
b0 j
b0 .
0k
0q
0o
b0 r
0s
1&
#20000
0&
#30000
b100 v
b0xxxxxxxxxxxxxxxxxxxxxxxxxxxxxx h
b0xxxxxxxxxxxxxxxxxxxxxxxxxxxxxx X
b0xxxxxxxxxxxxxxxxxxxxxxxxxxxxxx H
b0xxxxxxxxxxxxxxxxxxxxxxxxxxxxxx00xxxxxxxxxxxxxxxxxxxxxxxxxxxxxx00xxxxxxxxxxxxxxxxxxxxxxxxxxxxxx00xxxxxxxxxxxxxxxxxxxxxxxxxxxxxx 0
b0xxxxxxxxxxxxxxxxxxxxxxxxxxxxxx 8
b0xxxxxxxxxxxxxxxxxxxxxxxxxxxxxxxx l
b0xxxxxxxxxxxxxxxxxxxxxxxxxxxxxxxx \
b0xxxxxxxxxxxxxxxxxxxxxxxxxxxxxxxx L
b0xxxxxxxxxxxxxxxxxxxxxxxxxxxxxxxx <
1&
#40000
0&
#50000
1%
1&
#60000
0&
#70000
1&
#80000
0&
#90000
16
1>
b10 )
b10 -
b10 =
b10 M
b10 ]
b10 m
b10 '
b10 +
b10 5
b10 E
b10 U
b10 e
1*
1&
#100000
0&
#110000
1F
1N
06
0>
b100 v
b0 p
b0 h
b0 `
b0 X
b0 P
b0 H
b0 /
b0 @
b0 0
b0 8
b10 1
b100 u
b1 (
b1 ,
b10 t
b10 l
b10 d
b10 \
b10 T
b10 L
1?
b1 B
b10 D
17
b1 :
b10 <
1&
#120000
0&
#130000
1V
1^
0F
0N
b100 1
b100 u
1G
b1 J
1O
b1 R
b10 (
b10 ,
1&
#140000
0&
#150000
1f
1n
0V
0^
b1000 1
b100 u
b11 (
b11 ,
1_
b1 b
1W
b1 Z
b1 w
1&
#160000
0&
#170000
0f
0n
16
1>
b1 1
b100 u
1g
b1 j
1o
b1 r
b1 )
b1 -
b1 =
b1 M
b1 ]
b1 m
b11 '
b11 +
b11 5
b11 E
b11 U
b11 e
b0 (
b0 ,
1&
#180000
0&
#190000
1F
1N
06
0>
b100 v
b1 0
b1 8
b10 1
b100 u
b1 (
b1 ,
b10 B
b11 D
b10 :
b101 <
1&
#200000
0&
#210000
b100 v
1V
1^
0F
0N
b100000000000000000000000000000001 0
b1 H
b100 1
b100 u
b101 L
b10 J
b11 T
b10 R
b10 (
b10 ,
1&
#220000
0&
#230000
1f
1n
0V
0^
b100 v
b10000000000000000000000000000000100000000000000000000000000000001 0
b1 X
b1000 1
b100 u
b11 (
b11 ,
b10 b
b11 d
b10 Z
b101 \
b10 w
1&
#240000
0&
#250000
b100 v
0f
0n
16
1>
b1000000000000000000000000000000010000000000000000000000000000000100000000000000000000000000000001 0
b1 h
b1 1
b100 u
b101 l
b10 j
b11 t
b10 r
b0 )
b0 -
b0 =
b0 M
b0 ]
b0 m
b100 '
b100 +
b100 5
b100 E
b100 U
b100 e
b0 (
b0 ,
1&
#260000
0&
#270000
1F
1N
06
0>
b100 v
b1000000000000000000000000000000010000000000000000000000000000000100000000000000000000000000000010 0
b10 8
b10 1
b100 u
b1 (
b1 ,
1A
b11 B
19
b11 :
b1001 <
1&
#280000
0&
#290000
b100 v
1V
1^
0F
0N
b1000000000000000000000000000000010000000000000000000000000000001000000000000000000000000000000010 0
b10 H
b100 1
b100 u
b1001 L
1I
b11 J
1Q
b11 R
b10 (
b10 ,
1&
#300000
0&
#310000
1f
1n
0V
0^
b100 v
b1000000000000000000000000000000100000000000000000000000000000001000000000000000000000000000000010 0
b10 X
b1000 1
b100 u
b11 (
b11 ,
1a
b11 b
1Y
b11 Z
b1001 \
b11 w
1&
#320000
0&
#330000
b100 v
0f
0n
16
1>
b10000000000000000000000000000000100000000000000000000000000000001000000000000000000000000000000010 0
b10 h
b1 1
b100 u
b1001 l
1i
b11 j
1q
b11 r
b11111111111111111111111111111111 )
b11111111111111111111111111111111 -
b11111111111111111111111111111111 =
b11111111111111111111111111111111 M
b11111111111111111111111111111111 ]
b11111111111111111111111111111111 m
b101 '
b101 +
b101 5
b101 E
b101 U
b101 e
b0 (
b0 ,
1&
#340000
0&
#350000
1F
1N
06
0>
b10000000000000000000000000000000100000000000000000000000000000001000000000000000000000000000000011 0
b11 8
b10 1
b100 u
b0 #
b0 3
b0 "
b0 4
b11 $
b11 2
b100 v
b1 (
b1 ,
1C
0A
0?
b0 B
b10 D
1!
b1 .
1;
09
07
b0 :
b1110 <
1&
#360000
0&
#370000
1V
1^
0F
0N
b1 8
b11111111111111111111111111111111 /
b11111111111111111111111111111111 @
b10000000000000000000000000000000100000000000000000000000000000001100000000000000000000000000000001 0
b11 H
b1 #
b1 3
b11 $
b11 2
b100 v
b100 1
b100 u
b101 <
0;
b111111111111111111111111111111111 D
0C
b1110 L
0I
0G
b0 J
b10 .
1K
b10 T
0Q
0O
b0 R
1S
b10 (
b10 ,
1&
#380000
0&
#390000
1f
1n
0V
0^
b11 X
b1111111111111111111111111111111111111111111111111111111111111111 /
b11111111111111111111111111111111 P
b10000000000000000000000000000000110000000000000000000000000000000100000000000000000000000000000001 0
b1 H
b1000 1
b100 u
b10 #
b10 3
b11 $
b11 2
b100 v
b11 (
b11 ,
1c
0a
0_
b0 b
b10 d
1[
0Y
0W
b0 Z
b1110 \
0S
b111111111111111111111111111111111 T
1!
b100 .
0K
b101 L
b100 w
1&
#400000
0&
#410000
b1 X
b111111111111111111111111111111111111111111111111111111111111111111111111111111111111111111111111 /
b11111111111111111111111111111111 `
b11000000000000000000000000000000010000000000000000000000000000000100000000000000000000000000000001 0
b11 h
b11 #
b11 3
b11 $
b11 2
b100 v
0f
0n
b101 \
0[
b111111111111111111111111111111111 d
0c
b1110 l
0i
0g
b0 j
b1000 .
1k
b10 t
0q
0o
b0 r
1s
0*
1&
#420000
0&
#430000
b11111111111111111111111111111111111111111111111111111111111111111111111111111111111111111111111111111111111111111111111111111111 /
b11111111111111111111111111111111 p
b1000000000000000000000000000000010000000000000000000000000000000100000000000000000000000000000001 0
b1 h
b100 v
0s
b111111111111111111111111111111111 t
0!
b0 .
0k
b101 l
1&
