computing_cascade/computing_cascade.vcd
$date
	Fri May 16 16:58:09 2025
$end
$version
	Icarus Verilog
$end
$timescale
	1s
$end
$scope module testbench $end
$var wire 1 ! o_vld $end
$var wire 32 " mag [31:0] $end
$var wire 1 # finish $end
$var wire 32 $ delta_ph [31:0] $end
$var wire 1 % address_registration_en $end
$var wire 2 & address_output [1:0] $end
$var reg 32 ' GLOBAL_COUNTER [31:0] $end
$var reg 2 ( address_registration [1:0] $end
$var reg 1 ) clk $end
$var reg 1 * i_vld $end
$var reg 1 + rstn $end
$var reg 16 , x1 [15:0] $end
$var reg 16 - x2 [15:0] $end
$scope module test $end
$var wire 2 . address_registration [1:0] $end
$var wire 1 ) clk $end
$var wire 1 * i_vld $end
$var wire 1 + rstn $end
$var wire 16 / x1 [15:0] $end
$var wire 16 0 x2 [15:0] $end
$var wire 32 1 ph_chanel [31:0] $end
$var wire 32 2 ph [31:0] $end
$var wire 1 ! o_vld $end
$var wire 1 3 fifo_vld $end
$var wire 2 4 down_address [1:0] $end
$var wire 2 5 address_output [1:0] $end
$var wire 1 6 ac_ph_vld $end
$var wire 1 # ac_ph_finish $end
$var wire 32 7 ac_chanel [31:0] $end
$var wire 32 8 ac [31:0] $end
$scope module ac_ph_computing $end
$var wire 32 9 ac [31:0] $end
$var wire 1 ) clk $end
$var wire 1 * i_vld $end
$var wire 1 6 o_vld $end
$var wire 1 + rstn $end
$var wire 16 : x1 [15:0] $end
$var wire 16 ; x2 [15:0] $end
$var wire 16 < w_re [15:0] $end
$var wire 16 = w_im [15:0] $end
$var wire 1 > valid_fft_round $end
$var wire 1 ? valid_fft $end
$var wire 1 @ to_polar_vld $end
$var wire 32 A round_re2 [31:0] $end
$var wire 32 B round_re1 [31:0] $end
$var wire 32 C round_im2 [31:0] $end
$var wire 32 D round_im1 [31:0] $end
$var wire 76 E re [75:0] $end
$var wire 32 F ph [31:0] $end
$var wire 32 G o_phase2 [31:0] $end
$var wire 32 H o_phase1 [31:0] $end
$var wire 32 I o_mag2 [31:0] $end
$var wire 32 J o_mag1 [31:0] $end
$var wire 76 K im [75:0] $end
$var wire 1 # finish $end
$var wire 32 L cordic_angle [31:0] $end
$var wire 3 M cnt [2:0] $end
$var wire 2 N address_angle [1:0] $end
$scope module fft_core $end
$var wire 1 ) clk $end
$var wire 1 # finish $end
$var wire 1 + rstn $end
$var wire 1 * valid_i $end
$var wire 32 O x [31:0] $end
$var wire 16 P w_re [15:0] $end
$var wire 16 Q w_im [15:0] $end
$var wire 1 R reset_node $end
$var wire 76 S re [75:0] $end
$var wire 76 T im [75:0] $end
$var wire 1 U counter_enable $end
$var reg 3 V counter [2:0] $end
$var reg 1 ? valid_o $end
$scope begin IM[0] $end
$var wire 38 W psumm_i_im [37:0] $end
$var wire 1 X valid_psumm_i_im $end
$var wire 1 Y valid_psumm_o_im $end
$var wire 38 Z psumm_o_im [37:0] $end
$scope module im_node1 $end
$var wire 1 ) clk $end
$var wire 1 [ en $end
$var wire 1 * enable $end
$var wire 38 \ psumm_i [37:0] $end
$var wire 1 + rstn $end
$var wire 1 ] valid_o_logic $end
$var wire 1 X valid_psumm_i $end
$var wire 1 * valid_x_i $end
$var wire 1 ^ valid_x_o $end
$var wire 16 _ x_i [15:0] $end
$var wire 16 ` x_o [15:0] $end
$var wire 32 a weight_mult [31:0] $end
$var wire 16 b weight_i [15:0] $end
$var wire 38 c psumm_o_logic [37:0] $end
$var wire 38 d psumm_o [37:0] $end
$var reg 38 e psumm_reg [37:0] $end
$var reg 1 Y valid_o $end
$upscope $end
$upscope $end
$scope begin IM[1] $end
$var wire 38 f psumm_i_im [37:0] $end
$var wire 1 g valid_psumm_i_im $end
$var wire 1 h valid_psumm_o_im $end
$var wire 38 i psumm_o_im [37:0] $end
$scope module im_node1 $end
$var wire 1 ) clk $end
$var wire 1 j en $end
$var wire 1 * enable $end
$var wire 38 k psumm_i [37:0] $end
$var wire 1 + rstn $end
$var wire 1 l valid_o_logic $end
$var wire 1 g valid_psumm_i $end
$var wire 1 * valid_x_i $end
$var wire 1 m valid_x_o $end
$var wire 16 n x_i [15:0] $end
$var wire 16 o x_o [15:0] $end
$var wire 32 p weight_mult [31:0] $end
$var wire 16 q weight_i [15:0] $end
$var wire 38 r psumm_o_logic [37:0] $end
$var wire 38 s psumm_o [37:0] $end
$var reg 38 t psumm_reg [37:0] $end
$var reg 1 h valid_o $end
$upscope $end
$upscope $end
$scope begin RE[0] $end
$var wire 38 u psumm_i_re [37:0] $end
$var wire 1 v valid_psumm_i_re $end
$var wire 1 w valid_psumm_o_re $end
$var wire 38 x psumm_o_re [37:0] $end
$scope module re_node1 $end
$var wire 1 ) clk $end
$var wire 1 y en $end
$var wire 1 * enable $end
$var wire 38 z psumm_i [37:0] $end
$var wire 1 + rstn $end
$var wire 1 { valid_o_logic $end
$var wire 1 v valid_psumm_i $end
$var wire 1 * valid_x_i $end
$var wire 1 | valid_x_o $end
$var wire 16 } x_i [15:0] $end
$var wire 16 ~ x_o [15:0] $end
$var wire 32 !" weight_mult [31:0] $end
$var wire 16 "" weight_i [15:0] $end
$var wire 38 #" psumm_o_logic [37:0] $end
$var wire 38 $" psumm_o [37:0] $end
$var reg 38 %" psumm_reg [37:0] $end
$var reg 1 w valid_o $end
$upscope $end
$upscope $end
$scope begin RE[1] $end
$var wire 38 &" psumm_i_re [37:0] $end
$var wire 1 '" valid_psumm_i_re $end
$var wire 1 (" valid_psumm_o_re $end
$var wire 38 )" psumm_o_re [37:0] $end
$scope module re_node1 $end
$var wire 1 ) clk $end
$var wire 1 *" en $end
$var wire 1 * enable $end
$var wire 38 +" psumm_i [37:0] $end
$var wire 1 + rstn $end
$var wire 1 ," valid_o_logic $end
$var wire 1 '" valid_psumm_i $end
$var wire 1 * valid_x_i $end
$var wire 1 -" valid_x_o $end
$var wire 16 ." x_i [15:0] $end
$var wire 16 /" x_o [15:0] $end
$var wire 32 0" weight_mult [31:0] $end
$var wire 16 1" weight_i [15:0] $end
$var wire 38 2" psumm_o_logic [37:0] $end
$var wire 38 3" psumm_o [37:0] $end
$var reg 38 4" psumm_reg [37:0] $end
$var reg 1 (" valid_o $end
$upscope $end
$upscope $end
$upscope $end
$scope module r_im1 $end
$var wire 1 ) clk $end
$var wire 38 5" i_data [37:0] $end
$var wire 1 ? i_vld $end
$var wire 1 + rstn $end
$var wire 38 6" w_convergent [37:0] $end
$var reg 32 7" o_data [31:0] $end
$var reg 1 8" o_vld $end
$upscope $end
$scope module r_im2 $end
$var wire 1 ) clk $end
$var wire 38 9" i_data [37:0] $end
$var wire 1 ? i_vld $end
$var wire 1 + rstn $end
$var wire 38 :" w_convergent [37:0] $end
$var reg 32 ;" o_data [31:0] $end
$var reg 1 <" o_vld $end
$upscope $end
$scope module r_re1 $end
$var wire 1 ) clk $end
$var wire 38 =" i_data [37:0] $end
$var wire 1 ? i_vld $end
$var wire 1 + rstn $end
$var wire 38 >" w_convergent [37:0] $end
$var reg 32 ?" o_data [31:0] $end
$var reg 1 > o_vld $end
$upscope $end
$scope module r_re2 $end
$var wire 1 ) clk $end
$var wire 38 @" i_data [37:0] $end
$var wire 1 ? i_vld $end
$var wire 1 + rstn $end
$var wire 38 A" w_convergent [37:0] $end
$var reg 32 B" o_data [31:0] $end
$var reg 1 C" o_vld $end
$upscope $end
$scope module ram_angle $end
$var wire 1 ) clk $end
$var wire 32 D" data_in [31:0] $end
$var wire 32 E" data_out [31:0] $end
$var wire 1 F" write_enable $end
$var wire 2 G" address [1:0] $end
$upscope $end
$scope module ram_im $end
$var wire 3 H" address [2:0] $end
$var wire 1 ) clk $end
$var wire 16 I" data_in [15:0] $end
$var wire 16 J" data_out [15:0] $end
$var wire 1 K" write_enable $end
$upscope $end
$scope module ram_re $end
$var wire 3 L" address [2:0] $end
$var wire 1 ) clk $end
$var wire 16 M" data_in [15:0] $end
$var wire 16 N" data_out [15:0] $end
$var wire 1 O" write_enable $end
$upscope $end
$scope module to_polar1 $end
$var wire 1 ) clk $end
$var wire 32 P" cordic_angle [31:0] $end
$var wire 1 > i_vld $end
$var wire 32 Q" i_x [31:0] $end
$var wire 32 R" i_y [31:0] $end
$var wire 32 S" o_mag [31:0] $end
$var wire 1 + rstn $end
$var wire 32 T" ys_abs [31:0] $end
$var wire 1 U" sig $end
$var wire 1 V" ready $end
$var wire 1 @ o_vld $end
$var wire 32 W" o_phase [31:0] $end
$var wire 1 X" en $end
$var reg 2 Y" cnt [1:0] $end
$var reg 2 Z" new_state [1:0] $end
$var reg 32 [" phs [31:0] $end
$var reg 2 \" state [1:0] $end
$var reg 32 ]" xs [31:0] $end
$var reg 32 ^" ys [31:0] $end
$upscope $end
$scope module to_polar2 $end
$var wire 1 ) clk $end
$var wire 32 _" cordic_angle [31:0] $end
$var wire 1 > i_vld $end
$var wire 32 `" i_x [31:0] $end
$var wire 32 a" i_y [31:0] $end
$var wire 1 + rstn $end
$var wire 32 b" ys_abs [31:0] $end
$var wire 1 c" sig $end
$var wire 1 d" ready $end
$var wire 1 e" o_vld $end
$var wire 32 f" o_phase [31:0] $end
$var wire 32 g" o_mag [31:0] $end
$var wire 1 h" en $end
$var reg 2 i" cnt [1:0] $end
$var reg 2 j" new_state [1:0] $end
$var reg 32 k" phs [31:0] $end
$var reg 2 l" state [1:0] $end
$var reg 32 m" xs [31:0] $end
$var reg 32 n" ys [31:0] $end
$upscope $end
$upscope $end
$scope module chanels_distributor_module $end
$var wire 1 ) clk $end
$var wire 32 o" i_ac [31:0] $end
$var wire 32 p" i_ph [31:0] $end
$var wire 1 6 i_vld $end
$var wire 1 + rstn $end
$var wire 4 q" res_vld [3:0] $end
$var wire 128 r" res_ph [127:0] $end
$var wire 128 s" res_ac [127:0] $end
$var wire 1 ! o_vld $end
$var wire 2 t" i_addres [1:0] $end
$var reg 4 u" inds [3:0] $end
$var reg 32 v" o_ac [31:0] $end
$var reg 2 w" o_addres [1:0] $end
$var reg 32 x" o_ph [31:0] $end
$scope begin CHANEL[0] $end
$scope module m_ac $end
$var wire 1 ) clk $end
$var wire 32 y" i_data [31:0] $end
$var wire 1 z" i_vld $end
$var wire 1 + rstn $end
$var wire 1 {" o_vld $end
$var wire 32 |" o_data [31:0] $end
$scope begin genblk1 $end
$var wire 1 }" rstn_sum $end
$var wire 1 ~" enable $end
$var reg 1 !# cnt $end
$var reg 1 "# o_vld_sum $end
$var reg 33 ## sum [32:0] $end
$scope begin genblk2 $end
$upscope $end
$scope module r $end
$var wire 1 ) clk $end
$var wire 33 $# i_data [32:0] $end
$var wire 1 "# i_vld $end
$var wire 1 + rstn $end
$var wire 33 %# w_convergent [32:0] $end
$var reg 32 &# o_data [31:0] $end
$var reg 1 {" o_vld $end
$upscope $end
$upscope $end
$upscope $end
$scope module m_ph $end
$var wire 1 ) clk $end
$var wire 32 '# i_data [31:0] $end
$var wire 1 (# i_vld $end
$var wire 1 + rstn $end
$var wire 1 )# o_vld $end
$var wire 32 *# o_data [31:0] $end
$scope begin genblk1 $end
$var wire 1 +# rstn_sum $end
$var wire 1 ,# enable $end
$var reg 1 -# cnt $end
$var reg 1 .# o_vld_sum $end
$var reg 33 /# sum [32:0] $end
$scope begin genblk3 $end
$upscope $end
$scope module r $end
$var wire 1 ) clk $end
$var wire 33 0# i_data [32:0] $end
$var wire 1 .# i_vld $end
$var wire 1 + rstn $end
$var wire 33 1# w_convergent [32:0] $end
$var reg 32 2# o_data [31:0] $end
$var reg 1 )# o_vld $end
$upscope $end
$upscope $end
$upscope $end
$upscope $end
$scope begin CHANEL[1] $end
$scope module m_ac $end
$var wire 1 ) clk $end
$var wire 32 3# i_data [31:0] $end
$var wire 1 4# i_vld $end
$var wire 1 + rstn $end
$var wire 1 5# o_vld $end
$var wire 32 6# o_data [31:0] $end
$scope begin genblk1 $end
$var wire 1 7# rstn_sum $end
$var wire 1 8# enable $end
$var reg 1 9# cnt $end
$var reg 1 :# o_vld_sum $end
$var reg 33 ;# sum [32:0] $end
$scope begin genblk2 $end
$upscope $end
$scope module r $end
$var wire 1 ) clk $end
$var wire 33 <# i_data [32:0] $end
$var wire 1 :# i_vld $end
$var wire 1 + rstn $end
$var wire 33 =# w_convergent [32:0] $end
$var reg 32 ># o_data [31:0] $end
$var reg 1 5# o_vld $end
$upscope $end
$upscope $end
$upscope $end
$scope module m_ph $end
$var wire 1 ) clk $end
$var wire 32 ?# i_data [31:0] $end
$var wire 1 @# i_vld $end
$var wire 1 + rstn $end
$var wire 1 A# o_vld $end
$var wire 32 B# o_data [31:0] $end
$scope begin genblk1 $end
$var wire 1 C# rstn_sum $end
$var wire 1 D# enable $end
$var reg 1 E# cnt $end
$var reg 1 F# o_vld_sum $end
$var reg 33 G# sum [32:0] $end
$scope begin genblk3 $end
$upscope $end
$scope module r $end
$var wire 1 ) clk $end
$var wire 33 H# i_data [32:0] $end
$var wire 1 F# i_vld $end
$var wire 1 + rstn $end
$var wire 33 I# w_convergent [32:0] $end
$var reg 32 J# o_data [31:0] $end
$var reg 1 A# o_vld $end
$upscope $end
$upscope $end
$upscope $end
$upscope $end
$scope begin CHANEL[2] $end
$scope module m_ac $end
$var wire 1 ) clk $end
$var wire 32 K# i_data [31:0] $end
$var wire 1 L# i_vld $end
$var wire 1 + rstn $end
$var wire 1 M# o_vld $end
$var wire 32 N# o_data [31:0] $end
$scope begin genblk1 $end
$var wire 1 O# rstn_sum $end
$var wire 1 P# enable $end
$var reg 1 Q# cnt $end
$var reg 1 R# o_vld_sum $end
$var reg 33 S# sum [32:0] $end
$scope begin genblk2 $end
$upscope $end
$scope module r $end
$var wire 1 ) clk $end
$var wire 33 T# i_data [32:0] $end
$var wire 1 R# i_vld $end
$var wire 1 + rstn $end
$var wire 33 U# w_convergent [32:0] $end
$var reg 32 V# o_data [31:0] $end
$var reg 1 M# o_vld $end
$upscope $end
$upscope $end
$upscope $end
$scope module m_ph $end
$var wire 1 ) clk $end
$var wire 32 W# i_data [31:0] $end
$var wire 1 X# i_vld $end
$var wire 1 + rstn $end
$var wire 1 Y# o_vld $end
$var wire 32 Z# o_data [31:0] $end
$scope begin genblk1 $end
$var wire 1 [# rstn_sum $end
$var wire 1 \# enable $end
$var reg 1 ]# cnt $end
$var reg 1 ^# o_vld_sum $end
$var reg 33 _# sum [32:0] $end
$scope begin genblk3 $end
$upscope $end
$scope module r $end
$var wire 1 ) clk $end
$var wire 33 `# i_data [32:0] $end
$var wire 1 ^# i_vld $end
$var wire 1 + rstn $end
$var wire 33 a# w_convergent [32:0] $end
$var reg 32 b# o_data [31:0] $end
$var reg 1 Y# o_vld $end
$upscope $end
$upscope $end
$upscope $end
$upscope $end
$scope begin CHANEL[3] $end
$scope module m_ac $end
$var wire 1 ) clk $end
$var wire 32 c# i_data [31:0] $end
$var wire 1 d# i_vld $end
$var wire 1 + rstn $end
$var wire 1 e# o_vld $end
$var wire 32 f# o_data [31:0] $end
$scope begin genblk1 $end
$var wire 1 g# rstn_sum $end
$var wire 1 h# enable $end
$var reg 1 i# cnt $end
$var reg 1 j# o_vld_sum $end
$var reg 33 k# sum [32:0] $end
$scope begin genblk2 $end
$upscope $end
$scope module r $end
$var wire 1 ) clk $end
$var wire 33 l# i_data [32:0] $end
$var wire 1 j# i_vld $end
$var wire 1 + rstn $end
$var wire 33 m# w_convergent [32:0] $end
$var reg 32 n# o_data [31:0] $end
$var reg 1 e# o_vld $end
$upscope $end
$upscope $end
$upscope $end
$scope module m_ph $end
$var wire 1 ) clk $end
$var wire 32 o# i_data [31:0] $end
$var wire 1 p# i_vld $end
$var wire 1 + rstn $end
$var wire 1 q# o_vld $end
$var wire 32 r# o_data [31:0] $end
$scope begin genblk1 $end
$var wire 1 s# rstn_sum $end
$var wire 1 t# enable $end
$var reg 1 u# cnt $end
$var reg 1 v# o_vld_sum $end
$var reg 33 w# sum [32:0] $end
$scope begin genblk3 $end
$upscope $end
$scope module r $end
$var wire 1 ) clk $end
$var wire 33 x# i_data [32:0] $end
$var wire 1 v# i_vld $end
$var wire 1 + rstn $end
$var wire 33 y# w_convergent [32:0] $end
$var reg 32 z# o_data [31:0] $end
$var reg 1 q# o_vld $end
$upscope $end
$upscope $end
$upscope $end
$upscope $end
$scope begin $ivl_for_loop0 $end
$var integer 32 {# i [31:0] $end
$upscope $end
$scope begin $ivl_for_loop1 $end
$var integer 32 |# j [31:0] $end
$upscope $end
$upscope $end
$scope module fifo $end
$var wire 1 ) clk $end
$var wire 1 6 down_ready $end
$var wire 1 3 down_valid $end
$var wire 1 }# fifo_pop $end
$var wire 1 ~# fifo_push $end
$var wire 1 + rstn $end
$var wire 2 !$ up_data [1:0] $end
$var wire 1 "$ up_ready $end
$var wire 1 # up_valid $end
$var wire 1 #$ fifo_full $end
$var wire 1 $$ fifo_empty $end
$var wire 2 %$ down_data [1:0] $end
$scope module fifo $end
$var wire 1 ) clk $end
$var wire 1 $$ empty $end
$var wire 1 #$ full $end
$var wire 1 }# pop $end
$var wire 1 ~# push $end
$var wire 2 &$ read_data [1:0] $end
$var wire 1 + rstn $end
$var wire 2 '$ write_data [1:0] $end
$var wire 1 ($ equal_ptrs $end
$var reg 2 )$ rd_ptr [1:0] $end
$var reg 1 *$ rd_ptr_odd_circle $end
$var reg 2 +$ wr_ptr [1:0] $end
$var reg 1 ,$ wr_ptr_odd_circle $end
$upscope $end
$upscope $end
$upscope $end
$upscope $end
$enddefinitions $end
#0
$dumpvars
x,$
bx +$
x*$
bx )$
x($
bx '$
bx &$
bx %$
x$$
x#$
x"$
bx !$
0~#
x}#
b0 |#
b100 {#
bx z#
bx y#
bx x#
bx w#
xv#
xu#
xt#
xs#
bx r#
xq#
xp#
bx o#
bx n#
bx m#
bx l#
bx k#
xj#
xi#
xh#
xg#
bx f#
xe#
xd#
bx c#
bx b#
bx a#
bx `#
bx _#
x^#
x]#
x\#
x[#
bx Z#
xY#
xX#
bx W#
bx V#
bx U#
bx T#
bx S#
xR#
xQ#
xP#
xO#
bx N#
xM#
xL#
bx K#
bx J#
bx I#
bx H#
bx G#
xF#
xE#
xD#
xC#
bx B#
xA#
x@#
bx ?#
bx >#
bx =#
bx <#
bx ;#
x:#
x9#
x8#
x7#
bx 6#
x5#
x4#
bx 3#
bx 2#
bx 1#
bx 0#
bx /#
x.#
x-#
x,#
x+#
bx *#
x)#
x(#
bx '#
bx &#
bx %#
bx $#
bx ##
x"#
x!#
x~"
x}"
bx |"
x{"
xz"
bx y"
bx x"
bx w"
bx v"
bx u"
bx t"
bx s"
bx r"
bx q"
bx p"
bx o"
bx n"
bx m"
bx l"
bx k"
bx j"
bx i"
xh"
bx g"
bx f"
xe"
xd"
xc"
bx b"
bx a"
bx `"
bx _"
bx ^"
bx ]"
bx \"
bx ["
bx Z"
bx Y"
xX"
bx W"
xV"
xU"
bx T"
bx S"
bx R"
bx Q"
bx P"
zO"
bx N"
bz M"
bx L"
zK"
bx J"
bz I"
bx H"
bx G"
zF"
bx E"
bz D"
xC"
bx B"
bx A"
bx @"
bx ?"
bx >"
bx ="
x<"
bx ;"
bx :"
bx 9"
x8"
bx 7"
bx 6"
bx 5"
bx 4"
bx 3"
bx 2"
bx 1"
bx 0"
b0 /"
b0 ."
0-"
0,"
bx +"
0*"
bx )"
x("
1'"
bx &"
bx %"
bx $"
bx #"
bx ""
bx !"
b0 ~
b0 }
0|
0{
bx z
0y
bx x
xw
1v
bx u
bx t
bx s
bx r
bx q
bx p
b0 o
b0 n
0m
0l
bx k
0j
bx i
xh
1g
bx f
bx e
bx d
bx c
bx b
bx a
b0 `
b0 _
0^
0]
bx \
0[
bx Z
xY
1X
bx W
bx V
xU
bx T
bx S
xR
bx Q
bx P
b0 O
bx N
bx M
bx L
bx K
bx J
bx I
bx H
bx G
bx F
bx E
bx D
bx C
bx B
bx A
x@
x?
x>
bx =
bx <
b0 ;
b0 :
bx 9
bx 8
bx 7
x6
bx 5
bx 4
x3
bx 2
bx 1
b0 0
b0 /
bx .
b0 -
b0 ,
0+
0*
0)
bx (
b0 '
bx &
x%
bx $
0#
bx "
x!
$end
#10
1"$
03
b0 r
b0 f
b0 k
b0 c
b0 W
b0 \
b0 2"
b0 &"
b0 +"
b0 #"
b0 u
b0 z
0z"
0(#
04#
0@#
0L#
0X#
0d#
0p#
0}#
b0 Z"
b0 j"
0#$
1$$
b100 |#
b0 &
b0 5
b0 w"
b0 $
b0 2
b0 x"
b0 "
b0 8
b0 v"
0w
0("
0Y
0h
0?
0U
0R
b0 p
b0 a
b0 =
b0 Q
b0 b
b0 q
b0 J"
b0 0"
b0 !"
b10000000000 <
b10000000000 P
b10000000000 ""
b10000000000 1"
b10000000000 N"
b0 M
b0 V
b0 H"
b0 L"
0>
08"
0C"
0<"
06
0@
1V"
b0 \"
0X"
b110101001000010100111001100 L
b110101001000010100111001100 E"
b110101001000010100111001100 P"
b110101001000010100111001100 _"
b0 N
b0 G"
b0 Y"
0e"
1d"
b0 l"
0h"
b0 i"
0,$
1($
b0 +$
0*$
b0 )$
0!
0{"
0~"
0}"
0!#
0"#
0)#
0,#
0+#
0-#
0.#
05#
08#
07#
09#
0:#
0A#
0D#
0C#
0E#
0F#
0M#
0P#
0O#
0Q#
0R#
0Y#
0\#
0[#
0]#
0^#
b0 q"
0e#
0h#
0g#
0i#
0j#
0q#
0t#
0s#
0u#
0v#
0%
b0 (
b0 .
b0 !$
b0 '$
1)
#20
0)
#30
b0xxxxxxxxxxxxxxxxxxxxxxxxxxxxxxxx k#
b0xxxxxxxxxxxxxxxxxxxxxxxxxxxxxxxx l#
b0xxxxxxxxxxxxxxxxxxxxxxxxxxxxxxxx S#
b0xxxxxxxxxxxxxxxxxxxxxxxxxxxxxxxx T#
b0xxxxxxxxxxxxxxxxxxxxxxxxxxxxxxxx ;#
b0xxxxxxxxxxxxxxxxxxxxxxxxxxxxxxxx <#
b0xxxxxxxxxxxxxxxxxxxxxxxxxxxxxxxx ##
b0xxxxxxxxxxxxxxxxxxxxxxxxxxxxxxxx $#
1)
#40
0)
#50
1+
1)
#60
0)
#70
1[
1j
1y
1*"
b10 /"
b100000000000 2"
b100000000000 0"
b10 ."
b10 o
b10 n
b1 ~
b10000000000 #"
b10000000000 !"
b1 }
b1 `
b1 _
1]
1l
1{
1,"
b10 -
b10 0
b10 ;
b100000000000000001 O
b1 ,
b1 /
b1 :
1^
1m
1|
1-"
1*
1)
#80
0)
#90
b10000011111 >"
b100000011111 A"
b11111 6"
b11111 :"
0]
0[
0l
0j
0{
0y
0,"
0*"
b10000000000 ="
b100000000000 @"
b0 5"
b0 9"
b100000000000 &"
b100000000000 +"
b10000000000 u
b10000000000 z
0^
0m
0|
0-"
0*
b10000000000 x
b10000000000 $"
b10000000000 %"
1w
b10000000000000000000000000000000000000010000000000 E
b10000000000000000000000000000000000000010000000000 S
b100000000000 )"
b100000000000 3"
b100000000000 4"
1("
b0 Z
b0 d
b0 e
1Y
b0 K
b0 T
b0 i
b0 s
b0 t
1h
1R
b10001110 r
b10001110 p
b1000111 c
b1000111 a
b1000111 =
b1000111 Q
b1000111 b
b1000111 q
b1000111 J"
b111111111100 2"
b11111111100 0"
b11111111110 #"
b1111111110 !"
b1111111110 <
b1111111110 P
b1111111110 ""
b1111111110 1"
b1111111110 N"
b1 M
b1 V
b1 H"
b1 L"
b1 '
1)
#100
0)
#110
b10 '
1)
#120
0)
#130
b11 '
1)
#140
0)
#150
b100 '
1)
#160
0)
#170
b101 '
1)
#180
0)
#190
b110 '
1)
#200
0)
#210
b111 '
1)
#220
0)
#230
b1000 '
1)
#240
0)
#250
1[
1j
1y
1*"
b100 /"
b1011111111000 2"
b111111111000 0"
b100 ."
b100 o
b100011100 r
b100011100 p
b100 n
b10 ~
b101111111100 #"
b11111111100 !"
b10 }
b10 `
b10001110 c
b10001110 a
b10 _
1]
1l
1{
1,"
b100 -
b100 0
b100 ;
b1000000000000000010 O
b10 ,
b10 /
b10 :
1^
1m
1|
1-"
1*
b1001 '
1)
#260
0)
#270
b100111011 :"
b100011100 9"
b100011100 f
b100011100 k
b10101101 6"
b10001110 5"
b10001110 W
b10001110 \
b1100000011000 A"
b1011111111000 @"
b1011111111000 &"
b1011111111000 +"
b110000011100 >"
b101111111100 ="
b101111111100 u
b101111111100 z
0]
0[
0l
0j
0{
0y
0,"
0*"
b1010 '
b1101011000 r
b1000111100 p
b110101100 c
b100011110 a
b10001111 =
b10001111 Q
b10001111 b
b10001111 q
b10001111 J"
b10011111010000 2"
b111111011000 0"
b1001111101000 #"
b11111101100 !"
b1111110110 <
b1111110110 P
b1111110110 ""
b1111110110 1"
b1111110110 N"
b10 M
b10 V
b10 H"
b10 L"
b100011100 i
b100011100 s
b100011100 t
b10001110000000000000000000000000000000010001110 K
b10001110000000000000000000000000000000010001110 T
b10001110 Z
b10001110 d
b10001110 e
b1011111111000 )"
b1011111111000 3"
b1011111111000 4"
b101111111100000000000000000000000000000101111111100 E
b101111111100000000000000000000000000000101111111100 S
b101111111100 x
b101111111100 $"
b101111111100 %"
0^
0m
0|
0-"
0*
1)
#280
0)
#290
b1011 '
1)
#300
0)
#310
b1100 '
1)
#320
0)
#330
b1101 '
1)
#340
0)
#350
b1110 '
1)
#360
0)
#370
b1111 '
1)
#380
0)
#390
b10000 '
1)
#400
0)
#410
b10001 '
1)
#420
0)
#430
1[
1j
1y
1*"
b110 /"
b10111110111100 2"
b1011111000100 0"
b110 ."
b110 o
b10001110110 r
b1101011010 p
b110 n
b11 ~
b1011111011110 #"
b101111100010 !"
b11 }
b11 `
b1000111011 c
b110101101 a
b11 _
1]
1l
1{
1,"
b10010 '
b110 -
b110 0
b110 ;
b1100000000000000011 O
b11 ,
b11 /
b11 :
1^
1m
1|
1-"
1*
1)
#440
0)
#450
0]
0[
0l
0j
0{
0y
0,"
0*"
b1011111111110 >"
b1011111011110 ="
b1011111011110 u
b1011111011110 z
b10111111011011 A"
b10111110111100 @"
b10111110111100 &"
b10111110111100 +"
b1001011010 6"
b1000111011 5"
b1000111011 W
b1000111011 \
b10010010110 :"
b10001110110 9"
b10001110110 f
b10001110110 k
0^
0m
0|
0-"
0*
b1011111011110 x
b1011111011110 $"
b1011111011110 %"
b1011111011110000000000000000000000000001011111011110 E
b1011111011110000000000000000000000000001011111011110 S
b10111110111100 )"
b10111110111100 3"
b10111110111100 4"
b1000111011 Z
b1000111011 d
b1000111011 e
b1000111011000000000000000000000000000001000111011 K
b1000111011000000000000000000000000000001000111011 T
b10001110110 i
b10001110110 s
b10001110110 t
b100101110100 r
b10011111110 p
b10010111010 c
b1001111111 a
b11010101 =
b11010101 Q
b11010101 b
b11010101 q
b11010101 J"
b100011100111000 2"
b1011101111100 0"
b10001110011100 #"
b101110111110 !"
b1111101010 <
b1111101010 P
b1111101010 ""
b1111101010 1"
b1111101010 N"
b11 M
b11 V
b11 H"
b11 L"
b10011 '
1)
#460
0)
#470
b10100 '
1)
#480
0)
#490
b10101 '
1)
#500
0)
#510
b10110 '
1)
#520
0)
#530
b10111 '
1)
#540
0)
#550
b11000 '
1)
#560
0)
#570
b11001 '
1)
#580
0)
#590
b11010 '
1)
#600
0)
#610
1[
1j
1y
1*"
b1000 /"
b100111100001100 2"
b1111101010000 0"
b1000 ."
b1000 o
b101100011110 r
b11010101000 p
b1000 n
b100 ~
b10011110000110 #"
b111110101000 !"
b100 }
b100 `
b10110001111 c
b1101010100 a
b100 _
1]
1l
1{
1,"
b1000 -
b1000 0
b1000 ;
b10000000000000000100 O
b100 ,
b100 /
b100 :
1^
1m
1|
1-"
1*
b11011 '
1)
#620
0)
#630
b101100111101 :"
b101100011110 9"
b101100011110 f
b101100011110 k
b10110101110 6"
b10110001111 5"
b10110001111 W
b10110001111 \
b100111100101011 A"
b100111100001100 @"
b100111100001100 &"
b100111100001100 +"
b10011110100101 >"
b10011110000110 ="
b10011110000110 u
b10011110000110 z
0]
0[
0l
0j
0{
0y
0,"
0*"
b11100 '
1U
b1001111101110 r
b100011010000 p
b100111110111 c
b10001101000 a
b100011010 =
b100011010 Q
b100011010 b
b100011010 q
b100011010 J"
b110110111001100 2"
b1111011000000 0"
b11011011100110 #"
b111101100000 !"
b1111011000 <
b1111011000 P
b1111011000 ""
b1111011000 1"
b1111011000 N"
b100 M
b100 V
b100 H"
b100 L"
b101100011110 i
b101100011110 s
b101100011110 t
b10110001111000000000000000000000000000010110001111 K
b10110001111000000000000000000000000000010110001111 T
b10110001111 Z
b10110001111 d
b10110001111 e
b100111100001100 )"
b100111100001100 3"
b100111100001100 4"
b10011110000110000000000000000000000000010011110000110 E
b10011110000110000000000000000000000000010011110000110 S
b10011110000110 x
b10011110000110 $"
b10011110000110 %"
0^
0m
0|
0-"
0*
1)
#640
0)
#650
b11101 '
1)
#660
0)
#670
b11110 '
1)
#680
0)
#690
b11111 '
1)
#700
0)
#710
b100000 '
1)
#720
0)
#730
b100001 '
1)
#740
0)
#750
b100010 '
1)
#760
0)
#770
b100011 '
1)
#780
0)
#790
1~#
1[
1j
1y
1*"
b1010 /"
b111010101111100 2"
b10011001110000 0"
b1010 ."
b1010 o
b1011000100010 r
b101100000100 p
b1010 n
b101 ~
b11101010111110 #"
b1001100111000 !"
b101 }
b101 `
b101100010001 c
b10110000010 a
b101 _
1#
1]
1l
1{
1,"
b100100 '
b1010 -
b1010 0
b1010 ;
b10100000000000000101 O
b101 ,
b101 /
b101 :
1^
1m
1|
1-"
1*
1)
#800
0)
