computing_cascade/AC_PH/postprocess/syst_node.vcd
$date
	Fri May 16 13:04:23 2025
$end
$version
	Icarus Verilog
$end
$timescale
	1ps
$end
$scope module test $end
$var wire 1 ! o_vld $end
$var wire 32 " o_phase [31:0] $end
$var wire 32 # o_mag [31:0] $end
$var reg 1 $ arstn $end
$var reg 1 % clk $end
$var reg 1 & i_vld $end
$var reg 32 ' i_xval [31:0] $end
$var reg 32 ( i_yval [31:0] $end
$scope module tp $end
$var wire 1 % clk $end
$var wire 1 & i_vld $end
$var wire 32 ) i_x [31:0] $end
$var wire 32 * i_y [31:0] $end
$var wire 1 + rst $end
$var wire 1 ! o_vld $end
$var wire 32 , o_phase [31:0] $end
$var wire 32 - o_mag [31:0] $end
$var reg 544 . phs [543:0] $end
$var reg 17 / valids [16:0] $end
$var reg 544 0 xs [543:0] $end
$var reg 544 1 ys [543:0] $end
$scope begin TOPOLARloop[0] $end
$upscope $end
$scope begin TOPOLARloop[1] $end
$upscope $end
$scope begin TOPOLARloop[2] $end
$upscope $end
$scope begin TOPOLARloop[3] $end
$upscope $end
$scope begin TOPOLARloop[4] $end
$upscope $end
$scope begin TOPOLARloop[5] $end
$upscope $end
$scope begin TOPOLARloop[6] $end
$upscope $end
$scope begin TOPOLARloop[7] $end
$upscope $end
$scope begin TOPOLARloop[8] $end
$upscope $end
$scope begin TOPOLARloop[9] $end
$upscope $end
$scope begin TOPOLARloop[10] $end
$upscope $end
$scope begin TOPOLARloop[11] $end
$upscope $end
$scope begin TOPOLARloop[12] $end
$upscope $end
$scope begin TOPOLARloop[13] $end
$upscope $end
$scope begin TOPOLARloop[14] $end
$upscope $end
$scope begin TOPOLARloop[15] $end
$upscope $end
$upscope $end
$upscope $end
$enddefinitions $end
#0
$dumpvars
bx 1
bx 0
bx /
bx .
bx -
bx ,
1+
bx *
bx )
bx (
bx '
0&
0%
0$
bx #
bx "
x!
$end
#10000
0!
b0 /
1%
#20000
0%
#30000
1%
#40000
0%
#50000
0+
1$
1%
#60000
0%
#70000
1%
#80000
0%
#90000
b10000000000 (
b10000000000 *
b10000000000 '
b10000000000 )
1&
1%
#100000
0%
#110000
bx00001011010000000000000000000000 .
bx00000000000000000000000000000000 1
bx00000000000000000000100000000000 0
b1 /
b1010000000000 '
b1010000000000 )
1%
#120000
0%
#130000
b1010000000000 (
b1010000000000 *
b10000000000 '
b10000000000 )
bx0001000111100100001010011100110000001011010000000000000000000000 .
b11 /
bx1111111111111111111111000000000011111111111111111111000000000000 1
bx0000000000000000000010000000000000000000000000000001100000000000 0
1%
#140000
0%
#150000
bx111111111111111111111110000000001111111111111111111111000000000000000000000000000001000000000000 1
b111 /
bx000011100110000111010111111111000000010010011011110101100011010000001011010000000000000000000000 .
bx000000000000000000001001000000000000000000000000001000000000000000000000000000000001100000000000 0
b10000000000 (
b10000000000 *
b11111111111111111110110000000000 '
b11111111111111111110110000000000 )
1%
#160000
0%
#170000
b1010000000000 (
b1010000000000 *
b11111111111111111111110000000000 '
b11111111111111111111110000000000 )
bx11111111111111111111111100100000000000000000000000000100000000000000000000000000000001000000000000000000000000000001000000000000 1
bx00000000000000000000100101000000000000000000000000100001000000000000000000000000001000000000000000000000000000000001100000000000 0
b1111 /
bx00001100100110011101011110111000000000010001100110000100011001000001000111100100001010011100110000100001110000000000000000000000 .
1%
#180000
0%
#190000
b11111 /
bx0000000000000000000010010100111000000000000000000010000110000000000000000000000000100001000000000000000000000000001000000000000000000000000000000001100000000000 0
bx1111111111111111111111111011010011111111111111111111111111100000111111111111111111111100000000000000000000000000000001000000000011111111111111111111000000000000 1
bx0000101110110100111101010000111100000010111000011000010010101000000101010110011001111011100111000010100001100100001010011100110000100001110000000000000000000000 .
b11111111111111111111110000000000 (
b11111111111111111111110000000000 *
b11111111111111111110110000000000 '
b11111111111111111110110000000000 )
1%
#200000
0%
#210000
b11111111111111111110110000000000 (
b11111111111111111110110000000000 *
b11111111111111111111110000000000 '
b11111111111111111111110000000000 )
bx111111111111111111111111111111100000000000000000000000011111100000000000000000000000000000100000111111111111111111111100000000001111111111111111111111000000000011111111111111111111000000000000 1
bx000000000000000000001001010100010000000000000000001000011000001000000000000000000010000110000000000000000000000000100001000000000000000000000000001000000000000000000000000000000001100000000000 0
b111111 /
bx000010110100001001100111001010100000000111111100101000011111111100010011100111100111101101011000001010111110011001111011100111000001101100011011110101100011010011011110010000000000000000000000 .
1%
#220000
0%
#230000
b1111111 /
bx00000000000000000000100101010010000000000000000000100001100100010000000000000000001000011000001000000000000000000010000110000000000000000000000000100001000000000000000000000000001000000000000000000000000000000001100000000000 0
bx00000000000000000000000000100011000000000000000000000000111011001111111111111111111111100000100000000000000000000000000000100000000000000000000000000100000000001111111111111111111111000000000000000000000000000001000000000000 1
bx00001011000010010001110010100100000000100110111100101111111001000001010010000011010111100000000100101010000111100111101101011000000101111001100110000100011001001101011110011011110101100011010011011110010000000000000000000000 .
b11111111111111111111110000000000 (
b11111111111111111111110000000000 *
b1010000000000 '
b1010000000000 )
1%
#240000
0%
#250000
b11111111111111111110110000000000 (
b11111111111111111110110000000000 *
b10000000000 '
b10000000000 )
bx0000000000000000000000000001000100000000000000000000000001100110111111111111111111111111000101001111111111111111111111100000100011111111111111111111111111100000000000000000000000000100000000000000000000000000000001000000000000000000000000000001000000000000 1
bx0000000000000000000010010101001000000000000000000010000110010100000000000000000000100001100100100000000000000000001000011000001000000000000000000010000110000000000000000000000000100001000000000000000000000000001000000000000000000000000000000001100000000000 0
b11111111 /
bx0000101100100101110000100101100100000010101010000111101001101010000101000001000011010000000111000010101100000011010111100000000100011001011000011000010010101000110101000001100110000100011001001110010011100100001010011100110011110100110000000000000000000000 .
1%
#260000
0%
#270000
b111111111 /
bx000000000000000000001001010100100000000000000000001000011001010000000000000000000010000110010110000000000000000000100001100100100000000000000000001000011000001000000000000000000010000110000000000000000000000000100001000000000000000000000000001000000000000000000000000000000001100000000000 0
bx000000000000000000000000000010000000000000000000000000000010001111111111111111111111111110011010111111111111111111111111000101000000000000000000000000011111100011111111111111111111111111100000111111111111111111111100000000000000000000000000000001000000000011111111111111111111000000000000 1
bx000010110011010000010101010000100000001011000101001000000001111100010011110101111000010110010110001010101001000011010000000111000001100001111100101000011111111111010101111000011000010010101000111010000110011001111011100111001111101101100100001010011100110011110100110000000000000000000000 .
1%
#280000
0%
#290000
bx00001011001110110011111010111000000000101101001101110011000010000001001110111010110111111110000100101010010101111000010110010110000110001110111100101111111001001101010011111100101000011111111111100110100111100111101101011000111111101110011001111011100111001110111000011011110101100011010011110100110000000000000000000000 .
bx00000000000000000000000000000100000000000000000000000000000000101111111111111111111111111101110111111111111111111111111110011010000000000000000000000000111011000000000000000000000000011111100000000000000000000000000000100000111111111111111111111100000000001111111111111111111111000000000011111111111111111111000000000000 1
bx00000000000000000000100101010010000000000000000000100001100101000000000000000000001000011001011100000000000000000010000110010110000000000000000000100001100100010000000000000000001000011000001000000000000000000010000110000000000000000000000000100001000000000000000000000000001000000000000000000000000000000001100000000000 0
b1111111111 /
1%
#300000
0%
#310000
b11111111111 /
bx0000000000000000000010010101001000000000000000000010000110010100000000000000000000100001100110000000000000000000001000011001011100000000000000000010000110010100000000000000000000100001100100010000000000000000001000011000001000000000000000000010000110000000000000000000000000100001000000000000000000000000001000000000000000000000000000000001100000000000 0
bx0000101100111110110100110111001100000010110110101001110001111110000100111010110010001100111110000010101000111010110111111110000100011001001010000111101001101010110101010110111100101111111001001110011110000011010111100000000111111101000111100111101101011000111010101001100110000100011001001110111000011011110101100011010011110100110000000000000000000000 .
bx0000000000000000000000000000001011111111111111111111111111110010111111111111111111111111111111101111111111111111111111111101110100000000000000000000000001100110000000000000000000000000111011001111111111111111111111100000100000000000000000000000000000100000000000000000000000000100000000001111111111111111111111000000000011111111111111111111000000000000 1
1%
#320000
0%
#330000
bx000010110100000010011101110100000000001011010111000001111100001100010011101001010110001110000010001010100010110010001100111110000001100101000101001000000001111111010101101010000111101001101010111001110001000011010000000111001111111000000011010111100000000111101100011000011000010010101000111010101001100110000100011001001110111000011011110101100011010011110100110000000000000000000000 .
bx000000000000000000000000000000011111111111111111111111111111101000000000000000000000000000001110111111111111111111111111111111100000000000000000000000000010001100000000000000000000000001100110111111111111111111111111000101001111111111111111111111100000100011111111111111111111111111100000000000000000000000000100000000001111111111111111111111000000000011111111111111111111000000000000 1
bx000000000000000000001001010100100000000000000000001000011001010100000000000000000010000110011001000000000000000000100001100110000000000000000000001000011001010000000000000000000010000110010100000000000000000000100001100100100000000000000000001000011000001000000000000000000010000110000000000000000000000000100001000000000000000000000000001000000000000000000000000000000001100000000000 0
b111111111111 /
1%
#340000
0%
#350000
b1111111111111 /
bx00000000000000000000100101010010000000000000000000100001100101100000000000000000001000011001100100000000000000000010000110011001000000000000000000100001100101000000000000000000001000011001010000000000000000000010000110010110000000000000000000100001100100100000000000000000001000011000001000000000000000000010000110000000000000000000000000100001000000000000000000000000001000000000000000000000000000000001100000000000 0
bx00001011010000011000001011111110000000101101010100111101011001100001001110101000111110000011110100101010001001010110001110000010000110010101001101110011000010001101010111000101001000000001111111100110110101111000010110010110111111011001000011010000000111001110101101111100101000011111111111101100011000011000010010101000111010101001100110000100011001001110111000011011110101100011010011110100110000000000000000000000 .
bx00000000000000000000000000000001111111111111111111111111111111100000000000000000000000000000011000000000000000000000000000001110000000000000000000000000000000100000000000000000000000000010001111111111111111111111111110011010111111111111111111111111000101000000000000000000000000011111100011111111111111111111111111100000000000000000000000000100000000001111111111111111111111000000000011111111111111111111000000000000 1
1%
#360000
0%
#370000
bx0000101101000001111101011001010100000010110101000101100000111000000100111010101011000010100110100010101000101000111110000011110100011001010110101001110001111110110101011101001101110011000010001110011010111010110111111110000111111101010101111000010110010110111010111110111100101111111001001110101101111100101000011111111111101100011000011000010010101000111010101001100110000100011001001110111000011011110101100011010011110100110000000000000000000000 .
bx0000000000000000000000000000000100000000000000000000000000000000000000000000000000000000000000100000000000000000000000000000011011111111111111111111111111110010000000000000000000000000000000101111111111111111111111111101110111111111111111111111111110011010000000000000000000000000111011000000000000000000000000011111100011111111111111111111111111100000000000000000000000000100000000001111111111111111111111000000000011111111111111111111000000000000 1
bx0000000000000000000010010101001000000000000000000010000110010111000000000000000000100001100110010000000000000000001000011001100100000000000000000010000110010100000000000000000000100001100101000000000000000000001000011001011100000000000000000010000110010110000000000000000000100001100100010000000000000000001000011000001000000000000000000010000110000000000000000000000000100001000000000000000000000000001000000000000000000000000000000001100000000000 0
b11111111111111 /
1%
#380000
0%
#390000
b111111111111111 /
bx000010110100001000101110111000000000001011010100110010101100111100010011101010111010011111001000001010100010101011000010100110100001100101010111000001111100001111010101110110101001110001111110111001101010110010001100111110001111110100111010110111111110000111101100001010000111101001101010111010111110111100101111111001001110101101111100101000011111111111101100011000011000010010101000111010101001100110000100011001001110111000011011110101100011010011110100110000000000000000000000 .
bx000000000000000000000000000000011111111111111111111111111111111100000000000000000000000000000000000000000000000000000000000000101111111111111111111111111111101011111111111111111111111111110010111111111111111111111111111111101111111111111111111111111101110100000000000000000000000001100110000000000000000000000000111011000000000000000000000000011111100011111111111111111111111111100000000000000000000000000100000000001111111111111111111111000000000011111111111111111111000000000000 1
bx000000000000000000001001010100100000000000000000001000011001011100000000000000000010000110011001000000000000000000100001100110010000000000000000001000011001010100000000000000000010000110010100000000000000000000100001100110000000000000000000001000011001011100000000000000000010000110010100000000000000000000100001100100010000000000000000001000011000001000000000000000000010000110000000000000000000000000100001000000000000000000000000001000000000000000000000000000000001100000000000 0
1%
#400000
0%
#410000
bx00001011010000100100101110000101000000101101010010010001100001000001001110101100000110100101111100101010001010111010011111001000000110010101010100111101011001101101010111010111000001111100001111100110101001010110001110000010111111010010110010001100111110001110110001000101001000000001111111101100001010000111101001101010111010111110111100101111111001001110101101111100101000011111111111101100011000011000010010101000111010101001100110000100011001001110111000011011110101100011010011110100110000000000000000000000 .
bx00000000000000000000000000000001111111111111111111111111111111111111111111111111111111111111111100000000000000000000000000000000111111111111111111111111111111101111111111111111111111111111101000000000000000000000000000001110111111111111111111111111111111100000000000000000000000000010001100000000000000000000000001100110000000000000000000000000111011000000000000000000000000011111100011111111111111111111111111100000000000000000000000000100000000001111111111111111111111000000000011111111111111111111000000000000 1
bx00000000000000000000100101010010000000000000000000100001100110000000000000000000001000011001100100000000000000000010000110011001000000000000000000100001100101100000000000000000001000011001010100000000000000000010000110011001000000000000000000100001100110000000000000000000001000011001010000000000000000000010000110010100000000000000000000100001100100010000000000000000001000011000001000000000000000000010000110000000000000000000000000100001000000000000000000000000001000000000000000000000000000000001100000000000 0
b1111111111111111 /
1%
#420000
0%
#430000
b1011010000100101100111010111 "
b1011010000100101100111010111 ,
b100101010010 #
b100101010010 -
1!
b11111111111111111 /
b101101000010010110011101011100000010110101000111010011011111000100111010101111100001000101000010101000101100000110100101111100011001010101000101100000111000110101011101010100111101011001101110011010101000111110000011110111111101001001010110001110000010111011000101001101110011000010001110110001000101001000000001111111101100001010000111101001101010111010111110111100101111111001001110101101111100101000011111111111101100011000011000010010101000111010101001100110000100011001001110111000011011110101100011010011110100110000000000000000000000 .
b111111111111111111111111111111111111111111111111111111111111111111111111111111111111111111111111100000000000000000000000000000000111111111111111111111111111111100000000000000000000000000000011000000000000000000000000000001110000000000000000000000000000000100000000000000000000000000010001100000000000000000000000001100110000000000000000000000000111011000000000000000000000000011111100011111111111111111111111111100000000000000000000000000100000000001111111111111111111111000000000011111111111111111111000000000000 1
b10010101001000000000000000000010000110011001000000000000000000100001100110100000000000000000001000011001100100000000000000000010000110010111000000000000000000100001100101100000000000000000001000011001100100000000000000000010000110011001000000000000000000100001100101000000000000000000001000011001010000000000000000000010000110010100000000000000000000100001100100010000000000000000001000011000001000000000000000000010000110000000000000000000000000100001000000000000000000000000001000000000000000000000000000000001100000000000 0
1%
#440000
0%
#450000
b10110101000110011010001101 "
b10110101000110011010001101 ,
b10000110011010 #
b10000110011010 -
b1011010100011001101000110100010011101010111100010001101111001010100010101111100001000101000001100101010100110010101100111111010101110101000101100000111000111001101010101011000010100110101111110100101000111110000011110111101100010110101001110001111110111011000101001101110011000010001110110001000101001000000001111111101100001010000111101001101010111010111110111100101111111001001110101101111100101000011111111111101100011000011000010010101000111010101001100110000100011001001110111000011011110101100011010011110100110000000000000000000000 .
b1111111111111111111111111111111111111111111111111111111111111111111111111111111111111111111111111111111111111111111111111111111100000000000000000000000000000000000000000000000000000000000000100000000000000000000000000000011011111111111111111111111111110010000000000000000000000000000000100000000000000000000000000010001100000000000000000000000001100110000000000000000000000000111011000000000000000000000000011111100011111111111111111111111111100000000000000000000000000100000000001111111111111111111111000000000011111111111111111111000000000000 1
b1000011001101000000000000000000010000110011011000000000000000000100001100110100000000000000000001000011001011100000000000000000010000110010111000000000000000000100001100110010000000000000000001000011001100100000000000000000010000110010100000000000000000000100001100101000000000000000000001000011001010000000000000000000010000110010100000000000000000000100001100100010000000000000000001000011000001000000000000000000010000110000000000000000000000000100001000000000000000000000000001000000000000000000000000000000001100000000000 0
1%
#460000
0%
#470000
b10011101010111011011000011101 "
b10011101010111011011000011101 ,
b10000110011100 #
b10000110011100 -
b1001110101011101101100001110100101010001010111100010001101111000110010101010010010001100001001101010111010100110010101100111111100110101010111010011111001000111111010010101011000010100110101110110001010111000001111100001111101100010110101001110001111110111011000101001101110011000010001110110001000101001000000001111111101100001010000111101001101010111010111110111100101111111001001110101101111100101000011111111111101100011000011000010010101000111010101001100110000100011001001110111000011011110101100011010011110100110000000000000000000000 .
b1111111111111111111111111111111111111111111111111111111111111111111111111111111111111111111111111111111111111111111111111111111100000000000000000000000000000000000000000000000000000000000000101111111111111111111111111111101011111111111111111111111111110010000000000000000000000000000000100000000000000000000000000010001100000000000000000000000001100110000000000000000000000000111011000000000000000000000000011111100011111111111111111111111111100000000000000000000000000100000000001111111111111111111111000000000011111111111111111111000000000000 1
b1000011001110000000000000000000010000110011011000000000000000000100001100110000000000000000000001000011001011100000000000000000010000110011001000000000000000000100001100110010000000000000000001000011001010100000000000000000010000110010100000000000000000000100001100101000000000000000000001000011001010000000000000000000010000110010100000000000000000000100001100100010000000000000000001000011000001000000000000000000010000110000000000000000000000000100001000000000000000000000000001000000000000000000000000000000001100000000000 0
1%
#480000
0%
#490000
b101010001010111011011000011101 "
b101010001010111011011000011101 ,
b1111111111111111111111111111111111111111111111111111111111111111111111111111111111111111111111111111111111111111111111111111111100000000000000000000000000000000111111111111111111111111111111101111111111111111111111111111101011111111111111111111111111110010000000000000000000000000000000100000000000000000000000000010001100000000000000000000000001100110000000000000000000000000111011000000000000000000000000011111100011111111111111111111111111100000000000000000000000000100000000001111111111111111111111000000000011111111111111111111000000000000 1
b1000011001110000000000000000000010000110011001000000000000000000100001100110000000000000000000001000011001100100000000000000000010000110011001000000000000000000100001100101100000000000000000001000011001010100000000000000000010000110010100000000000000000000100001100101000000000000000000001000011001010000000000000000000010000110010100000000000000000000100001100100010000000000000000001000011000001000000000000000000010000110000000000000000000000000100001000000000000000000000000001000000000000000000000000000000001100000000000 0
b10101000101011101101100001110100011001010101000111010011011111110101011101010010010001100001001110011010101100000110100101111111111101001010111010011111001000111011000101010100111101011001101110110001010111000001111100001111101100010110101001110001111110111011000101001101110011000010001110110001000101001000000001111111101100001010000111101001101010111010111110111100101111111001001110101101111100101000011111111111101100011000011000010010101000111010101001100110000100011001001110111000011011110101100011010011110100110000000000000000000000 .
1%
#500000
0%
#510000
b11001010101000110011010001101 "
b11001010101000110011010001101 ,
b10000110011010 #
b10000110011010 -
b1100101010100011001101000110111010101110101000111010011011111111001101010101111100001000101001111110100101100000110100101111111101100010101000101100000111000111011000101010100111101011001101110110001010111000001111100001111101100010110101001110001111110111011000101001101110011000010001110110001000101001000000001111111101100001010000111101001101010111010111110111100101111111001001110101101111100101000011111111111101100011000011000010010101000111010101001100110000100011001001110111000011011110101100011010011110100110000000000000000000000 .
b1000011001101000000000000000000010000110011001000000000000000000100001100110100000000000000000001000011001100100000000000000000010000110010111000000000000000000100001100101100000000000000000001000011001010100000000000000000010000110010100000000000000000000100001100101000000000000000000001000011001010000000000000000000010000110010100000000000000000000100001100100010000000000000000001000011000001000000000000000000010000110000000000000000000000000100001000000000000000000000000001000000000000000000000000000000001100000000000 0
1%
#520000
0%
#530000
b11010101110101000110011010001101 "
b11010101110101000110011010001101 ,
b1000011001101000000000000000000010000110011011000000000000000000100001100110100000000000000000001000011001011100000000000000000010000110010111000000000000000000100001100101100000000000000000001000011001010100000000000000000010000110010100000000000000000000100001100101000000000000000000001000011001010000000000000000000010000110010100000000000000000000100001100100010000000000000000001000011000001000000000000000000010000110000000000000000000000000100001000000000000000000000000001000000000000000000000000000000001100000000000 0
b1101010111010100011001101000110111100110101010111100010001101111111111010010101111100001000101001110110001010100110010101100111111101100010101000101100000111000111011000101010100111101011001101110110001010111000001111100001111101100010110101001110001111110111011000101001101110011000010001110110001000101001000000001111111101100001010000111101001101010111010111110111100101111111001001110101101111100101000011111111111101100011000011000010010101000111010101001100110000100011001001110111000011011110101100011010011110100110000000000000000000000 .
1%
#540000
0%
#550000
b11100110101010111011011000011101 "
b11100110101010111011011000011101 ,
b10000110011100 #
b10000110011100 -
b1110011010101011101101100001110111111101001010111100010001101111111011000101010010010001100001001110110001010100110010101100111111101100010101000101100000111000111011000101010100111101011001101110110001010111000001111100001111101100010110101001110001111110111011000101001101110011000010001110110001000101001000000001111111101100001010000111101001101010111010111110111100101111111001001110101101111100101000011111111111101100011000011000010010101000111010101001100110000100011001001110111000011011110101100011010011110100110000000000000000000000 .
b1000011001110000000000000000000010000110011011000000000000000000100001100110000000000000000000001000011001011100000000000000000010000110010111000000000000000000100001100101100000000000000000001000011001010100000000000000000010000110010100000000000000000000100001100101000000000000000000001000011001010000000000000000000010000110010100000000000000000000100001100100010000000000000000001000011000001000000000000000000010000110000000000000000000000000100001000000000000000000000000001000000000000000000000000000000001100000000000 0
1%
#560000
0%
#570000
b11111101001010111011011000011101 "
b11111101001010111011011000011101 ,
b1000011001110000000000000000000010000110011001000000000000000000100001100110000000000000000000001000011001011100000000000000000010000110010111000000000000000000100001100101100000000000000000001000011001010100000000000000000010000110010100000000000000000000100001100101000000000000000000001000011001010000000000000000000010000110010100000000000000000000100001100100010000000000000000001000011000001000000000000000000010000110000000000000000000000000100001000000000000000000000000001000000000000000000000000000000001100000000000 0
b1111110100101011101101100001110111101100010101000111010011011111111011000101010010010001100001001110110001010100110010101100111111101100010101000101100000111000111011000101010100111101011001101110110001010111000001111100001111101100010110101001110001111110111011000101001101110011000010001110110001000101001000000001111111101100001010000111101001101010111010111110111100101111111001001110101101111100101000011111111111101100011000011000010010101000111010101001100110000100011001001110111000011011110101100011010011110100110000000000000000000000 .
1%
#580000
0%
#590000
b11101100010101000110011010001101 "
b11101100010101000110011010001101 ,
b10000110011010 #
b10000110011010 -
b1110110001010100011001101000110111101100010101000111010011011111111011000101010010010001100001001110110001010100110010101100111111101100010101000101100000111000111011000101010100111101011001101110110001010111000001111100001111101100010110101001110001111110111011000101001101110011000010001110110001000101001000000001111111101100001010000111101001101010111010111110111100101111111001001110101101111100101000011111111111101100011000011000010010101000111010101001100110000100011001001110111000011011110101100011010011110100110000000000000000000000 .
b1000011001101000000000000000000010000110011001000000000000000000100001100110000000000000000000001000011001011100000000000000000010000110010111000000000000000000100001100101100000000000000000001000011001010100000000000000000010000110010100000000000000000000100001100101000000000000000000001000011001010000000000000000000010000110010100000000000000000000100001100100010000000000000000001000011000001000000000000000000010000110000000000000000000000000100001000000000000000000000000001000000000000000000000000000000001100000000000 0
1%
